*** Life<FredkinCell> 4x27 ***

Generation = 0, Population = 108.
000000000000000000000000000
000000000000000000000000000
000000000000000000000000000
000000000000000000000000000

Generation = 5, Population = 62.
1-213-----------------312-1
30-3-11111111111111111-3-03
30-3-11111111111111111-3-03
1-213-----------------312-1

Generation = 10, Population = 62.
33535-243-4444444-342-53533
-3---3-3-4-------4-3-3---3-
-3---3-3-4-------4-3-3---3-
33535-243-4444444-342-53533

Generation = 15, Population = 48.
5----4----6-454-6----4----5
7-27-6-44-6--5--6-44-6-72-7
7-27-6-44-6--5--6-44-6-72-7
5----4----6-454-6----4----5

Generation = 20, Population = 54.
---6---8-----------8---6---
+638376-766-868-667-673836+
+638376-766-868-667-673836+
---6---8-----------8---6---

Generation = 25, Population = 66.
-8---+6-86+-+9+-+68-6+---8-
+-6-6-868-84+-+48-868-6-6-+
+-6-6-868-84+-+48-868-6-6-+
-8---+6-86+-+9+-+68-6+---8-

Generation = 30, Population = 88.
+-67++7-8-+7+++7+-8-7++76-+
++8+8-+7+9+-+++-+9+7+-8+8++
++8+8-+7+9+-+++-+9+7+-8+8++
+-67++7-8-+7+++7+-8-7++76-+

Generation = 35, Population = 58.
--7+++9-------------9+++7--
+---++-++++8+++8++++-++---+
+---++-++++8+++8++++-++---+
--7+++9-------------9+++7--

*** Life<FredkinCell> 19x19 ***

Generation = 0, Population = 44.
00----0-----0------
0---0------------0-
---0------0--------
------------0------
-----0-------------
-0-----0-0--0------
-----------------0-
---------------0---
-0----------0------
----------0----0-0-
------0---0--0-----
-------0----------0
---------0------0--
----0---------0----
-----------0-------
--------00---------
----0-----0--------
----------0-00-00--
--------0-0----0---

Generation = 6, Population = 180.
163-31-02-0-2---010
3--0102122----0-1--
--0-002-1-0-2-10---
0-000-11-1-01003310
-11-1-1-1--10-0----
01-0-3-2-25---1-30-
13--021--------2---
0--1-00002--3101-00
--1---11-1----1--3-
--0-100--02-33-01-3
0---21-00-23----1-0
0---02--3---1-0--2-
------1--05-04110-3
0-001111-2---311--2
10------1-20-21-1-0
1-0152-5--1-4-0---0
0-0-0---0-213---200
--0--0---50--2--23-
0---1----06-1-03---

Generation = 12, Population = 161.
284--23----03-1-01-
-2-1--833---3----20
303-24--5-23-3530-1
2--1---542-1---44--
-2--2-22244-02----0
-50---2---631-44---
43--2-10-0-1--0-0--
---1-1-3--1--4-1---
---2257-4-2---3316-
1--1--04--32-50--2-
--234--1------6-2-3
41----00---2--2-53-
3-----------153--15
-33023----4-392---2
2--2-1---14--------
-31-------34---3-20
3-2---3--1---0-3530
1--3421-4--4-312---
20---0---2-1-3--1-2

Generation = 18, Population = 168.
3---9------2--40-3-
------9----2-62322-
----5-438---4-65-24
442--0-5634-2------
----3043-751-8-321-
1-2349-3---622---4-
---3---0-0-36-13-2-
--2--32----46-4230-
46--2----56217-7---
--424--411-4----3-6
5--7-6-2--45-37----
5-1--33-712--1-565-
--0-4-351--13------
----245---5-3-3-61-
4-16--5-436--3---22
--24--57--5864--2-1
---2-144--52--356-2
3----42-----442----
2-2-127--48-3---152

Generation = 24, Population = 155.
6--3--4--715-----9-
-5--8-------6-4-654
4--2-66593---86-4--
--4----7--5-------5
34-23--68-723+2----
--3----4--7-3-4--6-
+435--3-2---8-2--2-
33---636-----75340-
7+-54+9-6--4-97--6-
-38-63----5-8--35-6
82696-362--54491--3
----------2----8---
-2--5665-2853-54-2-
4-3--69---8-7+---1-
-6---4--7--53-8--24
38------65-----644-
--53-1--1-----4---5
9-4--6--7-6--6-3---
------8-1--4-8667--

Generation = 30, Population = 176.
-99--5--59--63---+6
-6--+----55-++74-7-
--8----------+--6-7
-4-5----------366--
96-67-9-++9-5-4+49-
---6-+-5-69-4--75-7
+-5-53-5-23+-5-622-
66--29--2-3799---24
-----++---944+-+3-6
5--4-4-7-254-77----
-69+--5--+5--5----5
+--6-3-2-4-6---9---
-33--78+2-+7-+95-49
-95--8-7-8---+44-1-
7-5+---3-4+8-8+4---
-9279-9--69+----57-
---6-56----3-55-+85
-4-6--9-+6-56--46-5
6-5-95--5-+44--+--4

Generation = 36, Population = 161.
9++--66----77-7-8+-
-9-4--+54---+----+9
619-7+--+-+6-++87-7
+--7---++8-7---78--
-7--8-99+++-6+----1
-+8---4---++6-5+---
+8--6-56-2-+--3-3--
---4-+-9--4--+-4---
---97++-9-+---8+5+-
5--6--17--66-98--6-
--9+7--6------+-5-6
+6----33---8--4-89-
+-----------4++--4+
-+844+----+-++5---5
7--+-7---6+--------
-+4-------++---9-93
8-7---7--2---6-8++5
+--++++-+--7-+35---
85---6---+-6-+--9-8

Generation = 42, Population = 168.
+---+------9--+4-+-
------+----6-+887+-
----+-69+---8-++-5+
+86--5-++9+-7------
----92++-++5-+-+6+-
3-++++-7---+75---+-
---9---6-2-++-46-4-
--5--+5----++-8572-
++--7----++67+-+---
--+7+--753-8----9-9
+--+-+-7--7+-9+----
+-3--56-+54--8-+9+-
--3-9-9+4--86------
----4++---+-+-6-+3-
9-7+--9-+8+--9---87
--5+--++--++96--7-4
---8-78+--84--8++-7
+----++-----8+4----
8-6-+8+--++-6---9+8

Generation = 48, Population = 155.
+--5--7--+3+-----+-
-+--+-------+-+-+++
7--4-+8++7---++-+--
--8----+--+-------9
+9-+9--++-+69+6----
--+----8--+-8-5--+-
+98+--7-7---+-5--4-
88---+6+-----+9682-
++-+9++-+--8-++--+-
-7+-+7----8-+--5+-9
+9++9-7+6--+9++4--6
----------4----+---
-5--++++-6++6-+8-5-
7-8--++---+-++---3-
-+---+--+--+6-+--89
8+------+9-----+9+-
--+9-7--3-----9---+
+-+--+--+-+--+-6---
------+-7--9-++++--

Generation = 54, Population = 176.
-++--9--++--+6---++
-+--+----7+-+++9-+-
--+----------+--+-+
-8-+----------69+--
++-++-+-+++-+-8+8+-
---+-+-9-++-9--+7-+
+-+-95-+-46+-+-954-
++--4+--4-6+++---47
-----++---+8++-+7-+
9--9-8-+-488-++----
-+++--9--+8--+----8
+--+-5-5-8-+---+---
-66--+++5-++-++9-7+
-++--+-+-+---+79-3-
+-++---6-9++-++8---
-+5++-+--+++----++-
---+-++----5-++-+++
-8-+--+-+8-8+--7+-7
+-9-++--+-+97--+--+

Generation = 60, Population = 161.
+++--+9----++-+-++-
-+-7--+75---+----++
92+-++--+-+9-++++-+
+--+---+++-+---++--
-+--+-+++++-++----2
-++---6---+++-6+---
++--+-9+-4-+--6-6--
---7-+-+--7--+-7---
---++++-+-+---++9+-
9--+--2+--9+-++--+-
--+++--+------+-8-9
++----66---+--6-++-
+-----------7++--7+
-++86+----+-++8---8
+--+-+---++--------
-+7-------++---+-+6
+-+---+--3---+-++++
+--++++-+--+-+58---
++---+---+-+-+--+-+

*** Life<FredkinCell> 9x6 ***

Generation = 0, Population = 54.
000000
000000
000000
000000
000000
000000
000000
000000
000000

*** Life<FredkinCell> 1x10 ***

Generation = 0, Population = 6.
--0-0-0000

Generation = 63, Population = 3.
-+----+--+

Generation = 126, Population = 5.
+-+--+-++-

Generation = 189, Population = 5.
---++--+++

Generation = 252, Population = 7.
--++++++-+

Generation = 315, Population = 3.
-++----+--

Generation = 378, Population = 6.
++++--+-+-

Generation = 441, Population = 5.
+--+++---+

Generation = 504, Population = 6.
-+++-++-+-

Generation = 567, Population = 6.
++-+-++--+

Generation = 630, Population = 6.
++---++++-

Generation = 693, Population = 7.
+++-++--++

Generation = 756, Population = 8.
+-+-++++++

Generation = 819, Population = 2.
----+----+

Generation = 882, Population = 3.
---+-+--+-

Generation = 945, Population = 4.
--+---++-+

Generation = 1008, Population = 5.
-+-+-+++--

Generation = 1071, Population = 4.
+----+-++-

Generation = 1134, Population = 5.
-+--+--+++

Generation = 1197, Population = 7.
+-++-+++-+

Generation = 1260, Population = 4.
--++-+-+--

Generation = 1323, Population = 4.
-+++----+-

Generation = 1386, Population = 6.
++-++--+-+

Generation = 1449, Population = 6.
++-++++---

Generation = 1512, Population = 5.
++-+--++--

Generation = 1575, Population = 7.
++--+++++-

*** Life<FredkinCell> 7x17 ***

Generation = 0, Population = 100.
00000000000000-00
000000000-0000-00
--0--000000000000
00-0-0000000--0-0
00000000-00000000
000000000-0000000
000-000000--00--0

Generation = 94, Population = 69.
++++---++++++-+--
--++9--+-----++-+
+-+++++-++-++----
+--++-+-+++-+++++
-4-++7+++4-+-4-++
--++---++-+--+--+
+++-+-+--++--+-++

Generation = 188, Population = 56.
+++-+++-+----+--+
--+-----++-+-+-+-
-+--+++-++-++----
+++----+++-++--+-
-7+-+++++-+---+--
+---+----+-+-+-+-
-+++-+++----++--+

Generation = 282, Population = 55.
--++--+-+-+----+-
+--+-++-+++-+-++-
+--+-++-+-----++-
-+------+--++++-+
+---+-+----+--+--
+--+-++-+++---+++
+-+++++-++-++----

*** Life<FredkinCell> 3x18 ***

Generation = 0, Population = 40.
000-00000--00000-0
0-0000-00000-0--00
-0-0000000-00000--

Generation = 11, Population = 23.
14-60-0-443---2-4-
-----5----3-5-5-44
---2730-----56--2-

Generation = 22, Population = 23.
---8661-9-3--7-39-
--47--4--3-4---6-8
----+----34-8-2-52

Generation = 33, Population = 27.
-------9--5---54-7
---+798-4-84-+9-++
++--+--884+---98+6

Generation = 44, Population = 29.
7+6+++--++-+----+-
--9+----+---++---+
+-+-++-++-+++++++-

Generation = 55, Population = 24.
---+--9---9---8+--
-++-----+++9+----+
+---++--+5+++--++9

Generation = 66, Population = 25.
++-++--------++-+-
-+---++--+++++++--
++-++-+++----+----

Generation = 77, Population = 33.
+-+++-+++--+++---+
+-+-++--++----++++
+-+-+-+++9-+-++-++

Generation = 88, Population = 26.
+++++-+-++-----+-+
-++--+----+-+--++-
--++++-+--++++----

Generation = 99, Population = 30.
-+-+-++---++++--++
+-+++-+--+++----+-
+++--+++--++--+++-

Generation = 110, Population = 28.
+----+++-+--++-++-
--+-+-++-+--+---++
----+-+++++++-++-+

Generation = 121, Population = 23.
+---+--+-+-+----+-
+---+++--+-+-+---+
--++--+++++-----++

Generation = 132, Population = 31.
+-+--+-+--+----++-
+++++++++++---+++-
+++---+++---+-+-++

Generation = 143, Population = 30.
+-+-++--++-++---+-
-++++-+++++++++++-
+-++-------+--+-+-

Generation = 154, Population = 23.
++--++----+-------
-+++-+++--++--+--+
-++---+-+-+---+-++

Generation = 165, Population = 33.
++++-++++---+---++
+-++++---++++--+--
++-+++-+++++---+-+

Generation = 176, Population = 33.
-++++--+-++--++---
+++-+--++++-++-++-
+++--+-++++++---++

Generation = 187, Population = 25.
++-+--+-+-++---+--
--+-+++---+++-----
++----+++-+-+++--+

Generation = 198, Population = 28.
+---+-+++--+-+--++
+-+-++-+++++--++--
+++-+--+-++--+----

Generation = 209, Population = 27.
++---+----++++--++
----++----+-++++-+
-++-+--+-+-+-++++-

Generation = 220, Population = 30.
+-+++-++--+-+-+-+-
-+--++-++-++++---+
+-++-+++++-----+-+

Generation = 231, Population = 28.
--++++++++--+-+--+
-+--+-+--++-+-+--+
-++---+--++-++++--

Generation = 242, Population = 23.
+-+-+--++-+++-++--
+-+---+--+-++-----
--++---+-+--+-++--

Generation = 253, Population = 26.
+-+-+++-+--++--++-
--+++--++--+-----+
+----++--+++--+++-

Generation = 264, Population = 25.
--+--++--+-+++++++
+-+-+-+-+----+++-+
----+-+-----+--++-

Generation = 275, Population = 24.
-+-+-++--+++-+---+
++-+---+--++-+-+++
++-----++-----+---

Generation = 286, Population = 32.
+--++-++--+-++---+
++-+---++-+++++-+-
+++---+--++++-++++

Generation = 297, Population = 27.
--+++++----+-+-++-
+-+--++--++--+-+++
----+++-++--++---+

Generation = 308, Population = 32.
+++-+---+---+++--+
+--+----+-++-+-+++
++-+++--++++++-+++

Generation = 319, Population = 31.
--++-++-+-+-+--+++
++-+-++++-++++--+-
--+-++--+-+--++++-

Generation = 330, Population = 26.
-+--+-+----+-+-+-+
-++-+---+--++++-+-
++--++----+--+++++

Generation = 341, Population = 28.
---++-++-+----++-+
+------+++----+++-
++-+++-+--+++++-++

Generation = 352, Population = 27.
-+---+---+++---+-+
-+++---+--+++-+++-
+++---+--+++-++-+-

Generation = 363, Population = 30.
+-++-+--++---+----
+++----++-+++-++--
+++++-+-+++-++-++-

Generation = 374, Population = 23.
-+-+--++++--+--+++
-+--++--++-----+++
---++--+-------++-

Generation = 385, Population = 22.
--+---++----++--+-
++--+-+-+-++--+-++
--+------++--+--++

Generation = 396, Population = 27.
++--++++----+----+
+--++-++-+++-++-+-
++++-+-----+--+-+-

Generation = 407, Population = 22.
+-++-++-+-+-+-----
--++---+---+-+-+--
+++----+-+--+--++-

Generation = 418, Population = 25.
+------+---+-+++++
+-+-+++-+++-++++--
-+-++-----+-+-----

Generation = 429, Population = 22.
+---+--+----+-++--
------+---+---++-+
++-+-++-+--+--++++

Generation = 440, Population = 26.
++---+---+-+++-+-+
++++----++++-+----
++----+-+-+++-+---

Generation = 451, Population = 27.
+-+-+--+-++--+--+-
+-+++++-++-++-+-+-
++--+-+-----+-++--

Generation = 462, Population = 24.
-+++++-+-++--+--++
-++---+-+--+++--++
----+----+-+-----+

Generation = 473, Population = 23.
-+-++----++-+--++-
---+-+++--+-+---+-
-+++-+++---+--+---

Generation = 484, Population = 28.
++----+-+--+-+-++-
-+++++--++++---+--
-++---++-++++++---

Generation = 495, Population = 26.
+--+--++-+-++-+--+
-+-++-+-++-+----+-
++++-+--++--++----

Generation = 506, Population = 32.
-++++--++++++-+-++
--+-+++++--+++----
+-+++-+--++-+--+-+

Generation = 517, Population = 31.
+++-+++--+-+-+---+
+-+-++-+++-++---++
-++--++-+-+-+++--+

Generation = 528, Population = 21.
---+--+-+--+-++---
--+-++----++++--+-
++-+----+----++--+

Generation = 539, Population = 28.
---++++-+-++-+----
-+-+--++-+--+++-++
+--++++-+--++--+-+

Generation = 550, Population = 29.
+--+-++-+---++-+++
-++---+++++----+-+
+-+--+-++--++-+-++

*** Life<FredkinCell> 9x9 ***

Generation = 0, Population = 3.
---------
---------
---------
---------
---000---
---------
---------
---------
---------

Generation = 1, Population = 10.
---------
---------
---------
---000---
--01-10--
---000---
---------
---------
---------

Generation = 2, Population = 12.
---------
---------
---000---
---------
-012-210-
---------
---000---
---------
---------

Generation = 3, Population = 30.
---------
---000---
--01-10--
-00-0-00-
01-3-3-10
-00-0-00-
--01-10--
---000---
---------

*** Life<FredkinCell> 9x5 ***

Generation = 0, Population = 13.
00---
0-0-0
0--0-
-0---
0----
-----
0---0
-----
0---0

Generation = 65, Population = 18.
-++--
----+
--++-
+-++-
---++
+++0-
+----
+-++-
-----

Generation = 130, Population = 22.
+++-+
-----
+--+-
+-+-0
--0+-
-+---
-0++-
+-+++
++--+

Generation = 195, Population = 22.
++++-
+++--
+++-0
--++-
++-+-
+--0+
-----
----+
-+-+-

Generation = 260, Population = 18.
-++-+
-----
--++-
-----
--0+-
+-+-+
+0--+
-0---
++-++

Generation = 325, Population = 13.
-+--+
-+-0-
+----
+-++-
-----
----+
-0-+-
-----
-+-+-

Generation = 390, Population = 20.
+++++
-+---
++---
---+-
-+0++
-----
-----
+-+++
+-0+-

Generation = 455, Population = 20.
+-+--
-++0+
++---
+-+--
+--+-
+++--
--+--
+--+-
-+--+

Generation = 520, Population = 20.
-++++
+-+-+
-+++-
-0---
-+0--
+-+-+
+--+-
-0---
+----

Generation = 585, Population = 26.
+++--
-+-0+
-+++0
-----
++-+-
+++0+
---++
+-++-
+--++

Generation = 650, Population = 18.
+++--
-+---
+-+--
+-++0
+-0++
-+---
+----
-----
+---+

Generation = 715, Population = 27.
++--+
+--0+
+-++-
+--+-
++-++
-++0+
+-+++
+--++
+----

Generation = 780, Population = 14.
-++-+
+-+-+
--++0
-0---
--0-+
-----
--+--
-----
--0--

Generation = 845, Population = 18.
-++--
----+
--++-
+-++-
---++
+++0-
+----
+-++-
-----

Generation = 910, Population = 22.
+++-+
-----
+--+-
+-+-0
--0+-
-+---
-0++-
+-+++
++--+

Generation = 975, Population = 22.
++++-
+++--
+++-0
--++-
++-+-
+--0+
-----
----+
-+-+-

Generation = 1040, Population = 18.
-++-+
-----
--++-
-----
--0+-
+-+-+
+0--+
-0---
++-++

Generation = 1105, Population = 13.
-+--+
-+-0-
+----
+-++-
-----
----+
-0-+-
-----
-+-+-

Generation = 1170, Population = 20.
+++++
-+---
++---
---+-
-+0++
-----
-----
+-+++
+-0+-

Generation = 1235, Population = 20.
+-+--
-++0+
++---
+-+--
+--+-
+++--
--+--
+--+-
-+--+

Generation = 1300, Population = 20.
-++++
+-+-+
-+++-
-0---
-+0--
+-+-+
+--+-
-0---
+----

*** Life<FredkinCell> 1x19 ***

Generation = 0, Population = 17.
000000-0000-0000000

Generation = 184, Population = 4.
--------+--+---++--

Generation = 368, Population = 5.
+--+---+---+--+----

Generation = 552, Population = 7.
+--+---++-----+++--

Generation = 736, Population = 4.
--------+--+---++--

Generation = 920, Population = 5.
+--+---+---+--+----

Generation = 1104, Population = 7.
+--+---++-----+++--

Generation = 1288, Population = 4.
--------+--+---++--

*** Life<FredkinCell> 8x36 ***

Generation = 0, Population = 124.
00--0---0-0--0-0--000-0-00----0---00
0---0-00-0-0-0000-0--0----000000-0-0
--0--0-0-0-0----00000------000-00--0
---0--00-------0---000-------00----0
-000-00--000000---0-0--00-00-------0
00-------0-000---0-0000---00--000--0
0-----00------00--0-000-0-0---0--0--
--0---0--00-0----00---0-0---00-0-00-

Generation = 179, Population = 145.
--+---++--++-+++++----++++-+++++---+
---+++++++-++---+-+++++-++----++-+++
-+-++---+++-----+-++++-++-++++-+++--
---++--++-----+---+--+-++++-++-++++-
---++-++--++++---++-+--+--++++---+-+
+----++--+--+++++-++--------++-++---
+----+-+++------+++-+--++++--+-++-+-
++-+-+--------+---+-+++---++-++++-+-

Generation = 358, Population = 137.
--+-+++-----+++----+---+-+--+-+-+-++
+++--+--+--+-+--+++-----+++-+++-+++-
----++-+++++-+----+--+++++-+-+--+-++
+-----++-+---+++++---++++-++-+++++--
----++-+-++---------+---+---++----+-
++++-----+--+++++-+----+++----+-++--
++-+-+++-++------++-+-+--+++--++-++-
---++---+++-++-+-++-----+--+++--++++

Generation = 537, Population = 148.
+-+--++----+---+++-++---+-+++++-++++
++++-+-+++---+++--++-+++++--+++++-++
---+++-++++--------++-++-+-++---+---
-++----++----+-+--+---+-+-++++-+++++
----+---+---++--+-+-+-+-+++++++++-++
+-++++----+++++++-+---++--++-------+
--++--+---++-++--++--+-+-----+--++-+
+-+-+--+-+++-+-++--+++-----++--++-+-

Generation = 716, Population = 150.
+--++----+--+++-++++++++--+--+-+-+++
+++-+---++--++++++---+-+----++-+++-+
+-++----+--++-+-+--+++-++---+--+---+
-+-+----+--+----+-+++++--++++++---++
++++-+++++---+---+-+-++----------++-
--+---++----+++--+-+-++-+-+++--+++-+
--+-+++----+--+++---++++++-+++++++-+
++++++----+-----+++-+-+++++-+--+--+-
