*** Life<ConwayCell> 2x2 ***

Generation = 0, Population = 4.
**
**

Generation = 1, Population = 4.
**
**

Generation = 2, Population = 4.
**
**

Generation = 3, Population = 4.
**
**

*** Life<ConwayCell> 4x4 ***

Generation = 0, Population = 4.
....
.**.
.**.
....

Generation = 1, Population = 4.
....
.**.
.**.
....

*** Life<ConwayCell> 5x5 ***

Generation = 0, Population = 3.
.....
.....
.***.
.....
.....

Generation = 1, Population = 3.
.....
..*..
..*..
..*..
.....

Generation = 2, Population = 3.
.....
.....
.***.
.....
.....

*** Life<ConwayCell> 5x5 ***

Generation = 0, Population = 4.
.....
..*..
.*.*.
..*..
.....

Generation = 1, Population = 4.
.....
..*..
.*.*.
..*..
.....

*** Life<ConwayCell> 5x6 ***

Generation = 0, Population = 6.
......
..**..
.*..*.
..**..
......

Generation = 1, Population = 6.
......
..**..
.*..*.
..**..
......

*** Life<ConwayCell> 6x6 ***

Generation = 0, Population = 5.
......
..*...
...*..
.***..
......
......

Generation = 1, Population = 5.
......
......
.*.*..
..**..
..*...
......

Generation = 2, Population = 5.
......
......
...*..
.*.*..
..**..
......

Generation = 3, Population = 5.
......
......
..*...
...**.
..**..
......

Generation = 4, Population = 5.
......
......
...*..
....*.
..***.
......

*** Life<ConwayCell> 6x6 ***

Generation = 0, Population = 7.
.*....
..*...
..**..
....*.
....**
......

Generation = 2, Population = 7.
..*...
.*.*..
.*....
.....*
....**
......

Generation = 4, Population = 7.
......
.**...
......
...***
....**
......

Generation = 6, Population = 5.
......
...*..
..***.
.....*
......
......

*** Life<ConwayCell> 4x69 ***

Generation = 0, Population = 39.
....*.*.........*.......*.....*..*...*........*.*........**.*..*.....
*...*...*...........................**.*....*.......**...............
*...........*.......*.......*......**................*...*.*.........
......................*..*..*...*....*..*................*...*.......

Generation = 2, Population = 14.
....................................*.*..............................
...................................*...*............**....*..........
...................................*..*.............**...***.........
.....................................................................

Generation = 4, Population = 19.
....................................***...................*..........
....................................***.............**...*.*.........
....................................***.............**...............
.........................................................***.........

Generation = 6, Population = 18.
.....................................................................
...................................**.**............**...***.........
....................................***.............**...*.*.........
.....................................*....................*..........

Generation = 8, Population = 19.
..........................................................*..........
...................................**.**............**...*.*.........
...................................*...*............**...*.*.........
....................................***...................*..........

Generation = 10, Population = 19.
..........................................................*..........
...................................**.**............**...*.*.........
...................................*...*............**...*.*.........
....................................***...................*..........

Generation = 12, Population = 19.
..........................................................*..........
...................................**.**............**...*.*.........
...................................*...*............**...*.*.........
....................................***...................*..........

Generation = 14, Population = 19.
..........................................................*..........
...................................**.**............**...*.*.........
...................................*...*............**...*.*.........
....................................***...................*..........

Generation = 16, Population = 19.
..........................................................*..........
...................................**.**............**...*.*.........
...................................*...*............**...*.*.........
....................................***...................*..........

Generation = 18, Population = 19.
..........................................................*..........
...................................**.**............**...*.*.........
...................................*...*............**...*.*.........
....................................***...................*..........

Generation = 20, Population = 19.
..........................................................*..........
...................................**.**............**...*.*.........
...................................*...*............**...*.*.........
....................................***...................*..........

Generation = 22, Population = 19.
..........................................................*..........
...................................**.**............**...*.*.........
...................................*...*............**...*.*.........
....................................***...................*..........

Generation = 24, Population = 19.
..........................................................*..........
...................................**.**............**...*.*.........
...................................*...*............**...*.*.........
....................................***...................*..........

Generation = 26, Population = 19.
..........................................................*..........
...................................**.**............**...*.*.........
...................................*...*............**...*.*.........
....................................***...................*..........

*** Life<ConwayCell> 34x37 ***

Generation = 0, Population = 165.
*.**.............*...................
....*..*...*...*.............*.*.....
..*.................*.**.........*...
.....................................
....*.........*...**.*..*...*...*....
*..*...........*......*...*....*.....
.*............*.*.......*.*..........
*.........*****.*.....*..............
.....................................
........*.*...*.....*...*......*.....
...*.*.*...**.....*.....**.......*...
............*....*......*............
.......*......*......*....*...*......
...**....*....*.....*..*..*.....*....
...........**.........*.........*....
.........*.......*.*...*.......*..*..
....*...*.....*....................**
........*...*..............**........
..*.......*...*.......*......*.......
....*........*............*..........
.......................*..........*..
*............**.*.....*.*...*.*......
..........................**.....*...
.......*.*.*..*...........*....*.....
*..........*...........*....*.....*..
............*................**.*....
*...............*..*.......**........
....*........*.......................
...*.*....*................*.*.*...*.
....*.*.............*...*.....*...*..
*.*.......*......*...................
....................**...*...*.....*.
*..........................**........
......*.....*.............**.*.......

Generation = 58, Population = 105.
.....................................
.....................................
.....................***.............
.....................................
....*.........................*...**.
....*......................*...*.**.*
....*.....................*..*.*....*
..........................**..***..**
...............................**....
.....................................
.....................................
.....................................
.....................................
...............................*.....
.............***..............*.*....
.............***..............*..*...
.............***........*......**....
...........*.....*.....*.............
.........***.....***.*...............
.....***......*......*.*.............
.....*.......***.....................
.....***..*.**.**.*..***.............
..........****.****.........***......
........**.**...**.**................
.....................................
.........**.......**.................
..........**.....**..................
...........*.....*...................
.....................................
.....................................
.....................................
.....................................
.....................................
.....................................

Generation = 116, Population = 112.
.....................................
.....................................
.....................***.............
.....................................
....*................................
....*.......*..................***...
....*......*.*.......................
.............**......................
.........*...........................
.........*.**........................
..........*.............*............
..........................**.........
......................*....*.........
......................*....*...*.....
........................***...*.*....
........................***...*..*...
............*.......******.....**....
.......*.*..*......*....**...........
......**.*.....**..*....*............
.**....*.*.....**...*...*............
*.******......**.....................
*...***......***.....................
*..*....**.....*............***......
.***..*..*......*....................
.......***....*......................
.......*......*.....**...............
........**.....*...*.*...............
...................**................
.....................................
.....................................
.....................................
.....................................
.....................................
.....................................

Generation = 174, Population = 108.
.....................................
.....................................
.....................***.............
.....................................
....*................................
....*..........................***...
....*................................
.....................................
..........*..........................
.........*.*............**...........
..........*.............**...........
.....................................
.....................................
.....................................
.....................................
...*....................**...........
.**....................*..*..........
.***..........***.......**...........
................*....................
..............*..*...................
...*.*.......*..***..................
..*..**.***.*........*...............
...*...*.*......*.*...*.....***......
...******.**.......**................
...**.**..*.....*....................
...**......****.**...................
.....*.....*..*......*...............
...............*...**.*..............
..........*....*...**..*.............
..........*....*.**...*..............
....................**...............
.............*...**.*................
.............*.......................
.....................*...............

Generation = 232, Population = 67.
.....................................
.....................................
.....................***.............
.....................................
....*................................
....*..........................***...
....*................................
.....................................
..........*..........................
.........*.*............**...........
..........*.............**...........
.....................................
.....................................
.....................................
.....................................
.....................................
.....................................
.....................................
.............**......................
.......**....**......................
......*..*...........................
.....***.**..........................
......*.*.*...........*..............
....*.***..*......*..*.**............
....***....*......****.*.............
..................*..*...............
......*...*..........................
......*..*...........................
....*.*..........*...................
.....*..........*.*..................
................*.*..................
.................*...................
.....................................
.....................................

Generation = 290, Population = 42.
.....................................
.....................................
.....................***.............
.....................................
....*................................
....*..........................***...
....*................................
.....................................
..........*..........................
.........*.*............**...........
..........*.............**...........
.....................................
.....................................
.....................................
.....................................
.....................................
.....................................
....**...............................
....**.......**......................
.............**......................
.....................................
...**..................**............
...**..................**............
.....................................
.....................................
.....................................
.....................................
.....................................
.....*...........*...................
.....*..........*.*..................
.....*..........*.*..................
.................*...................
.....................................
.....................................

Generation = 348, Population = 42.
.....................................
.....................................
.....................***.............
.....................................
....*................................
....*..........................***...
....*................................
.....................................
..........*..........................
.........*.*............**...........
..........*.............**...........
.....................................
.....................................
.....................................
.....................................
.....................................
.....................................
....**...............................
....**.......**......................
.............**......................
.....................................
...**..................**............
...**..................**............
.....................................
.....................................
.....................................
.....................................
.....................................
.....*...........*...................
.....*..........*.*..................
.....*..........*.*..................
.................*...................
.....................................
.....................................

Generation = 406, Population = 42.
.....................................
.....................................
.....................***.............
.....................................
....*................................
....*..........................***...
....*................................
.....................................
..........*..........................
.........*.*............**...........
..........*.............**...........
.....................................
.....................................
.....................................
.....................................
.....................................
.....................................
....**...............................
....**.......**......................
.............**......................
.....................................
...**..................**............
...**..................**............
.....................................
.....................................
.....................................
.....................................
.....................................
.....*...........*...................
.....*..........*.*..................
.....*..........*.*..................
.................*...................
.....................................
.....................................

*** Life<ConwayCell> 27x45 ***

Generation = 0, Population = 122.
............*..*.......................*.....
.............*........*.*........*........*..
..............*..........*...................
...*.......*.*..............**...........*..*
..*..*..*..........*.................*.......
*.......*.........*...*......................
.........*..*..................*.......*.....
.*.*.................................*..*....
.*......................**......*.........*..
*....*....*.*...*........*................*..
...**..*.......*......................*.....*
..*....................*.*...................
.......*....*.*........*...............*...*.
*.*............**.............*......*......*
..*....................................*.....
...*...........*.............................
...............*..........*...........*......
...**....*....*...........*..................
............*............*...*.............*.
....*.................*....................*.
....*.........*..............*.............*.
.*..*.....*....*........***..............***.
..............*.............*..........*.*...
.*..................*....................*...
.........*.......*..........*...............*
.........**..........*.....*...............*.
...............*............*....**.....*....

Generation = 76, Population = 68.
.............................................
.............................................
.............................................
....*........................................
..**.**.................*....................
..*..**................*.*...................
....*..................*.*...................
...*....................*....................
...**...................................***..
..***.......................**.........*..*..
......*....................*..*........*...*.
..*..*..........**..........**.........*..*..
...***..........**......................*.*..
........................*....................
.......................*.*...................
.......................*.*...................
........................*....................
.............................................
.............................................
.............................................
.............................................
........................***..................
...................................*.........
..................................*.*........
.........**......................*..*........
.........**.......................**.........
.............................................

Generation = 152, Population = 109.
.............................................
..........***................................
..........*...*..........*.....*.............
.......*.....*...........***......*..........
......*.............**........*...**..*......
...................****......****.....*......
......*....*........*..**...***......*.......
........**............**..........**.........
.............................*.*.............
..............................*..............
.............................................
....................*........................
..................****.....**................
.............**..*...*....*..*.............*.
......**....*..*.***.......**...........*...*
......**.....**.........................*...*
........................................*...*
.....................................*....*.*
...................................*.......**
...................................*.........
....................................*......**
........................***..........*......*
...........................................*.
..................................*..........
.........**......................*......*.*..
.........**......................**....***...
.............................................

Generation = 228, Population = 38.
.........**..................................
.........**..................................
.............................................
.............................................
.............................................
.................**..........................
.................**..........................
.....................*.......................
.....................*.......................
.....................*.......................
.............................................
.............................................
...........................**................
..........................*..*...............
......**...................**................
......**.....................................
...................................***.......
.............................................
.............................................
.............................................
.............................................
........................***..................
.............................................
.............................................
.........**.............................**...
.........**............................*..*..
........................................***..

Generation = 304, Population = 38.
.........**..................................
.........**..................................
.............................................
.............................................
.............................................
.................**..........................
.................**..........................
.....................*.......................
.....................*.......................
.....................*.......................
.............................................
.............................................
...........................**................
..........................*..*...............
......**...................**................
......**.....................................
...................................***.......
.............................................
.............................................
.............................................
.............................................
........................***..................
.............................................
.............................................
.........**.............................**...
.........**............................*..*..
........................................***..

*** Life<ConwayCell> 16x36 ***

Generation = 0, Population = 104.
.......*.**.*....*..**...*..*.......
.....*.**...................*.*.....
..........**.**..*......*.......*...
.......*......***..............*....
.........**..*.................*...*
.............*..**...*..............
.....*...*.....*.......*...*........
....*.*....*...*..**........*.*.....
*..*.*.......*..........*...........
*.........***.......*...*...*......*
....*....*.....*.....**....*..**....
**..**..*.............*.....*..*....
....*.*....****........*..*..**.....
....*......*....*.**...........*....
.......*.***............*..*........
............**......*.....*......*..

Generation = 90, Population = 30.
............**......................
............**......................
....................................
....................................
...........................*........
..........................*.*.......
..........**.............*..*.......
..........**..............**........
....................................
....................................
............................**......
...........................*..*.....
...........................*.*......
......**....**..............*.......
......**....**......................
....................................

Generation = 180, Population = 30.
............**......................
............**......................
....................................
....................................
...........................*........
..........................*.*.......
..........**.............*..*.......
..........**..............**........
....................................
....................................
............................**......
...........................*..*.....
...........................*.*......
......**....**..............*.......
......**....**......................
....................................

Generation = 270, Population = 30.
............**......................
............**......................
....................................
....................................
...........................*........
..........................*.*.......
..........**.............*..*.......
..........**..............**........
....................................
....................................
............................**......
...........................*..*.....
...........................*.*......
......**....**..............*.......
......**....**......................
....................................

Generation = 360, Population = 30.
............**......................
............**......................
....................................
....................................
...........................*........
..........................*.*.......
..........**.............*..*.......
..........**..............**........
....................................
....................................
............................**......
...........................*..*.....
...........................*.*......
......**....**..............*.......
......**....**......................
....................................

Generation = 450, Population = 30.
............**......................
............**......................
....................................
....................................
...........................*........
..........................*.*.......
..........**.............*..*.......
..........**..............**........
....................................
....................................
............................**......
...........................*..*.....
...........................*.*......
......**....**..............*.......
......**....**......................
....................................

Generation = 540, Population = 30.
............**......................
............**......................
....................................
....................................
...........................*........
..........................*.*.......
..........**.............*..*.......
..........**..............**........
....................................
....................................
............................**......
...........................*..*.....
...........................*.*......
......**....**..............*.......
......**....**......................
....................................

Generation = 630, Population = 30.
............**......................
............**......................
....................................
....................................
...........................*........
..........................*.*.......
..........**.............*..*.......
..........**..............**........
....................................
....................................
............................**......
...........................*..*.....
...........................*.*......
......**....**..............*.......
......**....**......................
....................................

Generation = 720, Population = 30.
............**......................
............**......................
....................................
....................................
...........................*........
..........................*.*.......
..........**.............*..*.......
..........**..............**........
....................................
....................................
............................**......
...........................*..*.....
...........................*.*......
......**....**..............*.......
......**....**......................
....................................

Generation = 810, Population = 30.
............**......................
............**......................
....................................
....................................
...........................*........
..........................*.*.......
..........**.............*..*.......
..........**..............**........
....................................
....................................
............................**......
...........................*..*.....
...........................*.*......
......**....**..............*.......
......**....**......................
....................................

Generation = 900, Population = 30.
............**......................
............**......................
....................................
....................................
...........................*........
..........................*.*.......
..........**.............*..*.......
..........**..............**........
....................................
....................................
............................**......
...........................*..*.....
...........................*.*......
......**....**..............*.......
......**....**......................
....................................

Generation = 990, Population = 30.
............**......................
............**......................
....................................
....................................
...........................*........
..........................*.*.......
..........**.............*..*.......
..........**..............**........
....................................
....................................
............................**......
...........................*..*.....
...........................*.*......
......**....**..............*.......
......**....**......................
....................................

Generation = 1080, Population = 30.
............**......................
............**......................
....................................
....................................
...........................*........
..........................*.*.......
..........**.............*..*.......
..........**..............**........
....................................
....................................
............................**......
...........................*..*.....
...........................*.*......
......**....**..............*.......
......**....**......................
....................................

Generation = 1170, Population = 30.
............**......................
............**......................
....................................
....................................
...........................*........
..........................*.*.......
..........**.............*..*.......
..........**..............**........
....................................
....................................
............................**......
...........................*..*.....
...........................*.*......
......**....**..............*.......
......**....**......................
....................................

Generation = 1260, Population = 30.
............**......................
............**......................
....................................
....................................
...........................*........
..........................*.*.......
..........**.............*..*.......
..........**..............**........
....................................
....................................
............................**......
...........................*..*.....
...........................*.*......
......**....**..............*.......
......**....**......................
....................................

Generation = 1350, Population = 30.
............**......................
............**......................
....................................
....................................
...........................*........
..........................*.*.......
..........**.............*..*.......
..........**..............**........
....................................
....................................
............................**......
...........................*..*.....
...........................*.*......
......**....**..............*.......
......**....**......................
....................................

Generation = 1440, Population = 30.
............**......................
............**......................
....................................
....................................
...........................*........
..........................*.*.......
..........**.............*..*.......
..........**..............**........
....................................
....................................
............................**......
...........................*..*.....
...........................*.*......
......**....**..............*.......
......**....**......................
....................................

Generation = 1530, Population = 30.
............**......................
............**......................
....................................
....................................
...........................*........
..........................*.*.......
..........**.............*..*.......
..........**..............**........
....................................
....................................
............................**......
...........................*..*.....
...........................*.*......
......**....**..............*.......
......**....**......................
....................................

Generation = 1620, Population = 30.
............**......................
............**......................
....................................
....................................
...........................*........
..........................*.*.......
..........**.............*..*.......
..........**..............**........
....................................
....................................
............................**......
...........................*..*.....
...........................*.*......
......**....**..............*.......
......**....**......................
....................................

Generation = 1710, Population = 30.
............**......................
............**......................
....................................
....................................
...........................*........
..........................*.*.......
..........**.............*..*.......
..........**..............**........
....................................
....................................
............................**......
...........................*..*.....
...........................*.*......
......**....**..............*.......
......**....**......................
....................................
