*** Life<Cell> 5x5 ***

Generation = 0, Population = 9.
-0-00
00--0
-----
0----
0-0--

Generation = 5, Population = 10.
0.---
10-1.
..*..
*1---
.1*-*

*** Life<Cell> 5x5 ***

Generation = 0, Population = 10.
0----
000--
-00-0
0--0-
-0---

Generation = 5, Population = 5.
-----
0-1-.
1-..1
-----
1-.-.

*** Life<Cell> 5x5 ***

Generation = 0, Population = 8.
---0-
-----
-000-
0----
0--00

Generation = 5, Population = 14.
**--1
01000
-.-.0
.*.-1
*-**-

*** Life<Cell> 5x5 ***

Generation = 0, Population = 8.
0-0--
-----
----0
00-0-
0-0--

Generation = 5, Population = 13.
---0-
1-0-0
1-.00
1*.11
.--01

*** Life<Cell> 5x5 ***

Generation = 0, Population = 8.
-00-0
-00-0
-----
--0--
----0

Generation = 5, Population = 15.
-*10.
*0---
0*-00
*.*-1
-1.01

*** Life<Cell> 5x5 ***

Generation = 0, Population = 7.
-00--
---00
--0--
-0--0
-----

Generation = 5, Population = 11.
.*.1.
--*1*
*-*--
*-1-*
----0

*** Life<Cell> 5x5 ***

Generation = 0, Population = 9.
000--
--0-0
-----
-00--
-0--0

Generation = 5, Population = 11.
.1-*.
*-10-
----*
*-.*-
-**-0

*** Life<Cell> 5x5 ***

Generation = 0, Population = 8.
0----
--00-
-----
0-000
--0--

Generation = 5, Population = 13.
00.01
1.*.-
--1--
*-1-*
1-.0*

*** Life<Cell> 5x5 ***

Generation = 0, Population = 9.
---0-
-0-00
----0
00-00
-----

Generation = 5, Population = 15.
0-0*.
*-*01
---*-
.10-0
0-0**

*** Life<Cell> 5x5 ***

Generation = 0, Population = 8.
0---0
0-0--
-000-
-----
----0

Generation = 5, Population = 13.
.**.0
-0.-.
-***1
-11--
01--*

*** Life<Cell> 5x5 ***

Generation = 0, Population = 9.
0--0-
----0
----0
--000
-0--0

Generation = 5, Population = 10.
-**.*
-----
-..1-
01.-*
01-0.

*** Life<Cell> 5x5 ***

Generation = 0, Population = 10.
-0---
0----
000-0
0-00-
-0---

Generation = 5, Population = 8.
-1.1.
.---1
*--.0
.---1
1-1--

*** Life<Cell> 5x5 ***

Generation = 0, Population = 7.
--00-
---0-
00---
-----
-0--0

Generation = 5, Population = 12.
-0.1.
0*---
.**10
--0--
--**0

*** Life<Cell> 5x5 ***

Generation = 0, Population = 9.
00--0
0--00
0--0-
----0
-----

Generation = 5, Population = 11.
-**-*
01--0
--.*-
*---1
--0*-

*** Life<Cell> 5x5 ***

Generation = 0, Population = 7.
0---0
0----
0----
0---0
----0

Generation = 5, Population = 6.
.00-0
--.-*
1-.-1
----.
----.

*** Life<Cell> 10x10 ***

Generation = 0, Population = 98.
0000000000
0000000000
0000000000
000000000-
0000000000
0000000000
000000-000
0000000000
0000000000
0000000000

Generation = 5, Population = 51.
-*-*11.-.0
*---00110-
---*--0--0
*-*--00-..
10-1-010--
1001--*--*
*1001*-*-*
--0*--*-01
*---01---.
-*-*11-*.-

*** Life<Cell> 10x10 ***

Generation = 0, Population = 97.
0000000000
0000000000
0000000000
0000000000
00000-0000
0000000000
00000000-0
00000-0000
0000000000
0000000000

Generation = 5, Population = 49.
-*-*-**-*-
*---0---0*
---*-110.*
*1*--101..
-101-0*--*
1--*-.--.-
*1*--...-*
*.0*1-.-.1
*0-*-.111.
-*-*1**-.0
