*** Life<Cell> 16x45 ***

Generation = 0, Population = 162.
----00--------0--0---0-------0-0-------------
00-------------------0--------0--0-0----0----
---0---000-----0-0--0------------0--0-00---0-
-----0--0--00---0--0-00-0--0--0---0-0-0--0--0
0----------------------0-----0---------------
0------0--------0-----0-----------0--0---0---
-0--0-----0---0-0----000----0------0----0----
-----0-00-00--------00--0-0--0--0-0--000-0-0-
----0------0-00-0-----0---------0-0------0---
---0-00-0----0---0---00----000-00-000-------0
------------0----0-0-----------------0---0---
--0-----0--0-0----0-0-----00---0-0-----------
--------0--00-0----0-------00---0------------
--0--0-00-0--0--0---0---------0----0---0--000
--0-----------------0--0---0----00---0-------
0--000-0---------0------0-0------------0--000

*** Life<Cell> 5x34 ***

Generation = 0, Population = 51.
-0-0---0----00-000---0-0----0-----
--00---0-0--00-0--0----0------00-0
----0-0--0-0-0-----0--00---00-0-00
0--0--0----0----0----------0------
-0---0-0--000------0-------0-----0

*** Life<Cell> 11x40 ***

Generation = 0, Population = 51.
---------0---------------------------00-
---0-----------0------0--------0---0--0-
---0--------------------0-0--0---00-----
--------0-0-----------------0----0---0--
-----0-----0----------------------------
-0------------0---0---------------0-----
-0-0------0--------0------00-----0------
--------0----------0--00------------00--
--------------0-----0---------------0---
-----------------0---0---0--------0-----
---0-0-----------0------0--------------0

Generation = 3, Population = 206.
-00-000-0-0-00---0--0--01--0-10-0---**-*
01010-0----00-0-0-00-000-0----0--*-0-0-0
0-01-00-0----000-00-00*-1-----00----1---
0--*00-0--10-01100---010-0*00--001-----1
0*--0---01100--0---1-----0--0---0-*---00
--0-0--00-*01-0--00--01100--10--11-00---
0.-10-00-00*--*00---*----*11-1---0--*000
0-00---000*--0*000*1---1--0000-0-----1--
010-0---001--00-1-1---*01-1-0----1------
-----0---00-0--1-----0*10-010--0--0--1-0
0-0---0------01--.--1-10--------0--01-0-

Generation = 6, Population = 190.
-1-.-0-1--1----1---10-1-*0*--.-0--0***1.
1.-.--1-1--.--*-1--.01-1*0*-0---0.-01.--
-*-*----1*--1001-01-.-.--*-*0-10--1---1-
-00.10-00--10-*-0-1*1-.1--.-0--1..0---1.
1.1--10---1-11-11-11--1--1-0011110.1-0*-
---1-000--.-111--1.---1-11-------1-.----
-*01-0**10-.-0.-0---.10-0.*--*-01.0-**0*
-10--1---1*0-1.*01.*---.*-1-.--0----1.--
0110-00-11.*0-1-.-*0-1*----11--1---01---
-0-00---0-01--0-----1..1--1----1-----1-0
-1------0--1--*--.0---*001-0-0101-0*.*0-

Generation = 9, Population = 207.
010.0001-0*1-1-10-0*0*******0.-0-01*....
-.1.-1-..0*.0-*--0-.1....-.011--0**--*--
-.0.---1..1--0-.-.*-.*.-1**..-.---.0.-*-
01-..001-0-.11.-.-..*-.*-1.-1---...1-0**
-.*--*--011-.--.-***0-.-0.0.--**-1.*0*.*
-*-*01--0-.-1-.---.-----1-0*.---1*1*0---
1**--*.**01.--*1*--1..-0-*...*01.*0-..0*
-*1-0*0--*.0-...1..*0-*..-*1*--1-0*1*..0
--*10011-1..--.0.*.--*.11-1.*-----*.*11*
0--110--101.-01*--*11*.*01--**-*--0--.0-
***-0-0-11*.0-*-1*--11.1-**0-*-.*-**..1-

Generation = 12, Population = 188.
.--*-1-*10..-1-*-0.*.****...0.-0--*.*...
1.**-*1.*-..--*1--*......-.-*.--1..*..-1
0...0--...****-.0*****.-***..0.-1*...-.-
..**.0--*.1..*.1.-...-**1.*--*1-*..-.0..
*..00.10-*.-.-***.**-0.0*.1..*...*......
-*-.-.-0-1.-1-**--.-*1-**11*.-0-....--**
...-0*.**1.**0.1.1-*..1--..***--**1*...*
-..00.00-**-*.......--.**1.-*11.*0.1..*0
**..1-*..*.*-**-...--..11-*..10---.**1..
1-**--*-*-1*-...-**1...*.---**-*--00*.-0
..*----0*.**01.1**-1-1.*-*.11**..0.*...-

Generation = 15, Population = 172.
**0**.-.***..-**--............--1-.**...
*..*-*...1*.00.---.**..*.0.0..--..***.1-
....01-***...*1..*****.-*....-.-..***-*0
*.***-01*..**....*.*.1.**.*.1..-...-.-..
*..-***--..*.1.....*01.1.*-****.........
-*-*-**--*.1.1..*1*-.*-..-...-1-*..*-*..
...1-............11..*1-1..**.*.*.*....*
***.1*-1-*.0......*.-1.*...-.**..-.*..*0
..**.-.....*......**-..*11.*..11****...*
.-..-*.-**1*1...-..*...*.1.*..1*0110..*-
...0-*01....1.**..-*1**.-.***.*.*0..*..-

Generation = 18, Population = 147.
**0.*.*......-.*-0............--1-...*..
...*0........-.-***....*.1.1..-***..*.*-
..*.--.............*..*-.*.*.1*-.***.1**
*....-0...**.........1**.**..**-...1.-..
...****1..........**0...*.-*...*........
-**.*.*-*..*.*.....1..-....**-1*.*.*-*..
.*..-...*.*.*..*.***...01.***.*....*...*
.*..*.--*.**....**..*..*******...-......
**...0...**.........-.*.--**.*....*.....
.-*.1.*1.*-*-*..-...**.**.*....*0-.-...1
..*--.-.....**....-.1***1*****...0***..1

*** Life<Cell> 29x44 ***

Generation = 0, Population = 58.
---0----0----------0------------------------
0-----------0-------------------------------
--------------------------------------------
------------------------------0---------0---
------------0--------0-----------0----------
-------------0----0----------0--------------
---------0-----------------0----------------
---------0---0------------------------------
----0------------0-0------------------0-----
-------------------------------------0------
-----------------0--------------------------
0-0-------------0-------------------------0-
--------------------------------------------
---------------------------------0----------
------------------0---------0-------0-------
------------------------------0-------------
-------------------0------------------------
---------00---------------------------------
-----0--------------------------------------
----0------------------------0---------00---
----0----------0--------0-------------------
----------0------0--------------0-----------
---------0---0------------------------------
0-------------------------------------------
------------0---------------0----0----------
------------0-----------------------0-------
----------------------------------0---------
----------------0----------------0----------
---------------0----------------------------

Generation = 7, Population = 635.
-0*-***-1--00--10---0---0-010-01--0---------
-000.0-0--1**.01-----0-0--1-010100-0--0-----
0-0--11-01*-.--1--0-0----0000--0-10-0--0----
-01---011.-0-*-1*----0-01100-*--1*10-1*-0---
01**---0-----**0-11---00-1----01000110.*-00-
0000---0-.-1*--.1*011-0-*.-.--**01*0*-0---10
100-**0*11-1-.0-100-0-01-00-0*010-10-------0
*-----010.-0-1-1*-010--0010--*10-*-00-----*0
.-*-0--01.-*-.1.-0-------1------*-1-00---0*-
--1011--010--0--0*-00--0---*-0---0-0-01--10-
-0-01-0--*-----01--*100-01*--1*---0-0-000---
0---*-1***0--**--01-0-10000-*-00---0-0--0---
-0--*-*00-000*1--.*101---0----000-0-0-1000--
--00---1-*--01-0*-0-1--000---*-*00-0-0*-*00-
--0--0-1-----00**--**-11-0*0--.--00-00-0--*0
-00-*--00-10-1-0-110000-1---.-0--.00--*----0
-1----*-00--0-*00*.00-01**-0-0-----0--0----0
10---1***-*..-10010-00-00-100-1--*-0*0-*--11
*0--1-0-*-01*1011--0-00-101----00---1---0-0-
-010-1-0.*10*-00--0-0-01-------*1.1.1*.--.1-
*--0-**-11----*--.-0---0-00---0101-----00---
--10.---1-.-...*--01-----110-*10-0--1-0**00-
1000*0-101-1-*0-1---1--0-000-*0-0-00---0-000
1000*--0**-0.*--.1----0---0-*--0-0010--1*-10
-0*00---*-.0-*--111-00----01-.1.0-1*00*-00--
--1000-0*0.01--10.*110-----0-0-0-1100-**---0
---0-0-11001**0-**01--0----00-0-1*10.1-0-00-
---00---1000.-00-*0----0-----0-00.-101-1-0--
0-0-----00**--1101-------0-0-001--*-1---0---

*** Life<Cell> 48x14 ***

Generation = 0, Population = 15.
0-------------
--------------
--------------
--------------
--------------
--------------
--------------
-----------0--
--------------
--------------
-0------------
--------------
--------------
--------------
--------------
--------------
--------------
-0------------
--------------
--------------
-------------0
--------------
--------------
---------0----
-----0--------
---0----------
--------------
--------------
--------------
--0-----------
--------------
------00------
---0------0---
--------------
--------------
--------------
--------------
--------------
--------------
--------------
-----0--------
--------------
--------------
---------0----
--------------
--------------
--------------
--------------

Generation = 2, Population = 56.
--0-----------
--------------
0-------------
--------------
--------------
-----------0--
--------------
---------0---0
-0------------
-----------0--
---0----------
--------------
-0------------
--------------
--------------
-0------------
--------------
---0----------
-------------0
-0------------
-----------0-0
---------0----
-----0-------0
---0---0---0--
---1---0------
-0---1---0----
-----0--------
--00----------
--------------
0---0-00------
---0------0---
--0-01--10----
-0---0--0---0-
------00------
---0------0---
--------------
--------------
--------------
-----0--------
--------------
---0---0------
---------0----
-----0--------
-------0---0--
--------------
---------0----
--------------
--------------

Generation = 4, Population = 57.
--0-0---------
--------------
0-------------
-----------0--
0-------------
--------------
-0------------
-------0-----0
--------------
--------------
-0---0--------
-----------0--
--------------
-1------------
-1------------
--------------
-------------0
-0---0--------
--------------
---------0----
-----0---1-0--
-0-0----------
--------------
-----1-------1
-1-.-----1---0
--1--.-1------
--------------
------00-0----
---1-0----0---
0--0--*-------
--------------
--01------00--
------00------
--0-----------
--------------
------00------
---0-0----0---
--------------
--------------
---------0----
-0-------1----
--------------
--------------
-----1-------0
-----0--------
--------------
--------------
---------0----

Generation = 6, Population = 169.
------0-------
-----------0--
----0---------
---------0---0
-10-----------
-------0---0-0
1--0----------
-----0---0-0-0
-----0--------
-------0---0-0
-------0------
-1-------0---0
-----0--------
-.-0-------0--
-.-0---------0
-----0--------
-1---------0-0
-------0-0----
-----1---1-0-0
---0-1-0---1--
---1-----.-0-0
-0-0-----1---0
-1---1-----0-1
-10--------0-.
---.---*-----*
0---0*11-----1
-0-0-1---10--0
0-1*00*-00-0--
-0-.-0-10---0-
01-*10.*0010--
---0-010--1---
-1*.*1*-1*--10
----0*--*0----
0-010-**--00--
---0-011--0---
--0-00--10----
-0-0-0-10---0-
------00-0----
-0-0-0---10---
-------0---0--
---0---0-.-0--
-----0---1---0
-0---1---0----
---0-.-0---0-0
---0---0------
-----1---0---0
-----0--------
-------0-0-0--

Generation = 8, Population = 83.
------0-0-----
--------------
-0------------
--------------
-.------------
--------------
1-------------
---1-----0----
0-------------
-0------------
-----0---1----
--------------
-------------1
-*------------
-*------------
---------0-1--
-----1--------
---0-1---*----
-0---.---.----
-----.---*----
-----1--0.1*--
--0------1---0
---1-----1---*
-1---*0*-----*
---.-1-*--0-1*
-0---.-1---0--
------1-------
--..--.*------
-*-.-0-1-----1
--0*1*..--.---
---*--*0--.---
1.***1.--*--.*
--0--.--.-01--
---.--..------
------*-------
---------*----
--------------
--0-----------
--------------
------1*-*----
-0-0----1.---1
---------.----
-----.--------
-1--1.1----0--
-----*--------
-----.---0----
--------------
--------------

Generation = 10, Population = 186.
-0--0-----0---
--------------
---0--0-0-----
--------------
0.------------
---0-----0----
--0-----------
-----1-0---0--
--0--1---1----
---------1----
0--0-------0-0
--------------
-----0---0-0-1
1.11-----0-0--
1.11-0-------0
---0-1-0---1-0
---1-.-0------
-1-0-.---.----
---10.0-0*01--
--010.000.0--0
-0---1110*..--
0*--010--.-1-*
-*-----11.-1-.
-1*--.-.----0.
---.-.-.--01.*
-0-01.-.-----*
-1--0*--0-1-0-
-1*.0-..-0-0--
-*-*---.-0-0-1
-1-.1...10.--1
-0-.--.-11.001
1......*-.-*.*
11*-*.11.0-.-1
0-**00..-----0
--0-0-*-0-10--
--0----1-.-0--
------0-------
0---0-10------
-0-0----0----0
--0-01..1*-1--
-0-0-01--*01-1
-1--0--0-.-0--
-1-0-*--0----0
--1*1*1-0----0
---10.01------
-0---.-0------
--------------
---------0----

Generation = 12, Population = 225.
-01-0-----0-0-
--------------
0----10-0-----
-0-1-----0----
-.11--0-0-----
--------------
--0-01---1----
-----.-0-----0
--0-1.---.---0
-----1---.----
01---0---*---0
1-01-------0--
--11-0---*-*--
*.111----*----
**1.0----1----
1-00-.-*-0----
0*1--.--1-01-1
-1000.1-1.11--
--0*0**10.*.11
-0*.-*---.-11-
-*-*---.*...0-
**-*-.---.-.0.
-.-1---*..1.0.
--*-0*-*101*0.
---.1.-.0**...
-*1*-.-*-0---.
-1---.-10*1-0-
1...--*.0--*-1
1.1.-1-.---*-.
*--.-...1-.1--
0*1.-1.1--.00.
*...*.**1***.*
*1*-*.*1.--.11
*-..0*..------
-10-*1.*--.-1-
0-*1*--1-.----
-010--*-0-01-0
0-----1*------
---------1----
-100*1..-*1.-0
-*--0-*-1*0.0-
--1------*-*--
-.---.---*----
01....1**-0--*
--01-.---0---1
--1-1.0-1----0
---00-01------
-0-------0-0--

Generation = 14, Population = 283.
-**0-1--------
-1-0-----0----
000--.-0----0-
-0-.-1-0---0--
-.*-11---00---
-0-1---0-1---0
1-0--.--1--0-1
-----.---1-0-*
-1---.0--.-0--
1-1--.--0.00-0
0.011*---*-1--
**-1-----0-*-1
0-..----1.-.1-
*...100-1.1*--
....**011-10-1
10*-0.1.1-0---
-..-1.-1.--1-1
-10*0.*1-.*1-0
-1**-*.--**.-.
--..0*---.1**0
-.1.1-1*.***-*
*.0.-.--1*1.0*
-.-*0--...*.0.
--.*0.0***-.-.
--0*.*-.0*....
1*-*-***-010-.
0*-*1.--*.*-0-
....10..*10.-1
-.-.-10*---.-.
.11.1.*.--.1--
**..0-.*-*.**.
.*.*....-....*
*-.0**.1*-***1
.-***...-00--*
-*-**-.*-0*11-
--.**1-*-*----
1-.00-.1--*.--
-01-0--.0-1--1
--111--1-*--01
-1--....-*1.00
-*10*-*1..0*--
--11-11-0*1*00
-.--0.1-1*0-0-
*..*.*...-0--*
100*0*-*-0----
--.-****-0----
-1-*0-0.0----1
-0111-111-----

Generation = 16, Population = 255.
1..00-------0-
-1-*-1--------
-0*00.*-------
---.0*--------
0*.*.-10-----1
--01-1---.----
-1---*-------1
1111-.--0-000.
----1.0--*---1
.-*01*1-0.**0-
-.0.-.1-0.--10
..1*0100-*-.-1
0-.*1--1**-*11
....-*011.-.0-
......0-*-*--1
*0.--.*.*-*-01
-..--*1..0-*-.
---.-.*-*..1--
1-..-.*-1.*.**
01*.0*---*...0
1..***..**..-.
..-*-.10.*.*-*
-*0.0-1..*..-*
--..-.**..1*1*
--**..-.-..*..
1.*.*..*00*-0.
0.0*-.*-...-0-
....--*.*--*0-
1*-.--**1--.-.
.-*...*.1-..--
*...--.*1...*.
..**....*....*
.1**.*...1...*
.-...*..-0-*1*
1.-..-..0*.1.-
-1...*-*-*1---
1-.0--.*00..-1
0*1--1-.0*.--*
----11--*.---.
-.--....*.1.00
-..-.-...*-*1-
-1---..-0.-.*-
1*1*0*.0-*-1*-
.*.*.*.*.-*--*
---.-.1*0-000*
1-*-..*.-*10-*
1.1.**0.*000-1
1--*-0----0---

Generation = 18, Population = 279.
-**--1----0-0-
-*-.0-00------
*-.-0.*-0---00
-1-*-.1*------
*..**-.-10-0--
-----.-10*000-
1.-0-.1--1-*-1
..1.-.---**0-*
-*0-..*1-.-011
.1.0*.*--.*.0-
0*-*-.1*-.-110
**-.-1*0-.1.-1
0-*.---...-..-
....1**...-.*-
.....*0-.-.--.
.-.-0.*..-.---
1*.1*.*.*0-.-.
-1-.-.*-*...0*
*1..-*.-*.*...
--..0.1-*.*..-
*......*.**.0.
**-*-.1*.**.-.
-.**011*.*..1.
0*..1******.-*
-***..1.-*...*
*...*..*-0*-**
-.-*1..-*..0-*
*.*.11..**1*0*
*.-.0-...1-.1*
*1...**.1-*.11
.***--....*.**
.*..*..*....**
.*.....*..**.*
.-**...*-0-*-*
1*0..1.*-.**.-
1-....-.1.*---
*-*0--..**.*-*
0..-0.-.-..0-.
11*-*1--*.---*
0*00......-.0*
-..1.-..*.*.*1
-.--1..00.1..-
*.1*0***-*-..1
...*.*.*.-.11*
*11*1.1.---*-.
*-.-*...-.---*
-.*..*0*.*-0-*
.11***1-*0-001

*** Life<Cell> 15x8 ***

Generation = 0, Population = 62.
0---0000
--0-0--0
---0-0-0
--00-000
-000-0--
---0---0
0-00--00
--0000-0
-000000-
-0-0-0-0
0-0-00-0
-0---0--
-0---0--
00-000--
-000-000

Generation = 1, Population = 59.
-000----
00-010--
--01010-
---1-1--
0111-1--
000-00-1
---1--11
0-1-1--1
0-1-1-10
-1-1--01
---011-1
-1----00
--00--0-
110--1-0
----0--1

Generation = 2, Population = 62.
-----0--
1--1*---
0-1-1-10
000-0---
-**-0-00
-1--1-0*
-00-0-**
1-*0*00-
10*0*--1
--0*0--*
--0--*--
0---0---
00-10-10
*-----01
0000--0*

Generation = 3, Population = 55.
0--0--0-
*0-**-00
-0*1--*1
-11--1--
-..-----
0-00--1.
---1-0..
*-.1.--1
--.-.--*
0-1.--0.
001-1*01
1-0-1-00
11-*----
.10-011*
---100-*

Generation = 4, Population = 51.
1-01-01-
*-0.*-1-
-1.---.-
0---0--0
0..1-10-
--1-1--.
------*.
.0.**00*
--.0.--*
11**0-1.
1-*--.--
--10*0--
---.00--
*-1--*-*
-0-*1-0*

Generation = 5, Population = 58.
*--*01-0
*01.*0*0
0-.---.1
1-------
1*.--*1-
01-0---.
-001--**
.-***-1*
1-.-.01*
--..1--.
*0.0-.0-
11--.-0-
1--.-110
.1--0.1*
--0**01*

Generation = 6, Population = 60.
*--*1-11
*-*..1.1
--.-11.*
-----100
*.*10.*0
-*1110-*
--1*-0**
.-..*0*.
-0.0.1**
-1..---*
*-*--*11
*-10.---
*1-.-*--
.---1.*.
--1**-**

Generation = 7, Population = 54.
.0-**1*-
.-...*.-
0-.1**.*
1-110-11
...*-..1
-.--*--.
---.-1.*
.0...-..
11*-.-.*
-*..--1.
*0*-1.--
*1-1*-00
**-*-*--
.11-*.**
-0***-**

*** Life<Cell> 15x49 ***

Generation = 0, Population = 97.
--0-----------0-0--------------0-----------0--0--
-----------0--0-------0--00--0------0--0---------
--------------0---0----0-0--0-0-------0----------
-----0--------00--------0-0------0-------0-------
---------------0------------00----0---------0----
-------------0------------0----------0-----------
0----0----0-------0-----00--0--0--0---------0----
-0-------0-0---0--------0----0------------00-----
-0---------00--0------0-----00---------0------0--
------------00-------0-------0--0--0-----0----0--
---------------------00--------------------------
-0-0--------------00--------0--------00---0------
-----0-0-------0----0----------------------0-----
--------------------------0---------0--0--------0
--0---0---------0-00------------0----0-----------

Generation = 5, Population = 343.
-0---0---010*0*10--0--0.--1--*-00-1--0*--0-1-1111
--0--0--00-***-.1--0-1-1.1.--0*--1--1.--*0010-000
---00-00---0-01-.0-*0.-1-*-.-*01*0*-.--000--.0-0-
00---0---0-100-*10*-*0---*-0.-*--00---0000-.0---0
0110-.---00--..-1--1--*1**-**---1-00101110-10000-
----0.0-01--11-.0--0---0.1*01--0*.--*0-.0--1-0-0-
1.10-0--1*0.00----1-1-0*1*0*01*-**11-0-1--.---0--
----0-0*---**---01-0-0--*----.1.-00-0.--01*10-.-0
1.00-0--*-0-0-.*----*1-0-.-1.-.0*-*101-0--------.
000--000-1--0..-----0----0--0***-.-0-0---0100-1-1
-.-00*1-00---000---*0-.*----**-*-0*00-----0---.--
0---0*---*01-0--01-1-0-*0-0-0-1-.--0-1-0-.0--0*--
-0..----01------10-1---0-0001*-0*-0----000--00-1-
0----0-0-00-1*-0--..0---00-00-*000-01-0*----100--
---00.-*10--10..---.010-0-00--0-0-0110-1-*-1----0

Generation = 10, Population = 323.
-.-0.*.-*-.-....*..*-*****1***1.*-.11*.*-.-.**.**
-1-10*.--0**..-..00-.-0..***.*.*.*-.-*11*-*..0*--
11-**1.--0*-1..1*--.-*-*0.-*1.-*...-.---1.*-*00.-
-01*0----***-*..*....1101.1*.1*--.--.---1--...*0-
0.-.**.00..-0*.111-.*0.*.*.**.-0..*1.**.--1..*-11
1**--*-1-.0**.-..*1.*0*-...-.*0..*--.*0..-..---.-
-...*0*1*.-.10*0-010.1**....-.*-****-*1**.*0.1*-*
1.0--1.*1.-.*-.*...1.*.1.*-0-.*..-.0..0*1-*-11.-*
.*-*-.-0..-.--..-.-0..0*1.-1...*.*.*11---.1--**-.
-01-0-..-*-1...1--.0*-1-10*-.*..-.*00.1.01*-.-1*1
-..1..11..-.*.11*.1.1*..000-*.*.*.*--0-*--1-*1.--
--0--*---.-.1-*-1...*--.1*1*--*...*.*-*--..0-1.--
0-*.1--11...*101*1-.-*.----.1.--.11-*--.1-0--*.--
--1.---.0*-.-*-01-..*---10..0*..--10*11.*1-0***--
10****...-*---*.0--.-*.1*-**--1.1--...1**.1*-0.10

Generation = 15, Population = 284.
*.*-***-*-*-.....*****.......****-.*-.*.1*-....*.
*.-....1*1.*..-..1*-*--......*..*.-**.-..0.*.-.--
..***-.-...*-......*1.-*-.....0*....*1--.*.-.**.*
11.**01-..*.**...**.****-......-1.*1***..*1....0*
*.*.**.-..*1**...-1*....*.*...*1.......*.*1**.-.*
-.*.1.111.1...-....**0.-***..*-*.......*.*.***1*1
*....-....-.*1**.-*-*.*.*...1..-*..*1.-.*.***1.0.
-.*--...-*-**-*...*-.*******1...*..-.**.*1*1...-.
.*-.-.0-.*-**0.***.-.*0.1*1.*.......*.--0.*1-..-.
.-*-1-*...-1...*--.-.*.-..*0**..*..-1.-*.**0..1..
-..-...*.*0...1*..1.**...-*-*.*....1.-..-0.-*1.--
..1.1*---...-..*-*..*0.*...*-**.**.**..*-..--**0-
1-..-**.-.....-.*.....**.-*.*.--...*.1....-.*.***
*..*-0-.-...-.0-*1**.-0.1...-*..*-*1*-*.******.1*
*-.*.....-.---..1-1.-***.***1--.1*-**.**...*1...-

*** Life<Cell> 37x26 ***

Generation = 0, Population = 100.
--------------------0-----
-------0------------------
--------00----0-----------
------------------0---0--0
-----------------------0--
-----0---0----------------
----------------------0---
0---------------------0---
0----0-0---0--------------
-0-0--0-------------------
--------------------------
-----0--0-------0-0-------
----------0----------0----
0----------------0----00--
---------------0------00--
--0-------0-0---------0---
------------00-----0-0--0-
0----0-00----0------------
--------------0-0--------0
--0---0---------0------0--
------0-----0-----------0-
---0-----------------0----
-0-0----0--0--------------
-------0------0---0-------
-----------0----0---------
--------------------------
--------0---0-0-----0-----
-----0----------0---------
------------0-00----------
----------0---0----0------
-----0----------0-----0---
--0----0------00------0---
--------0-----------------
-00---------0-----------0-
------0-------------------
---------------------0----
-0--00--0-----------------

*** Life<Cell> 21x26 ***

Generation = 0, Population = 108.
000---0------0----0----0-0
---0---0-0----0-----------
-0-----0------0--0--------
--0------0---0-0---00--0--
--00---0-------00--------0
-0------0----0-0----------
-------0--0---0---------0-
-------00--0-------0----0-
-----00-----0---0---------
00---------000------0-----
-0-----00-0--0-------0----
--------000---0---00-----0
-0----0----------00--00---
0----------00--0---00-----
----0----------0----0-----
--------0---0--------000--
----0----0--0------0------
0-----00--0-0-------0----0
---0---------00----------0
0---0------0-0----0-----0-
--------------0------0----

Generation = 2, Population = 227.
*--0--000--0-000010-00---0
-00----*---000-10--00--1--
10---01*-0--00----11---1--
00-00---10----1---1---1--1
0---1----10--01---0----110
--01--01011------0--0--01-
--00--1*11--0--00-----0--1
0----10-*-0000-0-0--100---
-1-01--0--0--00---0--0--1-
*-10---1-----0-0------0-00
-*-0--1-01*0---00011-010--
-0----100-01-0-1-0-*10-0-0
-0-0---1--1--0--1---0*-10-
0-0---------*------*---0-0
-00-0----0--00-----0-0----
-------1--01--01----0*-*1-
--010-11--01-1-0-0--01---1
--0--1--1000-01------1--1*
-0--00---0-1--*10--0-0-0-*
-------0-0100*-00-----0--0
---0--------00--0--0-0-0-0

Generation = 4, Population = 250.
.-1011*--11----**--1-*11--
-0---1-.0110--*1--1----.--
1-01-*-.1--0--1------0-.11
*----01-.*---1.*01-1---1-*
-01*.111-.---*--1-*110--*0
1--101-.-----11--0-10-----
---0--**1--0-0---10-00--1-
--100*-0*100*01*--0-.---*1
1--0*-1*-1*-1--1-00-0*1-.0
*0.-00-*-10***-*-1-10---0-
0.-*-1.1--.-1--*----1-.-00
----011*---1-*-*--1..*-01-
-*1-1-0*-1.--*1-11010.-.-1
-0*-1-0-0-1-.1-----.-0-*10
0*-0---1--00--0-0--*---011
0------.-00111*-110-0.-..0
01---1*----*-*0*001--*1--.
0--01.1-*-*-1-11---101-0..
----*--1-00---..-11-0--01.
--0----0-0-**.10-10-01-1-0
---01----11-001--110------

Generation = 6, Population = 241.
.0.01.*-111-00-**-1--.-.--
0------.0**0--.10--000-.-1
*-**0*-*.---1-.11-**1--.*-
.0111*-0..11-...-.*.1--1-.
-*-*....1.001.-1.0.-.*--.-
-00*-11.*11--..---0--1001-
1-0--1**11-*-----1010-*1.-
1-.-*.--.*--.*1.11--.11-.-
.1-0.1*.1..01-1-0---0..1.*
.*.-00-.01-*..0*0.1.-0-1**
*.-.01.---.1.-1.-**1*-.0-*
1---0**.11--1.-.0-*..*----
-.-0--*.1-.--..1*1--**1.-.
-*.1*0*0-1.1..1-01-.0--..*
-*-000--00-0-*-1*0-*----..
-1-1---.-**11*.*..-10.-..*
-.1*-..*--*.-.-*---01..00.
-0*--..-.*.*--1---1.-11**.
1010*1-.--0100..--1-0-1-.*
---0-01*0-1*..1--.*1-*0.--
-00**10-1-.1-----1.--1-10-

Generation = 8, Population = 230.
.-.***.-1.--*--*.-111.1.0-
*0--0-1.-..***.**---*-1.01
***.-.1*.*-*-1.---*.*--*.1
*0.-**--..-11.***.*.*0-1-.
*.-.*..*..**..-1.-*-*.0-*-
---*0--...--1..--**1--*-.1
*-*-0-....-.-11---*1--.1.1
.-*-..-*..-1..-.--01..--.-
..0-.-.....-*-1-00---..*.*
...--*0*0.-*..*.0**.*-1*.*
..0*-*.1--.**-*.1*.1*1.*-*
.----.*.-.-1-.1.*1.*..-*11
-.**--.*.-.1-*.*.1--*.**-.
-....**--.....1-**-.*-1...
1.0-*0--***--.*-*00.-10-..
-.110-0.-..*-..**.1*-.-...
1*-.-*..1-*.1*-**--01*.--*
10.*-..*.*..1-11--****..**
*-.-.1-*1---0-*.0--10111*.
--100-..-01*..--1...-.0.1-
-*0.**01*-**10-0-1.*1*-**-

*** Life<Cell> 10x14 ***

Generation = 0, Population = 97.
-----000--00-0
0000-0---00-0-
0-00--000---0-
000----0000-00
-0000-0000-00-
00-0--0000-000
-000-0000000-0
000-0-00-00000
000000-0000000
000000000-0-00

Generation = 2, Population = 71.
1-1-1--*1-0--0
0---0*-0-*-1-0
---010*---0-00
---11----**1*-
--**-0-00*1-*-
**00---0---*--
-*---*------00
--*0*-0*-*-0*-
--0*000*-*0*0*
-*-*-*-*0---00

Generation = 4, Population = 61.
*-10.--..-01-*
*---*.1*1.-1*-
10*---.1--*00-
---*1-1*0..-.1
11..*----.--.-
..*-10**-*-**1
0**--*--1-1*0-
--.-.--*0.1-**
1-0.-*-.-.0.-.
-.***.1.-0-0--

Generation = 6, Population = 62.
.0.*.0-..--1-.
.0-0..*...-.*-
10.---.111.*--
011*10..*..**1
.***.0-0-.-1.0
...-1-..-.1*.*
*..1-*-1.--.-*
--.-*01.0.-1..
10-.-*1.-.*.-.
1*****1**-*-10

Generation = 8, Population = 53.
.-.**00*.0--0.
.-1*......0..-
1-*---......1-
0-..1-.*.*.*.1
.**.**0--.1-*0
...--**.-.*...
..*1-.-1.0-.*.
0-.-.--.-.-1*.
-01.*.**-..*1*
-..**.**.-.0**

Generation = 10, Population = 57.
.-***-0..-1*0.
.-1..*....-**-
*1*-*-*.....10
*1*.*-........
**..**000..*.0
...-1...-*...*
...*1.0-*0-.**
-0.*.0-.-**1..
1*..*...**..-.
-**.*.*.*-.-..

*** Life<Cell> 1x47 ***

Generation = 0, Population = 30.
0000-00--0000-0--00-00--0-0-0-0000000-0-00--00-

*** Life<Cell> 17x26 ***

Generation = 0, Population = 77.
---------0----0---0--0----
-----0----0----00-------0-
----00------0-----0-------
0---000-------------------
0---0--------0----0--0----
---0--------0-0-0---------
-00---0-------------------
------000-------0-----00--
----------------0---0-0--0
-00-----0-0-0-0--0---0---0
-0------0----------0----0-
--0---0-0---00---------0--
----0-------0---------0---
--0-0--0------------------
0---00---0-----0-----0----
--------0---0----000------
--------0------------0----

Generation = 1, Population = 179.
-----0--0----0--00-00-0-0-
-----10----00--110---0-0-0
0--0-1----00-0-000-0----0-
10-01110----00-------0----
10--1-0---------00-00-0---
00----0----0-0---00--0----
011--01-0---0-0-------00--
-00--0--10-----010--00-100
-00---00--0-0-001--0-01-01
0-10---01------0--00-----1
010---00-00--00--00-00----
---000--10-0-10----0------
---010000--01--------0----
00----0-00--0--0-----00---
-000-100--0-0-0-00000-0---
0---00-01--0-0-001-10-----
-------010--0----0000-0---

Generation = 2, Population = 191.
----01-0-0-0--0----110-0--
0--00*100---100--10---0---
1-010-00-01--1--1---0-----
*---***10-0-1-00--------0-
*10-*0-----00--01-011--0--
11--0--00-0-0-----1---00--
---00---1----0--0-0-001--0
-110010--1----0-*10-1---1-
--1---1-0-----1----10-*0-*
1-*10-01*---0001------0--*
---00-1---1-0---01--110--0
00--1-00--010--0-0--------
000-*11-100---00---001----
1---00---1---0---000---0--
0--10-1-0--010---1-1-010--
--0-1-01------011*-*10----
0---000-*10----0---1---0--

Generation = 3, Population = 207.
0-----010-----10-0-*-10-0-
10---.*-100-*1-1-*1-------
--1*1-11-1-00*0---00-00-0-
*---...*1010*01-0-00-----0
.*1-.-----0110--*---*0-1--
------01---01--0-0------00
0---1-1-*-0----010--------
0**11--01-0---1-*--0-----0
0--0---01---0---10-*--*10*
--**--1-*000--1*-0-0----0*
-1--1--000*0--001-00*--001
-----011--1--1-10100--0--0
111-.*-0*1--1-1-0----*00--
--0-1-0-0*-0-1-00--1---10-
10-*11*0--01---0--0-0---0-
-0-0-01*10000-1*-*-*------
-000---0*-10---1-00*-00-0-

Generation = 4, Population = 176.
1----1----0-0-*--10.-*1--0
-1-00..--110.--*-*-0------
--***--------.--1-1--11---
.--0..**-1*-.---1-----00--
.**0.-0-0-------*-0-*1----
110-00-*--0---01-11-00--11
1-1-*-*-*-1-0---*-00----0-
1.**-1--*-1000-0.1011-01-1
1-1-----*----0-----*00.-1.
1-**-0--.11--0-.-10---001.
0-----1-11.-0-------*1-11*
0-0----*10*-------1---10-1
*--0*.--.---------0-0*1--0
-010*-1--.010-0--0---0---0
*-0.**.-00-*-0-------0--10
--0-1-*.*---1-**-*-.-00---
0---00--.1-----*---*-11--0

Generation = 5, Population = 208.
---0--0---10--.-0-1.1.*00-
--0--*.-1**1.--*1.--0----0
--...111---0-.--*0--0*----
.00-.***1*.0.--0-0--00-10-
*..-.-1-------0-*01-*--100
-*10-1-.0010101*-**0--00-*
-1-0.-*0*--01-00.-1-001-10
-.*.1--0*---1---**1--01*--
---0---0*--0--10--0.11.1**
--**----.-*0-11.0*1--011*.
-1-0---0-*.0-----1-0.*-***
----1--**1*10----1*0-0--0-
*-1-**10*1-01-1---1-1.--0-
11*1.0-00*1*11-00---------
.0-...*0-10.--00----0--0*-
-01---***0---0**-.0.11-00-
-000-1--.-1-0--*000.---00-

Generation = 6, Population = 193.
----0--10---0-.-1--***.-1-
-1--0*.-**.**-0**.10--00--
-0*.***-0---0.-0.-101.1000
.110....-.*1.------01-----
*..0*0*---0-1-1-.--1*--*1-
-*----0.---1*--.0..10----.
1*-1.-*1.---*0--.0-011*-*-
-.*.-1-1.1-0*0-0*.*111*.1-
--11--1-*0-1---110-.**.*.*
--.*0---.-.1-*-.1.---1--..
0-01--111..--00----1.*0..*
000-*--..-.--10-0-.-011---
*1*0..--.*-1*0--0-*0-.-010
-*.*.1-11.*.**--100----1--
.-0*.*.1-*-.10-1--011-1-*0
01----...-0--1..-.1.-*-110
0-11---0*------*---*011--0

Generation = 7, Population = 208.
-0-01-0*----10.-*1-****--0
1*-01..-.*.**-1.*.-10---00
11....*-1-101*-1*0---.-1-1
*-*-...*1****-10---1*00--0
*..-*-*0-01-*--0.-1*.10.*0
1*1-0--.---*.-1.-..*1-00-.
**1-.-.-*0-0.-00.-11-**-.0
1...1--*.*--.---...*--..*-
-0-----0*-----1--1-....**.
1-..10-1.1**-*-.**-0---1*.
11--10*-*..001-0--0-..-...
111-*01**1.1-*--11*01*--0-
.-.-..-0**0*.1-0-0*1-*---1
-....*--*.*...0---110--*0-
*01*...*0*0.-1----1-*0--.-
-*1--0**.--0-*..-.*.1.-**1
10**0-01.11--00.0--*-**--1

Generation = 8, Population = 211.
-1----1.00---1.0**-*.*.0-1
-.---.*0**...--...1---0-11
*-.*...1*----.--.11--.--0-
*1.0.*..*....0*1-0--.1----
*.*0.-*-0---*011.0*..-1.*-
*.--110*0--**0*.-...*-11-*
..-1.-.-*--1.0-1.0**1**-*-
*.*.-10*.*10.--0...*11*.*-
1-1--011.001---1-*0......*
*0..--1*.***0*-***1-0-1-*.
*--1*-.-...1-*--1111..-**.
-**-*1*..-.-0*01**.1-*10--
.1.-*.--..1*.*1-0-.*-*101-
1**...11....**----**-00.1-
*1****..1.-*1*---1-1.11-.0
0.*0-1...-0--*..1**.*.-**-
*1.*11--***-0-1.-0-*0**--*

Generation = 9, Population = 181.
1-0--1*.--1-1-.1**1...*-1*
1.-0-.*1.....1-...*----0--
*-*.*..-.----.01*--0-.111-
**.-..*.**..*-.---0-.-----
*.*-.0.0-0--.---.-*..-*.*-
.*10*-1.101*.-..-...*0**-*
.*--.-.1.---.10**1*.-..0*-
..**1-1...*1.01-....***.*-
-0*10--*.1-*-01-1.-...*.**
*1**1--*.*..-*-*..*0---1**
*1-**-.1...*-.-0*-*-..0.*.
-**0.-...-*11.1-...--**10-
.-.0*.-0..**..-01-.*-.-1-1
-.....**..*...--1-.*-11.*-
.*...*.*-.-**.0--*-*.---.-
-..1--*.*-1-1.*.*.....0**1
**.*--01.**--0-.-10*1**--.

*** Life<Cell> 38x34 ***

Generation = 0, Population = 21.
----------------------------------
----------------------------------
----------------------------------
----------------------------------
--0-------------------------------
----------------------------------
----------------------------------
----------------------------------
----------------------------------
------------------------0---------
----------------------------------
----------------------------------
----------------------------------
---------0------------------------
-----0-------------0--------------
--------------------------0-------
-------------------------------0--
----------------------------------
--------0-------------------------
----------------------------------
----------------------------------
----------------------------------
---------------0------------0-----
----------------------------------
-----0--0--0----------------------
------0---------------------------
----------------------------------
----------------------0-----------
----------------------------0-----
----------------------------------
-------------0--------------------
----------------------------------
----------------------------0-----
-----------0----------------------
----------------------------------
---0------------------------------
--0-------------------------------
----------------------------------

Generation = 7, Population = 483.
-----0----------------------------
----0-0---------------------------
---0-0-0----------------0---------
----0-0-0--------------0-0--------
-----0-0-0------------0-0-0-------
----0-0-0------------0-0-0-0------
---0-0-0-0----------0-0-0-0-0-----
--0-000-0-0----------0-0-0-0-0----
-0-01100-0-0----------0-0---0-0---
0-0000010-0-0----------0-----0----
-011000100-0-0--0---------------0-
-0000*00-10-0-00-0-----0-----0-0-0
0-000*0-1-00-0010-0---0-0---0---0-
-00101-*-0-1000*00-0-0-0-0-0------
--010-1**.*--*000-0---0-0-------0-
-0-0-1-0-*-0-10--0-----0----1--0-0
0-001-0-1-0-------0--------0-10-0-
-00000-100-1-00----0------1-0-10--
-01*1.-1101--**0----0---00-*-0-1--
--0-0--0010-0-00-----0-0100-*-000-
--01*-1-1*---1--0-----001000-100*1
-0---0---0-------0----100010-00000
0--0---------1----0--1-0001---1*0-
--1-0--0-000000-------00*0-----00-
00-*-01*-..-10*1--0---001-1------0
--0-*-0-.0--*-00-0---0-0-0-00-----
---0-1-0-0---10-----0-001-*000---0
----0-1-00-*-0---0-0-000*010100-0-
---1-0-*--*--00-0---00101-0010----
----1-00-*-.0-0------010-0-00-----
-----10----1-0010-----0-0-0-------
---------00-000100---000-0--------
-----00-01000*00010-00*00---------
--0-0-0--1000.00010--0100-------0-
-0---0-0--01010*00----00-0-----0-0
0-----0-0--100010-------0-0---0-0-
---0---0-0--0100---------0-0-0-0--
0-0-----0----10-----------0---0---

*** Life<Cell> 30x18 ***

Generation = 0, Population = 155.
0--0-0---00-0-00--
---000--0--0--000-
--0-00-0-00---0---
--0---------------
-----0---0---0-0--
---00-0----------0
-0--0----0--00----
-0--000-0---0-----
00--0------00---0-
----00--0-----0--0
----0-00---0-0----
------00--0--00---
--00----0-0---0--0
0-0-----0--------0
0-----0-0---0-----
-0----0----------0
-0--0--0--00--0---
-0-----00-0-------
-0---0-0---0---00-
00-0--0----0--0--0
-00--------00-----
0-0000-0-0-0---0--
--0---0--0--00--0-
---000-------0-0--
-----0-00-0---0---
-0--------0--00--0
-----0------0-00--
--0----0----00----
-------0----------
---000-00--0-0---0

Generation = 5, Population = 238.
0*0-**-0.-.1---1-1
-.-0-.*10-*0--**.*
*-.-100--..---.---
-1--*100*---*-..--
--1.---00-*0*-1.--
--1-0001101-100.*.
...-.*100---.*.01-
1-1*...1-*01-0*-*0
.10--1-*-*..-*-0--
-.1-..0---1----*--
0-1..-.*-0--..-1--
-0*--1-0**-.**-1--
-*---1*-1-*.0--*..
*1.*--..00----.1-*
*.1--**1--11--1-0-
*..-.-1-.-1--00.-*
*1*-0*-.--*.*.0*0-
*-0001*-*0*.*0*---
-0*1*1-**----10--*
---*00*-00*.-.0-11
--0.-.*.--*..--*1-
0-..*.--0*-*0.*.00
**.0-.-11.-*.*.-*-
1-1----0-.--**-0-1
0--.*1-..*.00.*1-0
1-.0-1-.*--*1-1-*-
0-11--1.*01-*---1-
.*0.--0..-0--10.--
---*00--*1--.-*00-
--**-.-**0---*-0--

Generation = 10, Population = 223.
.*11.*-.....*0-...
***0**.*--*1.-....
*-*1**..*..**...-0
-1--..--*--.*-*..-
-.**1..*...-..**.-
**..**.1.0.--.-..*
*...*.*-1*11...*.*
1**..*..**0*-..*..
*.***.-.1...**-11.
-.1**.1-.*-**--.1-
1--.*...0-0-*...0*
10.***10.*1**.1-*-
0.1*1-***0***--*.*
.-..0-.*1..0.*..-*
..*.*...--1**..-0*
*..-.*...0**-...0.
.-.--*-..0....*..1
.0*-*1*-*0.....---
1..1*.1.*-0**.1-..
.*-*.*.--1..-.*111
10-.*...1-...--..-
-**...0*1...-*.*..
...--.0*-.*....-.-
1-*1--1.-.....*-..
1-1...*.......*-*-
1**...1.*.-**-*1.-
.*-*11*.*0*0.10.**
**0.*1*.*-.--..*-1
-.-*1*.0.-0-.1*--*
.0......*--00..---

Generation = 15, Population = 189.
.***..-......**...
*..1....*1.-.-.*..
*-*...*.****.*..1-
0**-..*..0*..0*...
....*...*.*-**....
.........1*-******
...*.**-**.*.*.***
**.*........-..***
***..****......***
-*....-0.*1*.--*1-
.*.*.**.-1*.*.*...
.*.*.*.1..**..-*.0
...*.*...***......
.*..-...-..-*.*.-.
........-0-.....-.
...0....**..1***..
...1*..*.**...*...
*......*.-*...*01-
*..*.*..**1...**.*
.*....*.-*..-..*-.
..-...***-...--...
**...*1**...-.....
**..*.**1.....*-.-
*...1**.-.....***.
-1-..*.*...*....*.
*.....1..*...1.**1
....**...*.1..0**.
....***..1.--...1-
..-....-.*0**..*.*
.-..*..***-....-1*

*** Life<Cell> 18x15 ***

Generation = 0, Population = 19.
--0---------0--
-0------------0
---------------
---------------
0--------------
-----0---------
---------------
---------------
--------0------
-----------0---
--0------------
------0-------0
0----0--------0
---------------
--------------0
----------0--0-
---------0----0
---------------

Generation = 6, Population = 92.
--0-0-----1-*0.
--------1-1-*-.
0-----0---11*11
---------000---
--0---------0-1
------00-0-001-
0---00--0-----0
----10-100-01--
0--1---1--0-0-*
--00-**1-00-1-1
01--01----1---1
1---*0-0*-.1*-.
-.-00-0-0-.-.-1
--0-------1----
-10------00-*01
-------0----.-1
0------01---0-1
--------00*1---

*** Life<Cell> 9x2 ***

Generation = 0, Population = 18.
00
00
00
00
00
00
00
00
00

Generation = 5, Population = 4.
..
11
..
..
..
..
..
11
..

Generation = 10, Population = 0.
..
..
..
..
..
..
..
..
..

*** Life<Cell> 20x16 ***

Generation = 0, Population = 127.
0-0---0---------
-0--00------0---
0-0--0---000-000
-0--000----0---0
---00-0-0-0---0-
-000-00-00000---
0----------0----
--0-000-0--0-000
0---00000-0-0---
0-0--0-0---000--
------00---00---
0---0--00----0--
00-0--00---00-0-
0-0----00-----0-
00---0-000--00--
00-0-0-0---0-000
-0--0--0--00-0--
0--0-0---000--00
0-0---0-0---0---
---0-0-00-0-----

Generation = 3, Population = 171.
--10--101-1--11-
-1--*-0--0*-0-*-
--0000--0*10-110
000---0-00-*000*
------00-*---*--
-11--*1011-*.0-0
0-1*-1--0*001**0
0*-0011---0**.0-
10--1-*10--010-0
.-0*-110----0*--
0--1--1-000-0--0
.-0-0001**---111
1--1--*101-..0.0
01-1001-1--*10.-
10---*--1.*0.10-
1*0-0*0----1--0*
-*0-0-0**1-.---1
-0--0---0..0--.-
-----0--*01-0-*-
*-0--0*-00-**0-1

Generation = 6, Population = 151.
-1*10*--*-.-0.-0
**--*----0*--1.*
--00-.-00..-01--
-001-**--.-*--**
*-0-00-1-*11-.-0
1.*10..-*.1*.--.
.-*.01-0-.*1.*.-
*.-1*.1----..*-.
10--.-...-00---0
.-1**.*00--0*.*-
00-.0*-*-1--1.-.
**--.1-..*00*-**
*1*.*1..1*-*.1.-
-1011.-1-1-*11*.
**-...-..*.*.*01
-.011.11-10..*-*
1*--000...-.1--*
1---.0-01..0--.*
1-*-1-0-.**11*.-
.10-*-.1-00.*.--

Generation = 9, Population = 147.
--***.10*1**0..*
*.--.-1-*-*--...
----1*-*-..0.-*-
*-1*.**10.-*11..
*0-0-0--...**.-*
*.*-.*.****.*0-.
*-*.*..-0.**...-
*.-**.--1--.*.-.
-*--.1****.11*-0
.0......-1--.**1
01*.1*****1*-*0*
.*00*-0***0*.1*.
.-..*-*.*.-*.*.*
1.1-*..-*10*-*.*
.*-......*.*...-
-..-1.-.---...0*
*.1-1*-*..**-**.
*--*.-0-**.*--*.
...0..0**.*....0
*.-1**.-0--...-*

Generation = 12, Population = 115.
*.....11.-*.-...
**-1*-**.*..1...
*--0.*-*-.*1.-.-
**.....*1..**..*
*1-*11-1*..**.-*
..*-.....*..*1-.
*-**.*.--...**.-
*.1*..*0--0...-.
-.-*....****...-
.1..*...---0..**
*-..-...***.*.-*
..--.*1.*.1.....
.....1.**...*...
-.**....**-.-**.
..0........**.*-
**.*..1.-*....0.
..-1*.-.....1*..
*.*.*-*-**...**.
...0*.-***...*.-
.**1...-.00...*.

*** Life<Cell> 38x40 ***

Generation = 0, Population = 37.
----------------------------------------
----------------------------------------
----------------------------------------
----------------------------------------
----------0-----------------------------
-------------------------------------0--
----------------------0-----------------
----------------------------------------
------0---------------------------------
-----------------------0----------------
----------------------------------------
----------------------------------------
-----------------0-----------------00---
---------------------0------------------
----------------------------------------
----------------------------------------
----------------------------------------
----------0-------------------0----0----
---------------------------------0------
----------------------------------------
----------0--------------------------0--
----------------------------------------
---------0--0-----------0---------------
--------------------0-------------------
----------------------------------------
-----------------------------------0--0-
----------------------------------------
-----0---------------------0-----------0
-----0-----0----------------------------
----------------------------------------
0--0------------------------------------
--------------0-------0-----------------
----------------------------------------
----0-----------------------------------
---0--------------0--------------0------
----------0-----------------------------
-0--------------------------------------
---------------------0------------------

*** Life<Cell> 10x39 ***

Generation = 0, Population = 50.
0--0-------0----0---0-0-0-----------00-
-------00-----00---00------0-0------0--
----------0-0------0-----0-------------
------0--------------------------------
----------------0------0--0------0-----
-------------------------0-------------
0------0----------0--------------------
-----------------0--------000--0-------
---------0------------00----00-------0-
0--0--0--0---0---0-----0--0------------

*** Life<Cell> 50x24 ***

Generation = 0, Population = 96.
--0-------------0-------
---------------------0--
--------------0---------
0----------------------0
------------------0-----
--0---------------------
--------------0---------
----------------00----0-
------0---------0--0----
-0---0--0--0------------
---------------0--------
------------------------
---------0-0------------
-----00-----------------
---0--------------0-----
-------------------0-0--
--------0--------00-----
-------0----------------
------------------0-----
------------------------
----------0-------0-----
------0----------------0
0----0--0-------------0-
----0-------------------
---0-0-------------0----
-----0----------0-------
----------------00------
-0------0------------0--
-------0----------------
-------0--------0-------
0--------0-----------0--
--0------------0--0-----
------------------------
----------0-------0-----
-----------------0------
-------0-0----------0---
----------------0-------
-----0-----------00-----
-0--------00---------0--
------------------------
---0--0-----------------
----0-------------------
------------0-0---------
------0--------------0--
--0-0-------0----0-----0
-------0-0-----0--------
------------------------
------------------------
----0------00-0---------
----0--0----------------

Generation = 1, Population = 298.
-0-0-----------0-0---0--
--0-----------0-0---0-0-
0------------0-0-----0-0
-0------------0---0---0-
0-0--------------0-0---0
-0-0----------0---0-----
--0----------0-000----0-
------0-------00-100-0-0
-0-----00--0---01-0-0-0-
0-0-0--0-00-0--00--0----
-0---0--0--0--0-0-------
---------0-0---0--------
-----00-0---0-----------
---00110-0-0------0-----
--0-000----------0---0--
---0----0--------00---0-
---------0------011--0--
------0----------0------
-------0---------0-0----
----------0-------------
------0--0-0-----0-0---0
0------00-0-------0-----
-0-----0-0-----------0--
0----0--0----------0--0-
--0-010---------0-0-0---
---0010--------01--0----
-0---0--0------0-10--0--
0-0------0------00--0-0-
-0----01--------0----0--
0-----0100-----0-0---0--
-00----00-0----00-0-0-0-
00-0-----0----0-00-0-0--
--0-------0----0--------
---------0-0-------0----
-------0-00-----0---0---
------0---0-----00-0-0--
-----0-0-0-----0--0-0---
-0--0-0---00-----110-0--
0-0--0---0110----00-0-0-
-0-0--0---00---------0--
--0--0-0----------------
-----00-----0-0---------
----0-0----0---0-----0--
--0-00-0------0--0--0-00
-0---000-0-0-0-00-0--00-
--0-0-0---0-0-0-00-----0
-------0-0-----0--------
----0------00-0---------
---010-0--011--0--------
---0100-0--00-0---------

Generation = 2, Population = 294.
0-0-0-----------0-0-----
0------------------0----
--0---------0-----0-----
0----------------------0
----------------0---0---
----0-----------00----00
------0-----0-----00----
-00--0--0--0--11--110---
----0---1------1-01--0--
------01-11--0--10----0-
------0--0-1-0--10-0----
-0----0-0--1------------
---0---0-0-0-0-0--0-----
---11--10----------0-0--
-0---1--00-0----010-0---
-----000---------1-0-0-0
---0--0---0----01--00---
-----0---0---------0-0--
--------0-0-----01--0---
------00---------------0
0----0------0---0-0-0-0-
--------1------------0-0
0-0--001----------000---
--0--1----------0------0
00-0---00-------1----00-
-0-11--00-----0---0--0--
---0-1-0------01--1-----
---0-000--0--------0---0
0----0----------10---1--
-00--0--11----01-----1--
0-1--------0-------0---0
1---0--0--0--0---10-0---
0--------0-------0---0--
--0----001--0--00-0-----
---------------01--0----
-------0-010-----10---0-
-0--------00--0--01--0--
---0-----0-----00--1----
------0-01--10--0--0---0
----00-----------00-----
----01--0-000-0------0--
--0------------------0--
--001-1---0---0-00-----0
-------100-----0---0---1
0-0-0-1---0-0--1---0-1-0
-----010-0-0-0---1---0--
--0--------0--0--0-----0
----1----0-----0--------
--0---0--01-*00-0-------
--0-*110-0--------------

Generation = 3, Population = 555.
1----0---------0--------
10--0-------0---0-0-0---
-0-0-------0-0---0-----0
-00---------0---0-0-0-0-
0---0----------01--0-00-
---0-00-----0--0-1-00011
-00-0--00----0000-----00
0110---0100--0*-0-**1---
-000--0-*-00-0-*1-------
----00-*0-*-010--1-0---0
-0---0---10*-100----0-0-
0-00-010-00-0--00000----
-001---1---1----00---0--
-00-*-1--0---0-0000-0-0-
0-00-*-0-1--0--01*1--0-0
-0-00-11-000---00*01----
--0-001----0--01*-1110-0
---00-----0----0-001--0-
-----00--0-0---01*0----0
0-----11--0-0----00-----
-0--0--00--0-0-0-----0-0
--0---0--0--0---0--00-0-
--100--*--------001-1---
--1-0*--0------0100000--
1-01-10--0----00*00-0-1-
-1-**-01-0---01-101001--
-00-0*0---0--0-*01*--0-0
0-01-1--00-0--0000--000-
--000--1000---0-*1000*00
01-00101**00-01*-0-00*00
10*000-000--0000-0---00-
-000-00-0---0-0-0-10---0
100-0----1--00-0-10---0-
00-0--01--00-00--0---0--
--0-----0-000-0---0-0-0-
-0----0--1*-0-00-------0
0-00---0-0--00------0---
-00-0-0--1-000-1---*00-0
---00---1-11*10-1--10-0-
---0-----000-00--11--0-0
--00--00--1-1--0-00-010-
-01--00-0--00---00--0100
-0--*---0--0-0-01100-001
0--0--0*-10-0--1-001000-
-----0*000-0--0*0001-*-1
0----1*1--010--00*00010-
-0-00000--010---010--00-
---0-00-01-0000--0-----0
-010--1-01*-.-10-0------
-01-.-*1-1--000-0-------

Generation = 4, Population = 314.
*-----0-----0-0---0-0---
--0--------------0---0-0
--0-------0---0-0-0-----
--1-0-----------10-0-01-
--0---0-------0----1--1-
00---11-0--0---------1--
----------0---11--0-----
1-----------01.---.**000
--1-----.0110--.--1-0--0
--0-1-0*-1.-1--0--------
---0-------.--1---00----
----------------11-1-00-
-----00*0----0-01100----
--1-*1-10100------------
-----.-1------01-.*---0-
---------------1-.------
----1----001001-.-*--10-
---1-0-----0-----------0
0--0-1--0-----0--.1-----
----0--------------0-0--
---0-00-1--------000--0-
--1--0-0--0-----1--1-0--
-0*----*-0--0---11----0-
00---.---------------1--
-0-------10----1.-1----0
-*-..-1*-1--0---*---1--0
-----.--00--01-.--.-0-0-
-01--*------0--1-10----0
-----0-----0----.--1-.--
---1-*--..110--.0-0-1.--
--.-11-------1--01-----0
11----1010-0--1----1000-
-------0--------0-------
-----01*--------010---0-
00-------011-0-------0--
--00-0----.0-0-10-0-----
---1--0-----1-------1---
-1--1----*0--10---1.-10-
-0---000----.--0-------0
------00-1----------01--
----0--1--*-*---01-----0
0----1-010-----0-10-----
-1--*---1--1----*-1--1--
--0----.--1------1-----1
---00-.----1001.1--*-.--
---0-*.*-----0---.-1----
------------1-0---------
----1-10----1--------0--
0-*-1--0--.-.0*1010----0
0---.1**0*-01--0--------
