*** Life<Cell> 29x18 ***

Generation = 0, Population = 158.
---00-0--000-000--
---00--0-------00-
--0---000-----00--
-0---0----0----0-0
--0-----0-----0--0
0--000-00-0-0-----
0-------0--------0
----0----0----0000
--0-0------------0
--------0--0---0-0
00--0--0-00--0-0-0
--0-0---------0---
0000-0--0---------
-0--0-----0----0--
--0--0-0-------00-
-0--0--------0----
-----00--00-0-----
---00--0-----0-0--
---------000-00---
0--0------0-000-0-
0--000----0-0--0--
--0--------0-0-0--
00---0---0-----0--
-0---0--------0--0
-0------000--0--0-
0-0--0--0--0---00-
00-0-000-----00-0-
00-00-0-------00--
---0-------0--0--0

Generation = 4, Population = 258.
1-1--0-01*-.-.10-*
---1-.-*-*1---1.*1
--0-----111**11.--
*---1*0*---0-0--0-
--0-.1--11-0.-0--*
*--.0.-.*---*-0--0
*--000*-*01-1-1*-*
-1*-.---0--11-*-**
01-0-0*-1----*00-0
1-.111--11-1-0-*-*
1.11.0.*1.*---1-1.
-..---0-1-*--1010*
*---0-**--0------*
0.-00000*----0*---
-.-1*-0*-0.10*10**
-0*00--*001-00-.01
---**.---.--0*1.0-
*01..--10001-.----
-00*.10.--1--.0110
**-.*.0**00-1*----
--101*.*00-1*01*-0
--1*.-0-11---*--1-
100*..-0--1--11..1
-0--0*0-.11-*--*--
-1---00---.-10-1.0
.--0-.0*-0*--1*.11
*1..1--.-0--1*101*
-**.*0.10--1--1.0*
1---111*00---0**--

Generation = 8, Population = 228.
*1*----0***.-...-.
1-1*0.1.1.1--11*.*
*-0-.*.-.**..*1*0-
*-1-..-.1---...---
*00..*00*.--.0*--.
*-*...0*.--1.-10.0
.--1--*-.-.1*1..-*
.1*-*1*0001.*1.0.*
*1*-*-.-1-1--.*-1-
.-.*1.0*..110.-..*
**.*.**.*.*--*.*.*
-...*0*0*-..1.*11*
*.*--1..-1*1--11-.
*.-0---0.0-.*1.---
-.*...-.1*..-..-*.
*-.-*1-.--...1*.*1
1-1...110*1-*.*.-1
.1.***1*--*.*...1*
.*...*-...-.-.-1-*
..-...-..**.-.11*-
1-1.*.***--..0-.-0
--...-0-1*--..1-*1
.-1..*--.-.-1***.-
1--0**1*.*--*1-.--
-.-.1----..*-0.**.
**.--*0*10*****.1.
.1...0-*0.1-.*-0-.
-.***-*111-**--.-.
1*-*1*1.*..-1*..--

Generation = 12, Population = 196.
.-.0.-0.....-...-.
1*........-*--.*..
.-*-...**.*.*...*0
.....*1..-*-*.**-1
*0-...**..*..*.--.
.*.......*-...-*.-
.-*..-.-.-*1*1*.**
.1**.1.1.01**1.-..
**..**.-.*---*.---
**..1*-*.*.-*...*.
..*...*...*--..*.*
-.*..-**.1.*-.**-.
...--..*-1*.00.--.
..--0-1-.01*...*--
**....1.*..**...**
*1***...*1...**..*
**1*..*.0*1-.**.--
*.....*.--..*.....
**.**.1...*..*1*..
..1**.-....*.**..-
*-1****...1*.--*0-
0-..*0*1-*0-.*...*
..-**.0-*0**-*....
*--1..*.*.10..0.1-
0*1**1*-....-0...*
...1-.-*.0.*......
.........*.-..**-.
-***.-.**.*.*.-.-.
.***..-.**.0.*..0-

Generation = 16, Population = 178.
.**1.--.....1...-.
*.**...***-.*-....
*1.0...*.*.**.**.-
...*...*.-.0....-.
*-..*.**....*..*-.
*..*..***.1*..-...
.1*..-...-..*.*...
.-.....1.-....*-..
.......-..-1-*.-**
.....*-....1...***
....*..*...11.*..*
-....1...*.*-.***.
...-*...**.****10*
..0*0-.1.1..****1-
...**.*.***....*..
.-....*..1*.......
......*.-..-....1.
.*...***.-....*...
.*...*......***...
..1..**..*..***..-
**-......*.*.*1..1
*-.**-.*...-....*.
.*-*..-**-**-...*.
.001**...*-*..-.--
-*-..-.-*..**-....
...*1.-**-.**.....
****.****..1*.*.*.
.....1.*.***..*.1.
.****.1.***-*...1*

*** Life<Cell> 48x48 ***

Generation = 0, Population = 777.
--0--0-----0------------0--0---0-0-00-0----00---
0-0-0--00--0---0-0-0-------0-0--0---0----00----0
0-00000--0-00------0------0-0-0-00-----0----0---
-00000--0--00----0000---00-000---00000--0---0-0-
00----00---00-----0000----00----0-----0--0----0-
0-0-00--000-00--0-00-0-00------0----0-0-0-0-0--0
0--0--0---0---00-----000-00-0---0----00---0-00-0
--0----000----0000000--00-0--0--000---0-00000-00
--0-0-0-00-00--0-0------00---00----00----0----0-
-00--0-------00-0--0--00---00--00-0000--0--00-00
--0-0------000-----0-00------0---0-00--0-0---0-0
--00--0-----00-000-0000---0-0---0-----00000-0---
00----0---0---0-000000---0--0--000--0--------0-0
--0--00---000----------0-0-----00--0---00--00--0
---------0----00-----0--0-0---0-00---00--00-00--
----0-------------------0-00--0----0--0---0-0-0-
--0-------0--------0------------0----------0----
--0-------0-0----0-0---0--000-0--000----0-00--00
0-00------00-0--0-0-0--0--0-----0---00-00--0--00
0--00----000-0-0-0---0---0-0------------0--0-0--
---0--0----00-0--00----000--00---0--000---------
---000-0------0---0------0-------0--0---0-0-----
000------0-00--000----0---------000----0-0------
-00-00000--0-------00--00-0---0-----------00000-
-0--000---00--0-0--0---0--0--0000---00--0-00-00-
00-0--0---0-0-----00---0--0--------00----------0
--0--0--0---000--0--0-00--0----0000----0---0-000
-0-0------0--0--------00-0-0-------00---0--0-00-
-----000----0--------00--0-----00-0-00---0----0-
--------00--0----0------------------000----0-000
-0-------00-00-00---00----0-0------0000---0--0--
----0--000-----00-----0---00-0---0--0000--0--0-0
-0--------00---------000-----00---0-0----------0
--0-----0--0---00----00--0------00--0---0---0-00
---0-00--------0-00-0-0-000---00--00-0000--000--
-----0---0---0-00------000-----0000----0-00-0---
-00--------------0----0-----000----0-000----000-
----------------0-0--00-0---00---00---0-----0-0-
-0--0-0--0-------0--00000---0-0--0---00-0------0
0--0--0------0--0---0--0-0---00----0--00--0--00-
--0----0-----0-00---------00--0--------0---0-0-0
-----0-000---0----0000-----00---0--0-0-00-0--00-
-0-0--0-0--0-0----0---00-0---0---0---0-0----0---
--0-----0-00--000----0---00--------0----00----0-
--------0-------000-------0---------0-0------0--
0--0-00---00-00000-0-0-0-00--000----0-------0--0
--0000----000--0-0-0-0-0----00---0---0--------00
-000-----0---------------0---0--00-0------0-----

Generation = 2, Population = 1154.
------11----10-----1--0-01-*1-1-1-0--0-1010*-10-
-001----*-100--0-00-10--1---1-00-100*111---0-010
*-**---0100*010--0000------------00-01----11*---
10*-*-----1**-0----00---**-0--00-00-0*0000----*-
0--1----11-0*0-010*-*---0---01---01-00*-1-0001-0
-1---*-0*0-1--0--0001-1----110--1001-10--1*0*00-
-----0-001---0-01-0-----0---000-*-1---*1--01**1-
-1---01**--1-1-0--00*00--0*---0------0-0-**----0
---00-01000-*0---*----1--*---0-0--100----*00----
1--11-0-11-0-0-100--100*--1-*1--*1*00*---1-**---
-0----1-0---**--011----0---110111-1---0*------1*
1----1*-0---0-1-*--**0-1-000----------*--*-00---
*--1-----1-000---*-**0--1--1--100*--01-0--1110-*
1-0-1-01-00---0111-11-101*--10--*-10--0**0-----*
001---10---111*---001010*1*-0-*-0*1-------01**0-
--1--1-----0-----0-1--0-*--*11*1--1-10-1----*---
--*11---01*11000011-1--11--------01-0-101-1*0-01
---00---01-1000----*-0---1---0-1-*--01---0-*1100
-0-0000-00*--*-00001001*-----01-00-0*-0*--001--0
*10**-1-1**---1---10---0--1-010---000-1--11--00-
---010--0-----*--001-1---*1---1--*---0*1-0-1--00
1----*--1-0-01-0-1-1-0--0*1---00--01----------0-
-*0--0-0-0-0*--*0---1----11-0----**11010101--11-
-*0-0-*-*---001--110---0*-------01-0-----0-*-*0-
000-0**01--0---0-10-0--00101-**-*1-0---10-0---0-
*0----*11--1*00-10-0--0---010-1--10*000-1-1-00-*
11-1--0---0-------0-0--*--*-0--*00-100--001-00--
1----01--1011--0-10010--0-10-0---11*--0--01-0-*0
-1011--*-------001-01*001--1001*--0--0-0--1-0-00
-1-00-1-*001-00-0--0---0-11--0---01-*0---10-0-**
-0-0-00-1--0-*-0-0-1--0-01*-00-0011*0-*0-1-01-0-
-----1-*--1-11100-0-11*----*1*--100-*--*11------
-0---00-0-*-----00001-0*---1--*-------111-1011-0
0----111010--01--0100-*0-*0--10-*-10*01--1----*-
-00000-11-01-1-00-*0-1----*101----0-1*--0--*0---
--11----1--0-00--1---01**-001-10-0-1-010-**10-10
1*---1---1--------0000-001-1--*-1-1-0---111--00-
0--0-01--1----010-010-*1---1-0-0-0*---0-100--1--
-0100-*-1--0-1--100-0***0001-0*11--11*-10-10111-
000-0--0-1-0-*10*--1*0-*10-10*-1--101000010010-1
1--0-1--0-----0*----01------0-*-1----1000--00--0
0-1--0--**-1-01-1100--0--1----1--010-------0-0-0
-0101001-00*----11*--1-*0*-1--1-----1*0--111--00
---00--1---0---0---01--1100--10001-00-1-*--0-001
-01-01--*---010-**--000-01--------0-*-011--00-0-
0-0-10-11-0----*--1--*--0*0----*--0---1-00---0-*
10000000-00-*-0*1*0----*-0-1--0-----0-10----1--0
--*00-00-00--00101-1-1----1----1*-0-11--0-0----1

Generation = 4, Population = 1107.
0-*101.*0------1--0--0-0-.-.-0*-11*10*11-1-*--00
---1-01*.-1*---00001---1*0-1*0---1-0.----*--1-*-
*-.*----.0-.01001----0--01-1-000-**-*.--1-..*001
*-.1*-010--..--011*0--0-.*0-11*-0**-*.*0*--0-0.-
-1-10111-11-.*0*--.-*------101---*.-0-*1.0-**11-
0-1--.00.--.0-0--0-0-----0-*-*-11--.11--0..-*---
1--01--*01-0-*1-.1--0---01-0----.1.0--.-11-*..--
11-1--...101110----0.001--.-----1--100*-1..--100
--1-01*.0--1.*11-*-1---0-.-0-*--0-1-0101-.*0---1
----10--*110-0-***0-*0*.101-..0-.1.-**-1-.1**11-
1--1--10--0-..--*..-0-10111-.*111-.0--0.1--0--..
*---1.*0--00001-.1-..-0.-*0*11---1----.*-.*-0010
*----10-0***-*--1.-*.-01.--.10*-**---*0---..**-.
--*--1-100--1101-1-.*01--.0-1*--*0--00-..*1----.
0-.110-----11-*111--.0-**.*--0.10.*01*1-11*1***0
----0-0-11001-0-0--.---0*0-..-*.0------.001-.---
--.*-----.*1*-*00*.-10-.1---10-01---00.**-***1--
0--**-11**01*--10--*0*0-0-10-*-1-.01*.-0--1*11--
-*--------*00.-*----0*-*1-*00---*01-.-0.*1-*--1*
*.-*.0.0**.*-1*0--.-0--*-1.0-.-1-1-*--11-1-*0*--
-1--*-0-0000-0.0--*.0.1*0..1*1101.--0-..-*---0*-
--1-0.-0*1010.**-.-.-*1--.*11-0-1----00---110---
-.010--00-1*.1-.**-1100---1-0111-.*--01-1-.---*-
-.-0--*0*00---.-01.**0--.-111----*-00-101*-.0.*-
-000-..-.1-*-----*-001--*1*--..-..-0---.01*01-*-
.--1-0.*-111.0*1.010-----0-.--.01.-.-**1--1---1.
*10-1---1--1-------0*-0.--*--0-*0*1*------*---1-
*-1------.-1.-1*11*-1-11*-1---0001**-10000*1--*0
-10*11-.0000--0--11***---1-100-.*1001-1--1-0--**
111*01.-.001---0--10-11*-11----0--*1.--0---10-**
-*0*----.1-*-.-*--1*1--1***----**-1.-1*---*-1-*-
00--1--.11.-.*-*0-*011.-110*..0--*--.*-.*1-00--*
--1------1.11-00--0**1**-1-*01*1-1-1---*10.01.1-
0---0...01*11-.0*--00-.-0*---1--.110.-----0--0.-
-**-0-*1*1-10-0*-1.01.*--0.**1*1---1-.----0.0*01
11-10100*0-*0--0-1--0*-..1-0--1--0-1----0.*.-1-*
1.1--*00-.11---11-0---1-*.11--.-1-*10---1-*--000
--0--0-1-.-100*101-.*0..*001-*--0*.-0-01*-*-11*0
1-.--1*---1*-.-1*-00*.*.**0**-.1.--1**1-*0.-.-*-
--0-*0-00--*-..-.0-*.*1..0-1-.-.1-*-*-*-01*01-**
1010-*1-*1--01-.11110--1----*1.1--0-01---0--011-
*1.-0-0-*.1*0---1.**---00.1---110-1*0--*--001-*-
--.*.-0----.--1--*.-01-.-.-1-01----1-.0--*-*--0-
-01-*-0.-11*-110100*-101-----.-00.--*11-.-0-1---
--1-*--1.-----*-..--0*---.10----1-*-.--1*010-0--
--0*.**11--10--.****-*01-.*00-0.1-*1-1-00--1--1.
--0-0**-10*1.-0...-1--1.1*-1**-------1-*-11110-0
-1.*-1-00------*---1-1-1-0--010**--0-*0000--1--*

Generation = 6, Population = 1052.
-0.*--.*--1-1-1*-0*110--0.-.--*0*.*.-*1*-*-.-*-*
-1-1--1*.-..1-0--0-.*---.001*---110-.**-0**0.1.-
.1**0*1-.00.--00.111*000-.1*--*--..-..1-*-...--*
*-...1-**1-..0--*1*-10-1*.--1-.**.*0...*.11*1-.-
-1----1.*..-.*-.-1.-.-1-1-1--*-11.*-01.1.--*.*.-
-*1-1*0-.-1.01--1--0*------.-.-..*-.1*--***1.0-1
1-00.-0*01--0.*1..1------1--1*--.-**--.*.*1*..*1
-*-.1-...1-1-1--011*.-01--*--*-1.-11**.-..*0-.0-
1-110...*--1..*-1.-.--**-*--0*--*11*-1-1-**00--*
-1*-1-10*1*-0**...*-.-..-*-1.**-.1.-..-.-.1..1*0
.1---01-0-0*..--...1*1*-.1*1*..1.1.--0-.1--*1-.*
.10-1..--0*--*.-*1-..10.0.*.*.--*.-1-1..0..1---*
.*11--000.**-.---.1.*-**.*0.*0*-*.1-1.-1-1****0.
1-.0111**01-1.---.1..----.--1*00.------.**1---1*
-1.*.--10-0-.-.**-*-.*-....10**.*.*0*..--1*-*..-
1-11-*00*---*-0--*-*10*0.-0..-.*---1---.***1*-1-
10..*---0*.-.-*--*.11--*----*--------*...1.*.111
---..0*1*.--.-0*0-1*-*-*011-1*0*1.0-..0-*-1**-1-
-.111-1---.-0.-*0-11-***1-.0*-1-.*1-.**..1-.--..
*.-..-.****.1-.*--**0-0.0-*-**-*-*-*011.---*0.1-
01--*1---0*--**0--..-*1*-....1*-1.00-1..-.--1-*-
-0*--*-0..0-**..0.*.-..0-...*0-1.--1---110*1*-0-
-*0*-*0-*-***1-..*-1*---0*1-*-*.-..11-*1*-*1--.1
-**0--.-.-0101.1-*...---.0*1-0---.-0*--01*0*-..1
-----.*1*10*--11-*1*----*..1-..-*.1--*-.0..---.1
*11.-0..-11*.*..*01---1-0--.01*-1.1.-.**-0-01-1*
*1-*-0--1----*-010-0.-*.1-.----.-.*.*-----.-1-10
*0-0----0*1-.*1*1*.---11**.--***01*.1.---**111*-
-1-.*1-.****-1-1-11...--1.0*--1...00.-.10.*0-1..
*11.--.-*--.1-1**0**01-*-*1-11-*-0.1.-10--0--0*.
-.*.--0-*1-.-.-.-1**1-1-.*.-010..*..--*-11*11-.-
*-1--*0.***0..*.*0*---.111**..*11.-1..1.*1*-*-1*
0--1---0*-.--1**1*0.****--1.0*.*0-1.-1-.*0.--.1-
0--1-**.01*-.-.*.-1*--.0**-----0*---.---*1---*.-
-.**--...*1.---.-**-***10-.***.*101-*.-1110.**-1
--1.-*--.0-.01---*000**..*1010.1-0--00-*-.*.011.
...0-.*-0...---.----111-..-.1*.1*-.*--*-1-.11--*
--*-1--.-.1.--*10*-..***.-0.-.---*.--101.*.-.*.-
11.--*.1*-..0.01*0-**.*...*..1*1**0*.***.0*-.-.1
-1--.*-----*0*.-**0...1.*--.**-*-0.*.-.0-1.---.*
-*.*0.1*.*0--*-.-**-*--*0--0....*10--*1-0-1**-.0
*-.-0100...*--*-*.*.1-10*.10-1-.---.-10.--*---.-
--...-0----*-1*0***--11.-.0--*---0-*-*---.1.11--
-*-1.0-.1.-*0.1----.-*0*---0-.-*-*-1*11-*--0--1-
0---*--..-1-*-*-**-1-.*01.1----01-.-*0-1*0.---1-
11-.****-0-1*-0*.*..1.*.-*.-0--.*-*.1*1--*--01-.
1--1*..1*-*1.--*..01--....-1.*11---0---*-1-*.***
--*.1*-*-0-1-1-**11*--1--*-00.0**1-0-*0-0---*01*

Generation = 8, Population = 979.
-*..--*.*--1.11*-0.-**1-0.1.*-.0...*1***-*-.**-.
-1--1--..1*.*00**0-..*1*.**..*0-1--*...--.*-..*-
*-.*0.1*.-*.*-0*.**-**-0-.1.--.-0..-.*.1.1...-*.
*-.*.*-*.-1.**-1.-.*10--*.-011...*.-.*.*.*1**0.1
-*01-***...1***.*..-.0-1.----.---..---.*.--....1
-.1-..*-.-1.-1-011--.1--*-1.-.-***-.-**-.....*1*
1--*.0-.01-1*.**...-1---*10-..-1.1**--.*..-....-
-.-.*1..*.-*----01...*01-1.11.1-*0*1..*-..**0.*-
1-1--....*-*...1..-*01..-.00**10*.*.-*1--*.-*--.
1-.*.-10*1*-*...**.1.1..*.-***.1*-.-..0*1....*.-
*1-------0-...10.***...1.-.*.**1.**1-*-..*0*.0.*
*.--1*.1****1..-..0..1-.-*...*10..01-...-*.-1--.
*..--1-*-*..1.-0*.*.*-..**-..-.-.*-1-.*-0-.***0.
1-*--1*..-.-1.1-*.-*.**--*-0**0-.-----1..**--0-*
1-***--.---**-*..**0..-...**-...***-...0-*.-*..-
*0*1-.0-.1--*-*--.-..**-.*0..**.0-1.--1*...*.-.0
1-...10-*..1*-*10*.*---.-10-.0--*---1***.*....-*
-11..*.-..01.--.01-.-.***1.-..*.*.--*.-1*0*****-
-.*-*-.--1.1**0.-0..*...*0.-.1.1.*10.....1-.10.*
..1..-..***..-..0*..*-0**1*-..-*1*1*01-.--**0.*-
01-1*1----*--..0-0..1.**1..*...1-*---***1.1*-0.-
--.00.-0..0*.**.-...-..-1..*.-0-.0---1--*-..*--0
*.-.-.*-*-.***1*..1..10--.11.1..1...1-.1.-..01**
1*.-*-.*.----1.*0....-00*-.1-0---*-0.01-1.*.-.*-
-1--0.*1*.0.--*1-**.-1--*..*0*.1**.1-*-.***0*0.-
*...1-..--.*...*.01*0-.---1**1.-.*-**...-01*-01.
..1.1--1.11--.*0-**0.1..-0*---0*0..*.-11-1.-1-*0
**1---11-*--..-.*..-1-11..*11..*0-.**.110.**..*-
110...-..*.*-.-1-.1*..1***-.0-..*.--*1*1***01-..
**1.*-.1**-.-1.*.-..-.*.-.111--.-**..11-1-0--0..
0...00--.11.-.0.1...--1*...00.0...*.1*.11.*-1-*1
.-.--.0*...*..***0.---.1-**.***.-.--*..**-*1*1-*
-11*-1-***.*-..**.*.***.1-.***..-1-.-11..**-*.*0
-1---.*.0*.*.-.*.1*.*-**..0--11*.11-.*--.*1--*.-
-...--.**.-.**-.*..-...*0-...*.****-*.--*.-.*.11
--..*.00*-0.*.-0*.-0-..*.*----*---0--*-.*.*.*..*
...--*.--***1--.*----1.-..-.-**-*-*.-**-1-..-*1*
*-**10**0*1*11..*.-.*....*-.-.-1-**--1--.*.1...-
.-.10*.*.-..-.-*.-*.**.*.....-.*..0*.....*.*.*..
0-*-.*-1--0.-**-.*0.*.*..--...-.10.*.-.--..1*-..
1*.*0.1*..*1-*-**..-.--.*-1*....*.-0-*----1*.*.-
*-.0-10-*...1*.1.*.**--*..1--.*.--*.1.0.*-.---.1
1*...**-1-1.1**-.**11-*.-.*--.*1--0*-.*-1.****--
-.-1*0-.-*1*0*10--1.-.0.-0*0-.*.1.-1*-.1.--0--.-
----.*1.*0--.1.-**--1****.101-----.0.--..-*---.1
..*..*..-0--*-0*.*..1.**-..-00-.*-*.-*.*0.--*--.
.0-......-**.-0.**010-.**.-*.*.-1--*11*.-*1*....
-*..1.-*1-1*011..-.*-*-*1.1--.0***-*1.---0--*-**

Generation = 10, Population = 857.
-*.*--...01-.-..1-.-*.--0.**.-*-**.*-...-.0...-.
1.-1.--.*.*..--..-1..**..**.*.-*.*-..**10****..-
*1**-**..-.*.1-....*..1--**.--.**..-*....*...1..
*-.*..0..-....1..*...-1**.1*-*....*1..**..1..*.*
1.--1..*..***......1.---.0-***---*.-0-...1-*..*-
-..-...1*--.-.-0**1-..--**..1.1..*0**..1....*.1.
-1-..--*-.-1.......11---..--..0*.*.*--.*..-.*..-
-*-..1.**.1.1----*.*.*-.1..--.*1.*.1...-....-*.1
.----.**.*-.***1..1*-*..1.*0..*-*.*.-..--*.-.-1.
--*..1.0.-.1..**...-.*....-*...*.1.-..-*...*...*
*.1*1------....*....*.*-**.***.**.*--.0*.*-*.*..
*.--...1..**1..1*.0.*1-.0...***0*.-.-...1*.*.***
.*.10--*-**.-*0-*...*1....1..-.1**-.-..-0-....-*
1-.111*..-.01***..-.**.-1.--.*-**-**0**..*.1--**
--...0-*1-*.*-*....-*.-.***.-...*..*.**--*.1*.*-
*0*1-****1--.0*-1.1.**.-..-**...0-..*1-.***..0.*
*-.*.--0**.1*1*--...*10.1*0-.*--.1--1.....*...-*
-*1..*.1**-*.10.0.*.1*...*.0**....-1*.--.-.**..-
-**-.-*--*.-..*.--..*....-.-.1..*.*0....**1*.0**
..**.1..**..**..-...*00.***-..-.-***-11**-..0**0
*.11.*----.-1.*0--..*..**..*..*.*.1-0...1*-.--.-
1*.--.-0..-.....-*..1..1*..*.0-1.---1.--.1...-1-
*.0*-**-*1.**..*.*1.**0-1..*.**.-..*11.1.-*.01*.
1..-.*...----.*.-....*00.1.-*0-1-.0-.0.1..**-..1
1.--0...*.0*-0.*-...1--0....****.*.11.-....-.-.1
....--..-**......-1.*1.0-1-..-.0.*-.....--.*-01.
*.*..*-*.1.1-..-**.0.1**-*.-1-**-*...11-1*.---.*
*.*-1*.-1*1-..-.****--1-...11*..--..***-0.**.**-
.-*...1**.***.-.1***.****.-.--....1-**.....**1..
.*1**-*...1**-...-*.1*..1....*-.-..*..10---1--..
-*..----.1.*-*-..*..---....-*.-*....1..1*.*-*-.-
*1*1***....*..*****0--.**.*..**.1.--...**-.-..1.
111.0--.*..**..**.*...*.1-*....*-*-.--***.*1...-
-*---...-*...-.*.*..*1....0-0.-*.*-*..-0*.1--*.-
0...--..*.*.*.*....1..**--..**....*1..-***-....1
--.*.*-***-.*.--..---.*..*-1--.101-*-.-.*.*...*.
...1-..1-.*.*-0..1-*1-.-**-***.*.-*.1.*-*1..1*-.
.0..*0..-*..***...*.*.*...-.1*-.-..01.-1**.*...1
.1.-**.*.1..-.0..-..*.*......-**..0*.......*..*.
--*-.*----*.-..-.*-.*....1-...1*1-...1.-0*.*.-..
*...-.-.....-.**..**.1-.*--...*...---*-11*.*.**-
**.*--*-....-*.*.....*-.*.-0-*..-**.-.*..-.1*-*1
-......-.-*..*.-.*.*--**1..-0...0*-.*.*-*.....--
-.*..*-.-...*..*-*.*-.0*--.00...-.-..-.-.1----.*
11--....*-1-...1.*1-1...*.-*1--0-0*-.--*.1*--0*1
..*..**.1*1-*-0..*..-...-..10-1..0*.-...-.-1.*1.
.-1..**.*-...0-.**-*--....0***.1110**...-*-.**..
-...-.-*.0-.--1..*.*1.1.-.10-.***.-.-.*11-00*1..

*** Life<Cell> 14x15 ***

Generation = 0, Population = 52.
-00-----0-00---
----0-0--0000--
---0--0---0000-
00-------------
---------0--0--
--------0-0-00-
00------0----0-
--0-0-0-----0--
0-------0-00-0-
--0--0---------
-00---------0--
--0--0--0-0----
---0----0------
---0----0----0-

Generation = 1, Population = 105.
01100-00-0-----
-00---10-1-----
000--010---1110
1100--0--000-0-
00---------01--
00-----010----0
11--0-00100-010
-------0--0--0-
-0--0000--110-0
0-100-0-0-0000-
0110----0-00-0-
--1-0-001--00--
---100-0-00--0-
--010--010--0-0

Generation = 2, Population = 97.
1**-1----10----
011-0-*1-*00000
--1-01--0----*1
*-110-1-01-1-1-
11-0--000---*-0
110-0---*--0--1
--00--1-*1--1*-
0----00-----010
------1--0**---
1--1-0101-1-1--
----0------1-10
0-*-1011--0-10-
--0--10---1-0--
-01*--0----0-0-

Generation = 3, Population = 111.
-.*-*0000---000
-**--0**0.1--1-
---01*1-100--.-
*1-*-0*01*--0*0
*--100--1--0*01
-*---0--.-0-0-*
---1--*-**0--.0
-00001100-0--*1
---0-0---1*.000
-01-01*-*0*---0
--1-10--0-0---1
--.--1**1010---
0-----1--0*010-
01**0-10----0-0

Generation = 4, Population = 103.
-**-*111-100111
0**-01..1.*0-*-
0----.*-*1-11.1
**-.-1.--.---.-
*10--1--*--1.1*
-.0--1--*-1010*
---*-0.0*.101.-
01---**----0-.*
--01--100-..111
11-1--*-*1.01--
--*--10------1*
0-.---..*1---00
1-010--0--.1*1-
--**1--1100-10-

*** Life<Cell> 15x38 ***

Generation = 0, Population = 185.
0---------0---00-0--0---0------0-0-00-
--0--0--0-00--00---000-0-0--00-0--0---
--0-00--0--0--00---0-----0---0-00----0
----0---0-----00-----00-----0--00-0--0
-00--00---0-00-0--0--0-------00-0-0---
--00--0-00-0--0---0-0--0--000----00--0
--0-00-----0-0-----0-0-0--0---0--0-00-
--0---0--0--00000-0-0-------0-0--0--00
0-0---0--0--000-0--0--0--0-0----0-00--
---00-0-0------0--0--0-00-----------0-
-0----0-0------------0-----0-0-0----00
--0----0-0---------00------00---------
------0-------00000-0-00---00-00-0----
----0----0---0----0-------------00-0--
0--0---0--00-00000-----0-0---0-0------

Generation = 1, Population = 299.
-00--0--001--0----0-1-------0001--0110
0010-1001---0011000-11--01001-------00
-01---00-0-100110-01--00010-01-1-0--01
-0-0100010000--10-000-10-0-0-0--1-1001
01---1-0---011-10010-1-0--00011010-0--
--11-01-1101-0---010-00100--1---------
-0-0110-0-0101000-0----1001--0100-01-0
00-00-10010---1-------00-00---10-1-0-1
--1-00-0-100-1--100-----------00-01100
00-11---1---00---0--01011----0-00-0-1-
0--000101------0--00-1000-010---0--0-1
---0--0-0-0---0000-1--00--01--0--0--00
--0-00--------1----01-110-0---110100--
0----0000--0010--0100-0--0-000001---0-
-00---0-0-11-----1----0---0-0----0-0--

Generation = 2, Population = 312.
----01----*0-1-00-1-*---000----*001-*-
1--1--11-00---**1-10-*---*1-*00--00-11
-1-00011-10--1*-101-0--11-------0---1*
--01-11--1--10-*101-10-101-1---0*-*11-
1------10-01*---11-10*---0111*--*101-0
00*-01-0--1*----0-------1-0-*0---00--0
-101**10--1*-*1-101--00*1--0-1*1101--1
1-0-1--11*1000*--0---01-0--0--*10*--0-
-0--1101--110*-0*11000--000----10-**1-
-10-*000*-0-1-00-10-1*1*-000--0--01-*0
1-011-*-*00-00-1-01-0------*1-0-1----*
0--100101--0-0-1-10---11001--01-01-01-
00-01-00--000---0--1--**10100-**1*-100
------1--0-----00--1-------11-11-000-0
-110--101-*--00-0*-00010---01-00------

Generation = 3, Population = 290.
0---1*-0--*1--0---*0*--011-000-*-1--*-
--1*01----1--0..*0*1-*000.--.-1-0---*-
--11-1---*-1--.-*1*1100--100010-1---*.
0-1-1--0-*0---0.---0*---1-0*-001.0.*-1
*--00---10-*.---*-1*1*000-****1-.*--01
-1.1--1--1*.-000-0100-0-*01-.1-0011-0-
0---..-1--*.0.---1*00-1.*0-10-.**--1-*
--10-01*-.--1-.-0-00-1-0---10-.--.0-1-
-110**1*0-**-.--.-*-110--1-0--0---..*-
---1.1-1.0-0--110*10*.-*1-1--01-01-0.-
*0-**-.-.--0--0--1*-1---0-0.*0--*0000*
---*---1--01-1-*0---00-*11-101*01----0
-1---01---111--01--*10*.*1*1-0..*.0*1-
0-0-00-0--0001-11-1--0--00-**-**1---01
0*-100--*0.10110-*-----10-0-----0000-0

Generation = 4, Population = 279.
-00--*--00**0--00-.1*---**-1-10*0-11.0
10-.1*11--*00-.**1.*-.11-.1-.0*01--0*1
01*--*110*--01.1**.-*1--1*11-*11*---**
1-*-*-1-1.10-0-*-011.0--*11.-1-*.1**-*
*----10-*1-*.1--*1-.-.1-10....-0..----
0-**-1----..-1-10---10-1.1-0.*0-1**010
--0-**1*0-*.1.10--.--0*..-1---**.-1--*
1---1-*.-*--*0.0-01--*----0*-0.10.-0*-
0**-..*.11**-.00.-.--*10--01--1100*.*0
0---.*0*.-0-10---.--..-*-0*-------11.0
.1-*.-*-*0--0-110-.0---0-01..10-.1-1-*
0-0*-0--10-*0-0.--0-1-1.----1-.-*---11
---0--*0-0*--011*0-**-...-.*-1....1*-0
1--0-11-------0*-0---1--1--.*0*.*--0--
-*1*1-1-*1.-1*--0*---01*-0--1-0----101

Generation = 5, Population = 273.
--10-*--1-..-10---*-*00-**0---1.--*-.1
-11**.*-10.11-...-.*1.**0.*0.1.-*0--.*
1**10.-*1.01--.*...1.----.-*-.*-.-00..
-0*-*--0-.*-1--*-1-*.1-1.--*0*0..***1*
*1-0----**0*.-01.--*1.-0-1..**-1..--0-
1-**0-10-1**-*0----0*---.*1-.*--***---
-111..**10.**.*1-1.--1...-*1-1...-*10*
*--0*0..1.1-*1.--1*00.10-01.--.*-.01.1
1..0....**..0.1-*1.-1*--0-1-0-**1-...-
1101.*-..010-11-0.-0..-*--.--0-001--.-
*-0*.0.0.----0--11.----1---*.*10.-0*0*
-01*--1--10*-1-.----*--.-11--1*0.-00**
----10.10-*--1-*.-0**-...-.*-***.***11
----0**-0-0-01-.--11-*-----*.1**.0----
-*-**0*-.*.1**--1*0-0--*0-00*0100-0--*

Generation = 6, Population = 252.
----1*-0*-..-*10-0.1*--0*.-----.0-.1.*
---...*1*1.-*-*..-*.-.*.-..-*-*0.100*.
*..*1.-.-.--0-..*..-.10-1.-.-.*1*0--.*
11.-*1111..--0-*---*.--**11*1.-*.*..**
*--10-01..-..---*11.-*11-*....1-..--1-
*-..1----*..0.11-01-.--1**--.*0-***--0
0***....*-.....*-*.-0-*.*0.*-**.*-.*-*
*--1.1*.-.-0.*.0-*.--.*101*.00.*-*--.*
-..-.*..*...1.*-*-.0-*-0-1*--0..--*..0
*-1*..0..--11----.1-*.1*--.0-1-11*-1*0
*-1..1.-*---0--1-*.01-0*00-...*1.--.1*
-1*.-0-1-*1*--0.010-*0-.1**11*.1.-1-..
-10---.*-0.----..0-..-...1.*-....*..*-
-0--1..01010-*0.1-*--*001--..*...1000-
0.-*.1*0.***.*10**-0--1.1-11.1*110-10.

Generation = 7, Population = 274.
---0**0-.-..-**1--**.0-1..--0-1*--.*..
1--*..**.*.1*0*.*-**1.*.-..0.-*-.--1.*
**.*-.-.-*-11-**...1.*-1*.1.-..-.1-0.*
***1.-***..----*11-.*-1..*-***0..*..**
*-0*11--..-..101.*-*1.-*-..**.*-..01*1
*-..*110-...-.*-01-0.00-..10*.1-***--1
1.**.*...-..**.*-*.0--*..1.*0....0..-*
*--*.-**-.1-**.10**00..*1-..11.*0*-1.*
-**-.*.*....*.*0*-*-1*--0-.---.*10**.-
.--***-*.-1**1110*--..-.--.--*1--*1*.1
*1-.**.-*-0010--1..1*1-.1--....*.10.-*
--.*01-*1*-*-1-*1-11*1-.-..*-*.**--0**
0*-010.*0-.--1-..10**-...*.*-**.**..*1
-1---*.1--*--*-.*-*-0*1---0*.*.*.*-111
-.1.***-...*.**-**0-0-*.*-***-*---0--.

Generation = 8, Population = 208.
0-1-**--.0..-..*-0*..-0-..-----*0-..*.
*-1*..***..-.1..*-..*...0..-.1*-.10-..
...*1.-.-*---1.....*..-***-.0.*-.*-1.*
...*.-***..0100.--1..1-..*1...-..*....
*1-.*-0-*.-..*1-..-*-.1*1.....*1*.--.*
*1...--11...0..-1*--.1--..*-..*-*..---
-.**.....-.**...-..---*.*-..1.*..-..0*
*-1*.1.*1.--...*1..1-.**--.*-***1.0*..
-**0.*.**.*....-.-.0-*1-11.-0-..*-...-
*--*..-**0-..***-.-0..-.--.-0.*1-.-..*
.*1....0.0--*1-1-..-.-0.-0-.**.*.--.-*
--..-*-.-.1*0--*-1--.-1.1.*.-*...1-1..
1*--*1..--*11-1*.*-..0*....*-*...*...*
-*-01..*-0.-0*-**-.11.-01--....*.*0**-
-.-.***-....***-*.--10**.-*.*1*-----0.

Generation = 9, Population = 236.
1-*0**-0*-..-...01...0-1..---1-*1-....
.--...****.-.**.*-**....1*.-.**-.-1-*.
....**-.1*01--.....**.0*..-.-.*1**0-..
..**.1*.**.1---.-1-**--...*..*-..**.*.
*-0..-1-.*-*..-1.*-.1****.*...*-**--..
*-.*.--*-..*1..1*.10.-01**.0..*0*..-1-
-..**.*..-.**..*-*.0--*..1.*-...*-.*1.
.0*..*.*-*10....*..*0...11.*-.*.-*1**.
1..1...........-*-*--*-0**.-1-..*0...0
*11**.0..--.**.*0.11**-*1-.0-.*--.-...
.**...*1.1--.-1-1..1.11*---**..**1-.1.
0-*.-*1.-*-.1--*-*1-.--.-***-*..**--*.
**0-.-*.--.**1*..*0.*1*.**..-.*..*....
-*-1*...--*-1.-..-.*-.1-*00*....**-**-
-.-****-....*.*0*.----***0...-*--00-1.

Generation = 10, Population = 229.
--.-**0-.-..-..*-**..---*.--0*1**1....
.-1........1...**1**.*..*..-.*.0.-*-..
...**.1.*.--11...*...*1***1.-..-*.11..
.***.-*....-1--.1*-..--.**...*0....*..
.-1.*-*-.*-*..1*.*-.-.....**.**1..--..
.1***-1*1...-.**..*-.-1*...1..*-...-*1
1*.******0.....*-*.--1*..-.*1.*.*-..**
.1*..**.-.--*..**..*1**.-*.*-..*1.-..*
*..*.**...***..-*-*01*--...1-0.**-.**-
***.**1*.0-..**.1.-*..1.--*10*.--.-...
....*..***0-*---*..*.--*-0-..***.-0.*.
1-.*0**.1.1**-0*1.--.--.-*.*1**...11..
*.--*-*.-0*..-*.**-.*-*.....-..*...**.
-*0-..*.-0.0-.-.*0**-.-0.--....**.0**1
-.1*.*.0...*.*.-..-0-0*..-...1.1--11*.

Generation = 11, Population = 204.
--.0.*10.-..-..*0..*.0-1..-11*-***....
.1-...**...-*.**.-.***.....-**.1.-*-..
.*..****..---*.*....**-...*.-*.-.*--..
.*...1*....-*-0***1..11....***-...**..
.1-.*-*-*.-..*-..*-.-..*****...*..-1*.
*-...1*.-.*.-....**0.--*...-...-...0*-
*........1......1**0--...1.****.*0....
.-......1*1-*..*....*...1..*-*..**-*.*
*..*......***.*-*-*-*.1-...-11.**0..*-
***...*..11..*..-.-..*-.--**-..-1.1.*.
*.*.......-0*---**...--.-1-....*.11...
*1.*-.*.*.*.*--.*.-1.-1.1.*.-.....--..
*.0-*1*.--..*1*...-*.-......0*.***...*
-*--*.**11.11.0**1.*-.1-.--....***-..*
-*-*..*-..*.*..-.*-1-1*..-...-**-0-*.*

Generation = 12, Population = 218.
-0.-.**-.-..0.**1..*.1--..0***-***....
.*1.....*..1.*...-.*.......-...*.1*1..
***.*.....--1....**...-.....0..1.*11..
***..-.....1*-1*.**.*-***....*0...***.
**1.*-.-..0..*-*..1*-..*****......-*..
*-...***1*..-......-.-1*...-.**0*.*-*1
........**.*....*..---..*-**.****-.*..
.-......*.-0**.*....**..-.**-.....-.*.
*.*.....*...*.*0.-.-*.-0..*1*-**.-..*-
*.**.....*-..*.*-.1..*-.--**-.*1*.*...
...*...*..01*--1**...11.--1*....**-*..
**.*-.**.....-0***1*.1-.-*..1.**..1-..
*.-0*-..-0*..-*..*0**-.*....1.**.*....
-*--*...-****.-**-.*1**0.--..*....0..*
0.-..**-***.**.0.*-*-**..-...1**11-.*.

Generation = 13, Population = 207.
11*-...0.-..-****...*-0-..1**.-*.*....
..-*.*.....-.****1.**......0.*.*.*.-..
..........-1*.*.**....1*....-*.*..-*..
.....-.....**0**.....-*...****1..*..*.
..-*.-*1**-***1***-*-*...**.*....*0..*
*-...****...-......0.1*....-.*.1***-**
......*....*.......-01**.-**.*..*0.*.*
.-.....**.1-.*.**...**..1...-...*.-**.
..**....**.*...1*-.0*.1-.*.-*-*.*-.*.0
..**....**-..*..-*-.**-.-0..-***..**..
*..**.***.1-*--*...*.**.---.**....-*..
**.*-.****...1-...*..*-.1.*.*.*...--..
*.0-*1..0-...1*...1..1.**...*..****...
1*0-*...-...*.-*.1..*..-.--.*.....-...
-.-..*.-*...***1..-*1..*.-...-**-*-...

Generation = 14, Population = 205.
*-*-...-.-..0*...*.**--1..***.1.......
.*-........1.....-***.**..*1.*.*..*1..
..........0-.....**..*-*..*.-..*..1...
.....-.**....1....*..-**.**...*.**.**.
..1..-.*.*-*..*.*.-.-*...**....*..-..*
.1...*...***1****.*1.*.*.*.1.***...0.*
.....*...*.........---.*.1..*.*..-...*
.-.....**.-0*.***.......-***1*..*.1*.*
..**........*..-.-.1..-0**.1.1*.*0...-
.*........-**.**-.1...1.11..0..*..**..
*...***...--*11...**..*.111**..*..-*..
*...0.......**-...**.*-.**..*.****11..
..10***.1-..*-*..*********..*..***....
-.--*...-...*.0**-*.***-*--..**...0...
0*1....0....***-*.0*-....-...1..-.1...

Generation = 15, Population = 176.
.1.0...-.-..1.......*1-*..*.**-.......
.*-........-*....1.....***.-.*.*..**..
..........--.....*..**-.....-..*..*.*.
.....-.****..-....*..1.*...*..*.*****.
..-..1**.*0*....*.-*1*.*...*.*....-*.*
.-....*..*.*-**.**.**....*.-**.*...-.*
......*..*.......*.0-1*..-.......-**.*
.-......*.11**.*.......*-...*...*.*.*.
..*............-*-.-..-1...*.-*.*1..*0
.*****....1*..**1.*...*.**..1..*.***..
**..**....--.*-*.*..***.*--.*.....1.*.
.*..-..*...*..0.......1.....*.*...--..
..*-....-0.**1*.*...........*......*..
1.--*.**1..**.1.*1.....0*--.*****.1...
1**....-....*.*1*.-*-*...-...**.-.*...

*** Life<Cell> 47x17 ***

Generation = 0, Population = 301.
00-----0----0--0-
-0-00-00---------
---00---0-00-00-0
--0----0----0---0
00-0--0---0---00-
---0--0000---0--0
00-00-----0--0-0-
-----000---0-000-
--0-00-00-0---0-0
-0---0-0-0----0-0
---00---0----0-00
000-00----0-000-0
-0-----0-0-0--0--
-----0---0--0---0
-0-0-0-0--00-0---
----0---00-0--00-
------0---00000-0
--0---0-0--0-----
-----0-00-----0--
00-0---0---0--0--
-----0--0-00---0-
--0--------00---0
----0-000-0-0-00-
0-----000----0-0-
----00-0---00--0-
------0-0000-00--
00-0-0--0-000--0-
000---0000---00-0
-0------000------
-----0-00--00---0
--000-00--------0
000--0-----0000-0
-00--00-0-------0
0--00---00------0
------0--0-------
--0--0--0-0000-00
00000--0--0----00
000--0--------00-
--0-0---0-0--0-0-
0-000----00--000-
000-----000000--0
--0------00-0-0--
0-0-0---0--0000--
0-00-----0-------
----0-00---00-0--
0-0-00-0------0-0
-00----00--0-----

Generation = 5, Population = 370.
.0**1**..0-*--0-1
-.1---.-0*--100-*
1.0---..---*..*-*
*--1010-10001-00-
.--....--1*.-*..*
-1.-.11-..--..-*-
-..1.0-1-01-1*-1-
-.---*11-0*0-1.-*
1.--..-*-.-0--01.
*1-0*.1.0.**--..1
0-0-0-0-110-1.0*-
.*1001-1-*1-.10.1
0*----*-1-.0.01-*
-111-.0*.**---010
0----*.-...1-*0-.
-0-*--.1.**0000--
0.--------.01-.--
*.0.1-.*--..-.01-
-101-1*-.-1-0*.--
**0*01**1**-0.--1
1--*..0--1-.1--.1
*.------*1.---*.1
--*-*--.--1-.-.10
1-1-1-*0-----**--
-10-.-0.00-11--.*
0-10---**-.--*.01
00**-1.00*1*-0*--
1-.00*--1---*.1.-
*.*--.-1*1-**---.
100*0-1-1.*...01.
1.---*-*1-----*--
*1*0-*-0--1*----0
*--*-0.*.1100-**-
----1*-.---*-10-.
.-1--.1**--*-0-.1
*1.-01-.-1001----
**0-.--1*0.-.**.-
-..1-111----*..1-
---11-1--..-0-*10
**1*.00-.-.*-.00-
1-.---1*.*1-*-*00
--1--1-*.0-0-**-*
*1101-.*0*-**10.0
*1-.0*-1-**1001-1
.-.*--...*.-*11*.
-1.*-..1*-0*.0.--
0*****-0.-1-*1--0

Generation = 10, Population = 351.
.*.*-.**.*-*-**-.
*..10*.-.*-*.0*-.
*.-*-...--1....0.
*.1*-1*1*-.1.0-1*
**.*.*.--.....***
*1**.*.*.*--.*-.1
-..*..-.0*....-.-
..1-*.**--.1..*1.
.**-.*.**.--.-**.
.*1*...*1...-0..*
..--00*.-..--.-**
.*.-1..*..*-.-*.*
*...*-.-...0.-..*
*.-...0....-01.-1
1-.11..1.*.*0..1*
*1**...*...1-.*.*
-.0--*-0-**-...1-
**...-.*1-..*..**
*.-*-*.-...**..1*
..*.1*.*...-**.**
.0..*.**.**..**.-
.*1**-.-.-**0...-
--*-*.*.*11-**...
-0.-*-.*.01.**.*.
*.-1....1.1*.10..
*1*---*...*....1-
*-.*1**01*-..-*-1
.0*0-.1*--*1*..*-
...*0*-.*.*.*0...
.1**-1-.-...*.-**
-*0-*....**110**-
***-1*-*1-.*--*-0
.11..0....*-*1...
.10-..-..**.-***.
.*1..*...-**-1-*1
...-**....-**1-1-
*.*1.011**.-*...1
*.*.**.*.---.*..-
-.-*.1**0**-1*.*.
*.*.**.*.0.*.*..1
*-..1*-***.-.**1.
--.0111*.-.*-*.-.
...1*.*.-*.*.*..-
.1*.1.**-**.11...
.-..-1...*.**.*.*
1...***..10**0*.*
..***.-..*.0.-*1*

Generation = 15, Population = 277.
**..-****.1.1....
*.*.0.*-..*..1*-.
*..**...-1-....-.
.*..*-**.-...0**.
....*....*.*.*...
....*..*..*-..-..
**.*...*-..*..1*-
**.-..*.--.1*.*1.
.*.*..**..--.-*..
...*.**.*...--...
..-*--*.**.1..0..
*..-......*1.**..
.......-*..1.****
.*-.**-....01..**
1*.*.**.*...*....
....***..*..**...
-.*-..-10..-.*...
.*...-*.......***
*.1**..-*.**...**
**...*....*-...*.
.1.*.....*......1
.*....*.*-*.-*..*
*1.*.....***.*.*.
***1..**.0.......
..-.**.*.....-**.
*-*.**.**.....**1
.**.*.*1*.*..*.0-
**..*.-.--.*..*.-
*.*.-.1.......*..
.**.*.*...*.**-..
-.......*.*..-..-
.***-.1*.-**...00
.*..*......1.-.**
.*.-..*..**.-...*
..*.**..*1*.--***
...-....***..*..-
...***-**..1.*..-
...*.*.*.110....*
1......*-*.**....
*......*.-.**...-
...*.**...*1.....
--.-.****-..**...
*..*......*..**.0
*..*****...*--..*
**......*..**..*.
1**....*..-*.0...
..*...**.....-.-.

*** Life<Cell> 29x18 ***

Generation = 0, Population = 185.
-00----0-0---0--0-
----0-0-0--0-----0
----0--0-00-00000-
------000-0--0----
-0-0--00-0------00
-00---0-0--0-0----
-0--0-0-0--0--0-0-
--------00----0-0-
-0---0-0-0----00--
-00--000-00-00-0--
00-0-0-00-00------
0---0-00--000-0-0-
-0-0--0-00--0-----
--0--0---0-0--0---
-0---0--00---0--0-
---0-------0--0--0
-----00-00-----0-0
-----0---0-00--0-0
0----00----0-0--0-
----0--0----00----
0-0-----0--------0
--------00----00--
00--0--0---00-0---
-00--00-0-0-----00
---0000--00-0-000-
--------------0-0-
---00-0--000-00---
00----0---00-0--00
00--0000----00-0--

Generation = 1, Population = 250.
01100---0-000-00--
-0001----0----000-
---01001-1-011--1-
-0-000--1-10-1-0-0
010-001----0---011
011-00-01-01-----0
01-0--1---010-1-10
----000---00-0-010
01--01010---0-----
-11-01-10--011010-
--0-01-1101-00000-
10-0-0--0--1-----0
--0---101--010--0-
-0--01--0------00-
0--001001-0-0-00--
-00-0-0---0-0----1
---00-1-1-0-0--1--
0---0-0--1--1-0101
-0----1--001-10---
--00--------1-0-00
---00---1---00000-
-00-0----10000-100
1--0----00-11-1-00
--1-0--0-01------1
-0-1-1-0-1------1-
-----0-----00--010
00011-10011----0-0
--00--------0---11
--001-110-0-1----0

Generation = 2, Population = 256.
1**1-0-0-01-1-----
--1-*-00-1-----1-0
---1-1-*0*0----0*-
-10--10--0*10*-1-1
---01-*---0-000--*
1--0---1*--*--000-
--0-00*-001-10-0-1
-----11-00----01*-
1--01-1*-000100--0
----1*0*1--1-*1*-0
0010-*----*--111--
*1--01-0---*0-000-
00--00*-*00--10-1-
------00-000-0---0
-0-1-*1---1-1-1--0
-11--0---0---00-0-
00-11----01--0-*--
----1--0-*0-*0-*-*
---000*00--*-*1---
--1---0-000-*--0-1
-00--0-0--0-111110
-11-10--0--1------
--0-0---11---0-0-1
0-----0101*-0-0-0*
0-0-0*-1-*-00---*0
0-0--1--0--1100-*-
1-1**0*---*---01--
0-110----0-010--**
-0-1*-*-1---*0---1

Generation = 3, Population = 263.
****0-01--*--0-0-0
0-*-.-110-0-0-0*0-
-00-1*-.-.--1101.0
0*10------.-1.0*0*
01--*0*-0-1--1-0-*
-1-1000**-0.00-110
01-011.011*1*1----
0-000-*0-100-0-*.0
-101--*.---1-110-1
-110-.1.*-0*1.-.-1
-1-1-.--10*0---*-0
.*---*0--00*1-11-0
--00-1.-.1-0---0*-
0--001110--1010--1
010--*---0*0--*0-1
-**0-1--010----0--
1-0*---011-0--0*-0
00-0---10.-0.10*-.
---11-.1-00.-.*0--
--*-001----0.0010*
0-10-10-1-10---*--
0-*---0-1-----0-0-
1-1-1-0-*--1--1-0*
10----1*1-.010-0-.
--1-1*0*-.0-1--0.-
----0-------*--0*-
--*..1*00-*0-0-*00
10--1-----01*---**
--0-*-.-----.-0--*

Generation = 4, Population = 249.
*.**1----0.0--010-
1-.-.--*1-1-1--.10
0-11**-*0.00*--*.1
-.*10-0-1-.1*.-.-*
-*-0.1.01-*00*0--.
1-----1..0-.-1----
--01--.1**.*.*1-1-
1----1.-0-110-0*.1
---*-1*.000-1-----
0**11.*.*0-.**1*0-
0-1*0*-1-1.10--*--
.*--0*10-11.*-**01
0-1-0-.0.*0-110-.0
1-0-----10-*---0-*
-*-1-.-01-.---.--*
0..--*0----0--0-0-
*--.101---110--.--
-10---0*-.-1**-.0.
00----.*011*-..1-0
00*--1--0001*11--.
1-*10-1-*-*-111.10
--*-1----10--0111-
-0*----0*10*--*0-*
-11---*.-1*-*101-.
0----.1.-.-0--0-.-
---011--0---*-01.-
1-.****-1-*----.--
*111*-0000-**-0-..
0---.0.---00.0-0-*

Generation = 5, Population = 217.
.*.**0-1--*--01---
-0.-.01*-1*-*00.--
1--*.*0.1.-1.10..-
0..------0.*..0.0.
-*01.-.1-0*11.10-.
--1----..1-.--0-1-
-11*11**...*..-0--
-00-0*.----*-0-**-
-1-*1-*.11-1----01
-..--....1-...-*11
1--.-.-*1-.*1-1.00
*.0-1.-1-*-..0..--
10*-1-.1..-0---0.-
*01-0--1--0*-1---*
0*0-0.-1--*---.0-*
1*.0-.--0--1-0----
*-0.*1*--1*---0*--
0-101--.-.0*.*0.-.
-10--0..1**.0..-0-
11.-----11-*.*--0*
*0.--1--*-.0--*.-1
0-.0*0001-1----*-0
1-.01--1.--.-0.10.
---0-0*.--.-*---0.
--111.**0*--1--0.-
--0-*-00100-.--*.-
*-.....0-1*----*--
*--*.---11-.*0--..
1-01*-*11-1-.-0--.

Generation = 6, Population = 246.
..*.*-0*0-*0---1--
-1.-.1*.1**0.-1*--
*-1.**-.-.-*.-1..-
1..--100-1....-.-.
-*1*.-.--1.**.*11.
-1-1001*.*-.011--0
0--.***...*.*.-11-
11--1..0011*---*.-
1*0*-1..*--*11-01-
0..11....*0**.-.-*
*11.0.0**1*.*1-.--
*.1-*.1-0.1*.-**01
*1.--1*-..-11-0-.0
.-*--11-10-*--0-0.
1.-11.1*-0*0--*--.
*..-0.0---0------1
*01..-.0-*.1-0-*0-
11*--00.0.1.**-.0.
0-----..-...-.*11-
-*.----0*-0*.*-1-*
.-*1-*--.-.11-**--
--*-.1-1-----0-*11
*0*1-00**-0.--*--*
1----1..11.0*--11.
-0-*-...1.-0*001*-
0010*---*--1.-0**-
.0.*..*1-*.0000.0-
*1-**-00--0*.1-0..
*-1**-.--0-0.--0-.

Generation = 7, Population = 232.
.....0-.-0.-1--*0-
--*-.-..-..1*0-*1-
*0-.*.0.1.-*.1**.-
*..1---1-*.***-.0.
-*-*.-.-1-.**.*-*.
-*1-11****-.1--11-
11-.........*.--*-
*---*..11-*.000..-
*.-.--.*.10.**--*-
-..--.*...1...-.-.
*--.-.-..*...*-*0-
..*-*.-11.-..-**--
***---.1*.-**---.1
*-*---*1*-0.-1---.
**-*-.*.1-.-10.00.
*.*-1.10-111-000--
.1-*.1.-1*.-01-*--
***0111*-*-***-.-*
110--0*.-.*.0..*--
-**0-111.-1*.*--0.
.-**-.1-*-*-*-..--
0-.0.-0*--11---.--
*-**-1-..1-*1-*10*
*11-0*..**.-.-0--*
011*-..*-.01.-1-.0
1---*10-*-0-.01..0
.-....*-1*.1-1-.10
*-1..---111..*01*.
*0*.*0.11-11*0010.

Generation = 8, Population = 227.
.....-0.0-.-*-1*-0
1-.0.1..1.*-.-1.-0
*1-*..-*-.0..*...-
*..*-----*....0.1.
-*1*.1.1*1....*1**
-.*1*-****0.-1-**0
---**.......*.1-*1
*--0...-*1*.111*.-
..-.1-**.*1.*.-0.1
-..--...*.****-*-.
.11.0.0***....1*10
*.*-..1--*-.*-**-1
*.*01-.*..-**-00.-
.-.--1**.--.0*000.
*.-*-...*-.-*1.-1.
*..--.-1---*-1-1--
.*-..*.0*..1-*0*00
...1--**0*1...0.0.
--11-1..-*..1.*.-0
-..----*.1*..*1--.
.-..0.--*-.-*-..1-
11.-.--*----0-1*11
*0..1*-*.*0**-*--*
.**-1**.**.-*1---*
1**.1..*1.-*.--1*-
*-1-*--0*011.--*.-
.-....*-*..---0.--
*1**.00-**-...1*..
*-**.1.*-0--*11*-.

Generation = 9, Population = 207.
.....--*10.0.--*-1
*-*1*-*.*..1.-**11
**-*..0.-.1..***.1
*..*01---**..*1.**
-**..-.-.*...*.*..
-*.-.1*...1.---..1
1--..*......*.*-.-
.101.*.-***.*-*..-
..-.--.*..*...--.-
-..--.......**1.-*
.*-*-*-.......-.--
*..-*.*1-*1**-..0*
..*-*-.**.0*.111.1
.-*--****--.1.11-.
..0.1...*0.-.*.0*.
**.0-.1*0-1*0-0*01
..1....1...*-*1.11
...*11..1.***.-.1.
-1*---..-..*-.*.--
-..0011..-***.-10.
.0..-.-0*-.1*-..*-
--.-*10*-11----.*-
.1.*-.0*.*-..0*--*
...-*......0.*-1-*
-...-...*.-*.01-*-
*0*-.1--.---.--**-
*0..*.*1...1-11.--
*-.*.--0.*1...*...
*0.*.*.*1111.-**0.

Generation = 10, Population = 210.
...*.--**1*1.--*0*
*1***-*.*..**-..-*
*.1...1*1.***....-
*..*-*--1**.*.-..*
-***.-*-.*...*.*.*
-**-.-*...-.111..-
-11..*....*....1.1
.*-**.*-***..-...-
..0.-1..*.*.*.--.1
-..1-........**.1.
..-.0*-...*...1.1-
.**-*.*-1**.*-**1*
.*.-*-....-..**-.*
.0*00**..-0*-.-*-.
..1.-....1*0...1.*
.*.--.*.-1**1--.--
.*-..*.*....-.-.*-
.*.*-*..-.*...-.**
1**1--*.1*..1*..--
-*.1--**.1*..*-*-.
.-.*-.1-*-.-*1..*1
--*-*-1.1-*-001**-
.-.*1.-*.*-.*-*--*
...-...**.*1..--1*
1*..1.....0..-*-.-
*1*0.--0.---.-1.*0
.-.****-*.*--*-.1-
.1.*.0--..-.*.....
*1*.*.**-***.1**1.

Generation = 11, Population = 224.
.*.**--**-*-*-1.-*
*-..*-*......0..-*
*.*...-.*....*...-
*..*-*0--...**-.*.
-..**-*1****....*.
1..-.-*...1.****.-
1*-.****..**.**-.-
.*-**.*-*.*..-..*-
..-.--.**.**.*1-.-
-..--*...*.*.**.**
..1.-*-...**..-.--
.**-*..-****.0..**
*..-.-**..-.**.1.*
.-.-1*...--*1.-*0.
..*.1.*..-.1...**.
.**--.*.0-..*1-.01
**1.**...*..0.-.*-
...*-*.*1*....-.**
*..*1-*.*..****.10
-*.-01*..-**..-.-.
.0.*-.-0*-*1.*...*
-1*-*-*.*1.-11*..1
.-.*-*-...0.*0*-0*
...0*..**.**.*-1**
-..*-..***1*.0.1.-
**.-.1--.---.-*.*1
*-...**1...1-*-**-
**...100*.-.*...*.
*******.-.*******.

Generation = 12, Population = 223.
...**0-*.-.-.0-.0.
*-*.*-..**..*1*.1.
*..**.-*.....**..1
.***0*---.****1...
-..**1.-***.....*.
**.1.-....-....*.-
-*1**.....*....-.-
**-**..-*....-.*.1
..-.11***..*.*-0*1
-..-1.*.**...***..
.***-*0.*....*1*--
.**-.**-**...1*.**
.*.-*-****0..*.*.*
.-.0-..*.-0*-*1.-*
.**.*.**.-.*.**...
*..0-.**--.***0.1*
*.-.**...*..1*-*.1
*...-..*****..0...
..**--..*..***.*--
-*.1--*.*1....1.0*
*-.*0.11*0.-.**...
1-.-*1*.**.---.*.-
.1..-*-...1..-.1-.
..*1..**......0-.*
1.**-.**..**.1.*.-
**.0**--.01-.0...*
.0..*..-*..-0*1..-
...*.*-1*.1......*
*.***...1..******.

Generation = 13, Population = 198.
...**1-.*1.-*1-*1.
.-*..-***...*-..**
*.....1.***......-
.*..-.011.***.-*..
0....-.1.**.****..
**.-.1....-......-
1.-............-*1
**0...*-**...1**.*
..-.*-*.....**11.-
-.*-*....*........
.*.*0.1.....*.-.-0
*..-...1..*.**...*
.*.-*1....-*...*.*
.-.-1....--*-.-*0.
.**.**..*-......**
*.*-1..*01**..-.**
**-.**...*..-.-*.*
.*.*1..*......-**.
.***1-.....***.*-0
-*.--1*..-*...*.1.
*-**-.*-.1*-.**.*.
*-.-.*....*--1.*.-
.-**-.0.**-..-**0.
...-**.*..**..-1*.
*...-..*******..*-
*..-.*-0*1--.-....
*1....*-*.*11**..-
.*...*-**.-.....*.
..***..***.******.

Generation = 14, Population = 203.
...***-.**.1**-*-*
.1.**-*...***-.***
.*...*-...*.*...*1
**..-.-*-...*.-*..
1....1.*.**.****..
**.-.-....1..****1
-.1...........*-*-
**1..*.-....*-...*
..-..-.***..*.*-*1
-.*1*.......*.*...
.***-*-....***-.11
***0..*-....**...*
...0**....-*..**.*
.-*0-....-0.1.1*-.
.**.**.**-.*......
*.*--.**1**...-*..
*.-..***.*..-.1*.*
....*.......*.0*.*
**..--*....***..--
-..--**..-*.....**
*0*.0.*1.**1.*..*.
.1.-*****.*11*...-
.1.*-.-***1*.-..-.
...-**.......*--.*
....1*......*..**0
*..-..0-.-1-.-*...
*-...*.-..*--*...-
**.***0...1.....*.
..***.**.*..*****.

Generation = 15, Population = 178.
..**.*-..*.-.*-*1*
.*.*.-*......-**..
.*..**-...*.**...-
**..-.0.1**.*.-*..
-....-*.***.*.....
**.-.1...****....*
-.*...........*1.1
.*-....1*....1...*
..-.*1..*..**..-*-
-*.**...*.....*...
*...0*-....*..-.*-
*..1..*1.......*.*
...1.*....-*...*..
.-.-1.*..0-.-*-*0.
....**...-.*..**..
*.*01...*.*...-**.
.*1..*...**.1*-...
**.....*...**.-*..
....1-*....*****1-
-.*--....-...*..**
*1**1..-...-.*..**
.-.-*......--*...-
.***1.-...*..-..-.
...-.**.*****.01.*
....-.*......****-
...-*.-0.1*1.-***.
*-.....-.**11....-
**....-*.****...*.
.**...**.....****.

Generation = 16, Population = 169.
..***.-....-..1*-.
.*.*.1*.....*1.*..
.*..**1*..*.**.*.-
**..0.1.-...*.1...
-....-*.....**....
.*.-.-..*...**..*.
1.*.....********.-
..-....**...*-**.*
..-***..**..**.1.-
-..*.......**..*..
***.-*-*......1**-
...*..**.......*..
...*.*.*..0....*..
.-.-*.*..-0.1.1.1.
.........1*.......
..*--.....*.**-**.
..-.*...***.-*1**.
***..**.......-**.
.*..--.....*....--
1.*--*...-........
.-*.-..-...-***.**
*-.0.*.....-1....1
..**-.0...*.*0*.-.
..*1****.****.--..
....1.*..........-
...0..--*-.-.-..*.
*-.....-...--*..*-
*.*...-*.*....*.*.
***...***.*******.

Generation = 17, Population = 178.
..****0....-.***1.
.*...-.*...**-.**.
.*.*..-*.......*.-
**..1.-.-.....-...
1*...1.*...*..*...
.*.-.-.**.*....*..
-*........*......1
..1**..*.....-....
..0**..***.....-.1
0*.*.**.*..**.....
.***0.1*......*.*1
.*.*.*.**.........
...*.*.*..1*..***.
.-.-***..--.-.-*-.
.........**.*.*.*.
...01...*...**0.*.
..-*.*...***-*-..*
***..*...**...-.*.
....--*.........1-
-.*10....-..**....
.1**-..-...1**..**
.1.1*......1-..***
.*..-.1*.**..-..-.
..**...*.**.*.0-..
..*.*.*.****.....-
...-..00.1.-.0....
.1.....1*..-1...*0
*.*...-*.***....**
*.*...*********.*.

*** Life<Cell> 17x36 ***

Generation = 0, Population = 187.
00---0--0--00-0--0--0--0-0-0---0----
--000--------0-0---0-0---------00---
-00000-0-0--0--0--0---0-----00---0--
-----00--0----00------0---0---0-----
-0--------0--0----00---0-----0-000--
0----0----0--000-0--0---------00--0-
---------------0-----0------00----0-
--00-------000---0-----00-----0---0-
-------00--------00-----0---00-----0
-0-000--000---000---0------000--0---
00--0--0-0-----0------0---0--0--0---
0---0--0--0-00--00------00--0--0--0-
---0-00---0--0--00--00-00---000--0--
-0----------0-----00-0---0--0---0--0
0----00-0000---000--0---00--0-00--0-
---0----0-00---0---0---0---0------0-
-00---000---0-----0----0-00-----0---

Generation = 4, Population = 295.
---.0---0-1*.---.-0---0-1---*0-.1--0
..-*-0001*0.--.*-1--00-.-1-1010-1-*0
1**1.-.00*-1*1-1.0*0*1*0*-11-*00*000
-01110---1--.-.--0-.-.101----1------
1-----10-0-.1-10-0.1*-*-0--0---1-*10
----001-01-0-----10-0--*0-*-11*0-0.-
0-11-0----*01----110----.-***-*--.0-
---.1*-1.-..1-1--.-*11.-0.-*-*-.-0*1
-1---11.--.0011.01*1--1--0----*-.-0-
-.-***110--11..1**---1.0---...1--101
0000-11-1*-0-1--1.*10.0-110-11-0-1*-
.1-0.-*-0-**--10*--11-*-1*0-*0--*-01
0-----.1--.-.*1-0*--*0-.00-*-----10.
---0*01-.10------1--*.-*1.*0---*-*--
0*1--**-0-1*1-*-*-0.-*0-.0.**-1-0--0
1011-1*0**---10110-0---*--1-*-1---*-
1.**1-.0-11-*0**0*-0---11*.-0-1.-10-

Generation = 8, Population = 286.
--1*001-.*1..11-*.-..0*-1-*1.--..11.
.*1.-*--..0.-..*0*11--0.-..-..11-.*.
...*.*.-1*1*****..*1...*.-.1*.-0.01-
-0.*1..*--**.-.*10-.*....-1-0.0-10*-
-**0*1--11-***.*-0****.-----****-*-*
1-01*1*..-*..0....01*0-*-*.**-.--**1
--*.-*1111*--1*10-.--*--.*.*.1.00**1
-1-.**-*.*.*11.0-...*...-*0.-*1*.-..
11--..-*0-.--**.-.***-*--0--0-..*---
-.1..*-10*-.1.....*00-**-0...*.-.1-.
-1-.-1..**-0*10*.***-.-..*0*1*1--1.0
.*0..-..**.*.0*1*0--..*-..-0*0--.0.*
0-**.1.---.*.*--**--..-*.--.1--***-*
.0-1*1.0..-1-.-**.--..1*1..-10-*0.-1
**.1..**1-*..1.1..1.*.-1.-*.*-*.--*0
..1-11.-.*--**-.-1.1101.-*--**10--.1
...**-*-11.*.**.**0-011-1..-11..**--

*** Life<Cell> 38x41 ***

Generation = 0, Population = 367.
---0------0-0---------00----0-----0--0--0
-----0---------0----00-0-0----00-----0--0
---0--0--------0--000-0-----0-----0-0----
-0-0-00--0---00--------0-0--0--00--0000--
0----00---------0----00--------0-0--0----
-----0----------00----0------0-------00--
0-------000---0----0--0-------------0----
--0-------00--0-0----0------------00--0-0
--0-0-000-0--0----0---00----0-0--------00
0--00---0-0---0--------0--00-----00------
----00-----0--0-0-00-------0--00----0----
---00------0-00---0--0----00--00------0--
--0----0-0------0----0-------00000----0--
-----0---0---0-0---00-0---------0--0-0---
-0------------0---00-0------0--0--0----0-
----0-0----------------------0-0-0------0
-0-------000---------------------0-0---0-
--0------0-0---0---------0--00--0--------
-0-0----0---------0----0-00-----0-0------
-------0-0----------------0-------0----0-
--0--00-0----------0-------0-----0-0-----
0-0--0---0---0---0--0-------00-0-0--0-00-
-0---0-------00-0------0--00-0-0---------
-0----0------0---0----0--0--00-------0--0
----0-0-0-------------0-0-0000----0-0--0-
----------0-----0-----------0------0-----
--00----0-0----------------00---0--0-----
--0---0--0---00---00-----0---0----0------
-------0-000--0---0--00-----0-0----0-----
---------------0---00--0---00----0-000-00
------------00--0-0----0----00-0--00---0-
------0---0----0--00--0--0------00--0---0
00-00---000-0--------0-----0------0---0--
--0-----------0---0000-0--0-------0-0----
-----00-------0-0------00-0-------0--0---
---0--0--------0---0-0-0----0--0------0--
---0--0-------0---00--------------00-----
----------0--0------------00-0----0---0--

Generation = 4, Population = 692.
1--0-1010-----0*----0--01-*00-1-0-1--*1-1
-0----0--0-0--*1--1--.*.--1-1--.0*10-.01.
**0*-0.-*1000*-101.0-0*.--*0.110--11**.-.
------*0.-01.11-10-0--.-0--.-0-*-01.--110
-1*0.-01110--1-.-1--1----011-.1.1-1--1-10
1*-11*--01*-001*--1.---.---*.-11-0--1.1.-
--10*-----1*01--0-*-.-11--11*-**0-.--1--*
001--*00-*.10-*1-1-*00.0--000--1*-.*-1-11
10.-*-11--111----000-0*01--0-10.---0---1-
*-0..-1-.-*-101110*-0--1*-**---0.1.--0---
---1.1-*.---*-*-----11-.---00.--0-100--**
0--.0-0-*--.---10-*---*0-..---1-100--**-0
010-10-0-.0-1----0..1.-0---01.-*..--00---
101101--0-0--11-111-.---00-*-.-1--*-1--1-
---*0---0-*0---0*.10.-1-0-*----.-*1-0-10-
0-10*--00001-*0---1.-1---*---10*0.-000-0-
-0---1--10-*-**10--*-0-----1.00-*.---10--
--1--100--1.01---0---01-01--*.00*-01-01.-
-1.-1--0---.110-0-1.---0--1-.1-1.-.00-01-
-1-1010----1-----*-------0--*--00**1-010-
*-*--*..1--11.-1------1-1-1*----.*101*---
0.*-10---0010.11-0---0-----..1-1-.-*-1..1
-10-*.------*-*--0-*0-*---..-*-*1-*-.--.-
-*---**0.00-1.---*-*--*-*---1*101---0-10-
0*--*0*0-0-101*-*--10-*-1..*-011---1--*10
0-*--00--1--*000-1-00-*01-.0-0--1--*-0100
01--10-.-.-.------1----1*.1*----0-1*1----
*0*--01--*.---1--.-*-.10-1----1-1*--000--
11---0-*-0-*11-0-1.--*---00**--*0-*-0.0--
--*------..0--00--.1*1-1--11-----0---10-*
--0*-11--1.-*-.--1-1.-*1-**0-*-*-1*--11--
0---.-1-00*0-..----1--0--01----*-.1--*--0
*.-.*-.1.-000*0-10-0-*11-1--*--*.1---.0-1
---*.-0-1-.--01-01*-0----1-100--0.*011-1-
-01.---.-*---0--0--*--1-.-.*.1-0-1*1--0*-
--.---10--*1-1.--00*--0*---1-1---*-00-*--
1*0-.-.0010-*--0-.-0-*01--10--11-.-1---0-
--11--*--0--*--0-11-1-00--.*0----1*-1---0

*** Life<Cell> 15x31 ***

Generation = 0, Population = 182.
000-----0-0-0--0-0-0----000000-
00-----00-0-0----0--0-0-0--0---
-0----00--0000------0----0-000-
-0-0-00----0-0--0-----------0-0
--000000-00----0-0-0--0000---00
-0-0---0-00-0-----00-0-0-----0-
-00-0--0--00---0--0----00--0--0
-----000---0-0-00-000-------00-
-0-----0-0---0-----0------0-0-0
--000-0--0--0---00--000------0-
----00-0-0------------0000-----
0--00-0--0------0-0-0-00---0--0
00-00-----0-0-00---0---0-0-0000
0-00-00---00-0--0--00---00---00
---0000--000-0--00--00--0------

Generation = 2, Population = 248.
0--10--0---0*-1--*--0011-00-0*1
0*0-----00-100011-10*---*10-100
00----00010*-010--0------0-0**-
1*-*10-1---*-*10-0-110111-00*0-
01-00----0-0------1*--*---1--0-
--------00*10-00000----0-1-1-*1
10------1-0-01-*0---11-0*1----0
-010-*0-1-0*--00-00*-1-1--10--1
-001---*--11-----10--11-0100--0
-0*00-0-101--0-----0*---1---000
1-1-**00--101000----00*-0----1-
-0----001*0-101-00-1-----0--00-
**---0-00--1--*--0--100--*0-0*-
*1*-0001---01*00*01-000---110--
1-000------0---10*-00*--*000011

*** Life<Cell> 47x40 ***

Generation = 0, Population = 721.
00-0-----------0-0--00--0--0------0-----
-00000000---00-0-0000--00----0--0--0----
-00---0----0--00000--0----00-0-----0--0-
0-----000-0-00-0--0--------0-0-00-00--0-
-00-----000-------00-000------00---0---0
--00-000-00-0-------0-00--------00-0----
0---0-000-00-0-00----00-0----0---0-----0
0--0-0-0------000-0000---00---00000-0--0
0--00-0-0-0-0-0-00-0-0-0------00-----000
0--000--0000---0-0-0--0-0----0-0-0-0--0-
0-00--00-0---0------0--0------00-000----
--0--0----0-0-----0--00-000---00--00-00-
0---0-0-0-0--0---0--00--00---00-0-0000-0
--0--0--0---00-0----00--00-00------00---
--0-0-000---0-0--0-0---00--0----0------0
00--000-0--0-----0---0--0-0-0------0--0-
00--------00-------0-00-----0000--00--0-
0-0--0--00-00----00----0-0----0-000000-0
----0--00--00----0-000--------0-0--0-0--
0--0---0-00-0-0-0-------0--0000---0-0---
-00------0-0-0--00---0--0------00-0-000-
-0-0-----0000-0-0-0-0000---0-00-0--0--0-
--00-----0-0-0---00-0--0--00---0--------
0-00---00-00---0---0--0-0----0--0----00-
-0-0--0--00----------0--------------0---
-----0--0-0-00--0-0---0----00-0--0--00-0
--0-0-0-------000---0---0-00--0--0----00
0--00---00-0--00-0---0-000-0-0--0-0-00-0
-0------0---00000-0-------------0---00-0
-0-0---0-0---0------0-00--------000--0-0
-0-0---0----0-0------000----------000---
-------0-------00-----00-------000-000-0
00-----0-0-------0--00-0-0-0-0-0--0---00
0-------00-00--0-000-----0---00---0000-0
-00000--00-0---0-0---0---0-000-----00-0-
000--000-0-000-0-000---00---00-----0-0-0
0000-00-----0---0--0000-0--00-00-----0--
---0--0---000-0-00----00-------------0--
00--0--0-00--00--0------0-----0-000-00--
-------0--0-----0--0-----0-0-00-0---00-0
--0---0-0----00-0---0----------00000---0
0000--0-0---0-00---0--0-00-----0-0---00-
-00-0-0----0--00-0---0-0-000-00--0--0-00
0-0----0-00----00--000---000-----0--0--0
0--000---------000-0--0-0--0-00--0-0---0
-----0-00000-0--0--0--000000--0---0-0--0
0---00-000--00----0---000-0----00-------

Generation = 1, Population = 924.
1-01-0000---0001-1---10-100-00--00------
-111--1-10--110-011--001-00-0100-0-10-0-
----0--0----001--11---00001---00----0010
-0---0---0101101------00---1-10-1-11001-
-1---0-0-110-0-0-0-1011-0--0--1-00--0---
0--1011---10---00-0---1------00-1--10---
1000----10-10-0--0000--0--0-0--00--00-01
-001---10--00--11011-1-0-110---1-11-----
-001---01010--1---0-010--00----1--00-11-
-0-1110--111-0--01-1-----0--0----1010-1-
1----0110100--00-00---0-000----1--1100--
-01---000-1--0-----00-10-110--1---110-1-
-0-0----1-1001000--0-1-011-0-1-0----1-0-
00100-0--000--0-0-----0-1---1-0---------
0-1-1---10--10--01----011--10--0-0--0---
---0---010-1--0-010-01--1--01-000--1001-
1---0-0---11----------1-0000--11---1--1-
10-0--0--101-0--0-100-----0-0--0--1---0-
--0---0--0--100--101-10000-00---1-01-100
------010-1-10--10-00--01001-----010100-
--10---00--1--0011---1--10--0-01--10---0
01-10---01--1---1-1--1-----1-11-10----10
0--10--0-1--0--0-1-01-01-01-0---0--0-0--
-0-10--11---000-00-----0-0000-0--0---110
--010---011-00-00-000-0-0--0000-00-01000
-000--00-01-11--1--00--00---1-100100-101
00-010-0-0000--1--00--0-1011--10-1---011
---1-000-1----11-------11101---010----0-
-10-0---10--111110-0000-00-0-0-0---0-1--
0--10-010-0-01000-00-0--0------0----01-1
01-10-0-00-0-0--0----1-10------0-0-1-0--
0--0--0-00--0--11---00-100-0-00--1--1101
-10---0101000----1--1101-1---101--10-011
100000---1--1001-1-1---00-0--11--0-111-1
0-1------1--000---0-0-00-1-111-----1---0
--10-11101--11-10------1---01--0--01010-
-11---1--000--0-10------1001-0110--00-00
---1--1------01---000--10--00--0000---0-
110--0-1-11--1-00100--0----0--1---1--100
000-0--1--10---01-0----------1-0-0-----1
0-1--010100--1-010-0-00-0--0-0--11-1---1
11-1-0--10---01--00----01--0-0-10--0-1-0
0-10--1-00---0-10-0--10-011--11-0-0010--
101--0---11----1-00----0--110---0-0-10--
10-1--0-0--0-00--1----10100--1-0010-0-0-
---00---11-1010-1--10011--1-0-1-0--0-001
-0-01---1---1-0-00---0-1-01----1100-0--0

Generation = 2, Population = 941.
-0---11----0-11*0*--0--0*1------1-000-0-
-**---*--100*-101--00----11--*1-01-*-01-
--0-------0-1-*----0--1--1--001--00011-1
010--10-0-*1*-1-0-000-1-00-*-*10*0*--1--
-*00--0----1010-0-0*--*0-00100--11-0--0-
10---**-00-1-0--1-10--*-0-00-1-0--0-1000
-111-00--10*---00--11--10-10----------1*
-1-*0-0-10-1-00*-1---*01---1--0-0*-000-0
011*-0--*1*1-----01-1*1-01--0-0*001-0*-0
-10--*-00*-*--0-1----0----00-0--0*----*0
-000---*1*--00110-1000101---0---0-*--10-
--*----110-0-10-00--10---**-0--0-0-*10*0
---1----*0*1-*1--0010---*-010---0-0-*-10
-1*1---00-1-0010---0--1----0*0-0-0----0-
10*-*00--1-0*1001---0---*00-10010-0-1-0-
----0--1*-0*-----*1-1*0----1----1-0-1--0
*--0--1-00-*000--0-0------1-00-*---*---0
-10--0-00-1-01-0-0-11--0-01-10-1-0*0----
0----0---10---100-1*-*-11----0---01-0--1
---0-0-*-0-0--0--10-10------0-00-1---1-0
0-*-----1---0-1----0-*0----0-0-*-0---001
-*0*-0-0--0-*000*----*-00----*-0-1----*-
100*1001-*00-----*01*01-----1--0100--10-
--0*100--000111-------010-111010010--**-
-0---000-*--11011011----1-----10-10----1
--110-1-01*0*-00*001-0011-00*0*11---0*-*
1-01-----11----*-01--0--*1*--0-1---00---
0--*----0--0---*-00-000*--1*00-1--00-01-
-*1-1--0---0-*--*10--1101-01-----00-0*-0
10--1---1--0--11101-0------0-00-00-01*--
1*-*---01-0--1-0-000----1--0-0-1-1------
10-1-0-011-01-0*---0-10*1------00*-0*-1-
0--00---1---1-0--*0--*-*-*-00*-*00*--1**
-1---1-0----*11*-*0-00011----*--0-0*--0-
10-00-00--001--00--0--110-0-*--0-0--0--1
0-*1-**--*-----*--0-0--*---1-0-1-01-1--0
0*-0-------1-010-1-00--0---*-1----0--011
0-0-0-*----00----0-110-*---11-0-1---0--0
-*----0*-*--0*0-1----0--0-01---000*00*1-
111--0---0*10-01*-10-0--0---0*0-01-0-0--
--*----1*1--0*0-*----1101001--00---*000-
**-*-10-*1--01*00-----01*--1--0*1---0*-1
----00---1--010-1--00*1----0--*0---1*100
*1-00-0-0-*----*0--0-00100*-100--0-0*---
--0*----10-10----*-00-----1-0-01---01-1-
0-01-000**--1*1-*00*-1**-0---0---00--11-
0----0-0*---*01--100-10*-1-00--**-10---1

Generation = 3, Population = 908.
11--0*-0-0-10**.1*0-1101*----000*0111010
0**1--*01*11.1*1--1--001-**0-.-----.----
00-0-0--0-----*-----00*0----1-*-0111-*1-
1*1-0*----**.1--1---1--0110.-.*-.-.1-*-0
0.1100-0-1-*1*----1.-1*1--1--1-0-----01-
*10-0..-1-1-01-----1-0*-10110*-----1*---
-*--0-101*-*0-------*-0----100000000-0-.
---.1-1--1---1-*1*-10.1-01-*-011-.111-0-
1-*.01--.-.*00-0--*-*.-01*-0-0-.--*0-.1-
-*111.---.1*--10*--10-00--11----1.0-00.-
1--1001.-.0011--10*-1---*---1---1-*---10
--.0--0--1110*10--00*--00.*0-01----.*1.-
-00*0--0.1.-0.*----*--00.1-*1--0---0*0*-
--.--0-1--*------0-100-0-00-.-01--0--0--
*1.0*-101---.*11*-0-1--1.-1--1-*-01-*-1-
-00-1-0*.-1.0--0-**0-*10100-1-00*-11*0-1
.-------11-.111-0-010010--*0---*-00.--11
1*1-0101--*1---1011**-0101---1-*--.-----
--000-0-----1--11--.-*--*-0-01--11-1--0*
-----1-.011--0---*--*1-01-----1------*0-
-0.0---0--0-10--11--0.1-1-0-010*--1-0-1-
0.-.0101--10*-1-*-1--.-110-1-*--1----0.-
*1-.*-1--.--0--0-*--*1-1--1-*0-1*--00-10
00-.*-111111**--0---0-----*-*-*-1-100*.-
0-0-0--10.10**-**1*-00-0-0---0*1---01--*
0--*10*01-.-*1--.-------*0--*1.-*-0--*-.
*--*--0-0--00--.01*---00.-.10-1------011
1-0.-------1001*011-1-1.1-*.---*1-----*-
0.*0*00-1-0--.-1.-100-*1*--*--00-----.0-
-1--*0-1*0-101***-*0--00------101101**01
*.-*-00-*0-0----0-1--10-*001-10*--0--00-
*---0----*01-0-*1-01---.----0-011.01*1*-
110-10-1*----0-00*---.-.-*-1-*-.-1.0-*.*
1*0-0-01--0-.-*.0.-1111---000*101--*--11
--1-1---0-1----11-0-0------1*101010-10-*
--.*0**-0.--11-.----10-.---*11-*----*---
1.-1-0---00*01---*0-1-0-1-0*0*-10-1001-*
1--1--*--00--0-0-1--*--*---**0-0*---1001
1.0-0--*-*-01.-0*-0---0-1-1-0011-1.11.*-
**-00----1.-1-1-*-*1-------01*----0---0-
-0.----*.*--1.1-.0000-*1------1-110*1-1-
.*0*0-10.*001-.-10-0001*.---001.*0-01.-*
---0--1-0*-0-*---00--.*0-1-1--.--00-.*--
.*1--0--1-*--0-*--0---1---*1--100--1.--0
---.-0--*-0*--000.0110--10*-1--*0----0*0
1------1..0-*.--*-1.0-.*-1-00----1-0-*--
1000110-.--0*1-0--1---1*-*-11-0.*0-100--

Generation = 4, Population = 868.
----1*11010--...**--**1**-0001--*------1
1..--0.1*.--.-.*--*001-*0**1-.-0---.0--0
11-101--1----0.-0-10-1.1------.-1----**-
*.---.000-**.*-1-000*011---*0.*-*0.*-.--
-.*-----0--.*.0-00-*--.-00---*1-1-----*-
**-1-..0*---1-0-----0-.0*-**1.--10--.00-
-*-1----*.0*-0-000-1.0-1---*1-11--11---.
010.-0*--*0-0*-*-*1*1.*1---*01*--.*-*010
-1*.1*--.1.*--1-0-*-..1-*.0--1-*00.-0.*0
0.***.0--.-.00*1.-0*1-1-0-*--0-0*.-111.0
---*1--.-.1-*-11--.--010*0-0--01*-.1-1*1
00.-0-1-1-**-.*1---1*0---.*--1*-0-1..-.0
01-*1--1.*.-1.*--0-.0-11.*-.*-010--1.-*0
0-.-0-0---.000-0--0-111-----*-1*0-1-010-
*-.1*0--*1--.*-*.-1-*0--.0-1---.01*0.---
--10*--..--*1001-..--.*---11-01-.-*-*1-*
*----0-0**1.--*-1-1-11-100.1-0-.01-.0-*-
**-0--1*--**01----*..--*1*10-*-*--.0----
0-----1-01----1--11.0.-1.0--1---**--0--*
-00----*1--011001*00*-01*0---0*-0110-.1-
--.----1---1---0---01.---0-01*1*-0----*1
1.-*--1-01--.0-0.--0-.--*1---.-0*1000-.0
.-0**0-10.-0-----*-1**-*--*0.-0**0----*1
1--.*--**-**..101000-0----*-*-.-*-*--..-
-0-1--0*1.-1..-**-.--1--11--0-.*0-0--00.
-0-.*-.1*1*0.-00.---0001.-0-.-.-.----*-*
*0-*--10111-100.-**000-1.1**-0----0-0-**
--1.00------1--.1**0*--.*-*.0-0.*0----.-
1.*-.110*0-0-.1-.-*1--.**0-.00-100000.--
1--1.1-*.-0---*.*-.---1-000---*---1-*.-*
**0*--10.10---00---00*-1*--*0*-.0--1011-
*-0-10001.---1-.*0-*010.1-00---**.-*.-.-
**--*10-*--0110--.--1*0.0.0*-.0.0-.-0..*
-.1--11-0110.-*.-.-**-*1--1-1.*1-0-*-1**
1-*0----1-*010-*---0-01----*.-1-1-11-10*
0-*.1.*-1.----0.00-0*1-.0--.-*0.00--.1--
*.1-011---1.1*101*1--0-0--1.-.-*--*---1*
-0-*--*-01-001-10*01.00.0-0..101.-00*11-
-.--10-.-*11-.--.11-00-0----1---0-**-..-
*.11-0--0-.---*1*0.----00--1*.000110-0-1
--.----*.*---.*0.-1--1.-1--1-0*--*1.--*-
.*-*1---..-1--.0*1--1--..0--1--..1---.-.
--11--*0-.-10*01----0..---1*-1.00-11..0-
..*-01-0-1.0010*----0-*-00.--0*1----*--1
100.010-*-1.--11-.1-*1--*1.-*1-.----1-.-
*-010---.*1-..10*--.1-.*0-1-10100*-10.-1
------1-.--1**---1*001**-.-----.*-----0-

Generation = 5, Population = 871.
1--1**-*1-11-...**--..-..1-1-*0-.0--1-1*
**.10-.-..1-.1.*1-.11*0.1..--.1-0--.---1
**-*---0-00011.0-1*1--.--11-1-.-*--1-**-
*.100*1-1-.*.*1---1-.1---10.1.*-*1..0*--
-.*---00-11.*.101-1.01.1-1--0.---1-0--*0
**0*0..1*01-*11----1--*-.0*.-.---1-1.1-0
1.1*001-*.-.-10---0*.-0----.*0-*---*---*
1--.--*1-.--1*0.-.*.*..----.1*.10.*1*-*-
1-..-.0-.*.*00*--0.0..-0*.1---0.11*--..1
-.....-0-.1.--.-*1-**0-0-0*-0101..0-*-.-
-0-.*0-*1**0*1**1-*-1-*-*1--10-*.0**0-.*
--.0---1-1*.0..-000*.-1-0.*--*.----**1.-
1--**00-**.1*..00--.---*..-**11*100-*-.-
--*1-0--0-*11-110-1-**------*--.10*-1---
.1*-.1-0.*0-..1**1*-*-0-.-1*-1-.--.1.-10
-0*1.0-*.--*-11--*.--.*-10**--*0.0.1**1.
*-0---1-**-.-1.0--*-**1-1-.----*1*-.10*-
**--0--.01.*-*0-0-*.*00.*.--1*-*0-*-0-00
1000-0*--*---0*---*.1*--.----10-..-1-1-.
-110---.--1---11-.11.-1*.1010-.0---1-**0
00*0---*100*-----1-1-*101--1-.*.--1-00*-
-.-*-----*1-*--1*01-0*--*---0.11.---10.-
.11..11-1.-1000--*0*.*-.--*1.01..-0001*-
--0..--..-***.*1*1--0-010-*1*0*0.1*0-*.0
-1--001.*.1-*.0..-*1----**0010.*--101-1.
--1**0.*.*.-.---.00-----.01-*1.1.----.-*
*-0*1-*1**-0---.-..1--0*.*..0---0----0**
--*.1-0---0-*--**..-.--..-..1--..-00--.0
*.*-.*-1*10--**1*-.---...-0.-1-*111--.-0
--0*.*-..01--1*..0*-0---111--0*---*-..-.
*.1.-0-1.*-0---1001-1.-*.-0.-*-.11--1-*-
.-11-1-1-.01-*0.*1-.---.---1-0-.**0*.1*1
*.00.-11.----*-00.-0*.1.1.1.-*1.1-*0-*.*
-.*-----1-*1.1.*-.0*.-.*-0*--.**--0*1-..
*-*1-0-0-1.1-1-*-00-----0--**--1*-*--*1*
--*.*.*-*.-0-11.--0-.*-*-00.1*-.-111**0-
*.*1--*0---.-.*1-.-0--0-10*.-.1.--*-01-*
--0*00*-1---1-1-1.-*.11.--1*.*--*011*---
1*00*--*0.---*0-.*-01-011-1-*--111..-..0
..**010--1.1-0**.-.-0-0--00-..--1*----0-
00.-001.*.00-..1.0-0--.-*-0*-1*--.-*--*-
..0**11-*.0*-1.1.*-0*--..--1-01*.*00-.-.
----0-*-0.0*1.1*-0-0-..-01**0*.-10**..--
...0---11-.-1*-.0-00-0.---.1-1.---0-*0--
--1.1*10*-*.0-**-.--**--.-*0.*0.01---0.-
*0------.*--*.-1*--.-1..-1---1--1*-*-*--
1-0011-0.0-***-0-**-1-**-.1-100.*--100--

Generation = 6, Population = 841.
*-0-.*-.*--*0..***00**1..----*-0.-11--**
...*--*-..-1.*.*-1.--*1.-..10.*-1--.001*
..0.01--1111-*.10*.---*-----*0.0*-1-1**-
*.-1-*---0....-11---.*111*-.-..-*-.*1.10
-..1-------...*-*-*.1-.---111*1----1-0.-
*.-.-..-.1--***-1-1*--*-*-**-*-01*--.-0-
-.-.1---..0*0*10-0-.*011-01**--*-0-.-0-*
-10*1-.*-.---.1*-*..*..10-1*-..--..**-*0
*1..-.10*.**11*0-1.1.*1-*.*0-11.--.--*.-
0....*-1-.*.--.-.-0..111--*--*1-..-1*1.-
1-0.*1-*-..-*-*.*-.-*0*0.-00-10**1..1-..
00*10--*-*..-..11-1*.0*01.*-0..-0-1..*.0
-1-..111...-..*-1--.01-*..-*.*-**1-1.-.-
0-.-0---1-.*----10*-**-0--00.01.-1.0*100
.-.1.--1.*-0..*..**-*011.--.1--*0-.*.--1
--.**10*.--.---1-..--.*---.*1-*-.1.-..*.
*-1-0--0.*1.1-.---*-*.*---*100-.*.-.*1.-
..1----.-*..-.-1--*..--...-0**0.-0*01--1
--1-01.0-*-01-.-11*.-.01*0001-10*.-*0*0.
0*-1010*11*----*1*--.1-..*-*1-.-0--*1..1
11.10-0.-1-.--1--*-*1.*1---*1.*.-0-0--.-
1.0*01110.--.--*.---1.--*101-.**.---*1.-
.*-*.**--.0----00.1...-.-0*-.-*.*--11-.-
-01**--..1*....-*-00-01--0.-.-.-**.1-..-
0-0--1***.*1*.1..1.*--0-..-1-1.*0--1*0-*
0--..-.....0.-0-.1-1--01.1-0.-.**-000.0*
.-1.*0.*.*1----.0**-001.***.-----10001.*
-0*.*010-111*--.*..0.-1..1.**--*.--100.-
..*-.*1***10-..*.-.-0-...-1*-*0*--*--.01
-11*.*0*.1--0-...-*-10--*-*001.--1*1..0.
..-.0--*.*-10-0*1---*.0.*-1*0*-*--0--1*-
.0*--*0-1.1--*1..--.--0*1-0----...1..-.-
..1-*-*-*---1*0--.--*.-*-.**0*-.*1.10*.*
-..0-111-1*-.-.*-.-.*-.*-1*-1...101.*1.*
.-**1-0---.---0*-11--0-1-10.*---*1.11.**
-0..*..-*.01---.--1-..0*---.-*-*-*--..-0
...-0-.10--.1..*-.-11010*1..0.-.00.-1-1.
--1.1-.-*1-0-1-1-.0*.**.--*.**--.1*-*---
*.--.00.-*-1-.1-*.---01-*0-1*-1*-*.*1..-
....-*--0-.*--.*.-.11-1-011-**0--*10-01-
11.01-*.*.-11*.-.1-10-.1.0-*--.-1.-*10.1
.*1..**-*.1.1-.-.*-1*0-.*00-11**..111.0.
--1110*0-.-.-.**110--..01-..-..-*1....--
...-010-*1*-*.0.-01-01.-00.-1-.--011*-0-
1--***-1.0..-0*.0*1-.*1-.-*-.*1*---0--*-
*101--0-.*--..-*.-1*1*..0-10--10*.-*0*1-
*01--*--*1-***-10*.--1*.0.--*11**-1---0-

Generation = 7, Population = 803.
.---..-..11*1.**.*--*.-..--1-*0-.0**--.*
.***-0*1*.--.*..--.1-.**-..*-..-*1-.-1-.
..-.1--0**---..*1*.--1.-01--*1*1*--1*..1
..-*0*1--1....--*-1-.**--*-.-..-*1*.-.-1
-..*00-----...*0*-*.--.1---*-**--10*0-.0
..-.0..-.---...0*0-.0-*0*0..-.0--*01*1--
1*1.*0-0..1*1.--01-.*-*--1-..-1*011.---*
---*-0**-*---.*.-*.*...--1*.-**1-...*-.-
*-.*1**-****--.--*.-..--*..----.--.-0..1
-...**0--**.-0.1*--*.*---0.10.*-*.0*.-.-
-01..--*1..0.-..*0*-.-.1.1111-1.***.*1*.
-1.--0-*-...0****-**.1.-***--..0---**..-
1*-..*--...1...0---.-*1..*0..*1*.-0*.-.-
--.---01--*.1--1-1*-..1-101-.-*.1*.1.---
.-.*.1-*..-1...*..*-*1*-.-1.*-0*11.*.01*
0-*..--*.-1*1---0**--..---*.*0*-.-.1***.
.-*01--1.**.-1.--0.-.*.1-0*---1**.0.***1
..-0-1-.0*..-.0---*..--.*.11..-.01*1*0--
1-*0--.10.01*0.1-**.-.1-*1--*1--*.-.-.1*
-.1--*1.--.-1--**.-1*-1..*0.*0*-1-1.-.*-
*-.*1--.1*-.-0-0-*-*-.**---.-.*.---100.1
*.1.1*--1*1-.--*.01-**0-**1--.*.*1-0.*.-
*.-....-1.11--0--.*.**1.-1.-.0*.*-0---.-
--*..0-.**.....-*1---1-101.1.0*-.*.-0*.0
111--****..*******.*0---*.0*--*.1--*.11*
10-**-.....1*110.-0*--1*.*11*1**.1--1.1*
.-*.*-.*.*-01-0*-..-1-*.....0----*1---.*
11*..-*10*-**0-**.*-.-****..*--**00-1-.-
...-..-...*-1....-.-1-...--.-.-*1-.00.-*
1***..1..--111*.*0.-*1-0.-.-1*.-1*.*..-.
..-.-01..*0*-1-**010*.1.*-*.1*-.1---1**0
.1*11.-1*.--1.*..--.-1-.---1---.*.*..-.1
.**0*-.1*--0*.---.-0.*-.-...1*1.*-.*1*..
-..1-*-*1*.1.1.*0.0**-.*--.0-..**-*..-.*
.-*.-01-11.1-11*-*-0--1----.*---.*.*-..*
0-*.*..-**1*--1*--*-..-.--0*1*-*-.11*.01
...1-1.*1-1.-.*.1.1--1-1**.*1.-.11.0*--.
10-**-*-.--11-1*-.1*....-0*...-1.*.1*11-
..0-*-1*0*--1.--*.1---*-*--*.--*-...-..-
**..-.011-.*-0***0*--0*0--*-..---*-1--*-
*-.1*-*.*.--**.1**-*1-*-.--.0-.--.1.*-.-
*.-....0**-.*-*1..0-.11..111*-**..**-.-.
----*-.10.-.-.**-----.*1*1**-.*-*-....--
..*01---.**-..-.01*-1-.--1.1--*1---**-11
*--...--.-..-1*.1.*-..*0*-*-***.-1--1-*0
.*1--0--.*11..-..0-*-...1--1-1*-.*-*-.*1
*1--1.-0*--.*.---**0--**1*1-*-*.*---0-11

Generation = 8, Population = 791.
.101..1***-****...0-..1..-0*-.10*-*.10..
..**01**..11**..1-*--***-.**-..-.--.--1.
..0.*10-.*1--..****10*.-1-1-*-*-.1-**.**
..1.-.*--*....11.0*0.**--*0.1..-.*..-.1-
-...-----1-...*1.0**11.*--1.-**0-*-.--*1
.*0.-.*1.-11..*-.--*1-*1.-*.-.---.-*.*0-
***..-11*.***.1--*0**-*----..-*.-*-.-01.
-1-.-1..1.0-1...-*.....---*.1*.--*.*.0.-
.1.**..0...*11*0-*.-*.-0*..001-.1-.-1..-
0**...--0...0-.*.1-...11-1.--..-*.-..1*0
1-*.*--****-.-...-.0.-*-.***--*.*....-..
--.-01-*-..*1**..0****.-...-0..1-01....-
**0..*--...-...--0-*0*-...1*.**..-1..-.-
01.1-01-10*.-01--**1*.--*1*0.-..-..-.100
.-...-1**.0*...*...-.-*1.--.*11.*-.*.-**
--*..10*.--.*---1.*01..0--*.*-.0.1.-....
.0*1*-1*....--.--1.-...-11.-0--.*.1....*
.*1-0-1.-...0.---1*..00...-***0.1-*-.-0-
--*-0-.*-.1-*1.*1**.1**-*-0-.--0*.-.0.-*
-.*1-**.-1*-*11*..--*--..*1**1*-*--*1..1
.1*.-00*-.-.----1*0.1...---*1.*.-0----.-
*.-.-*11*.--.0-*.--0..11***1-.*.**01.**0
..-***.1-.-*00--0.*...-.0-.1*-..*---1-*1
--*..1-........-.--00*1*1-.*.-.0***-1*.1
-*---*******.......*1-00..-.-1..-11*.-*.
---.*-.....*.*-1.-1.00-*****.-**.*---.-.
.0..*0**.*-1*--.-**---......--1--.-0--**
*-**.0**-*1..11**..0.0***....00*.1-1*0.-
...0..-.***--....1.1*-...0-.-*0.*1.--.0.
***..**..11-***..-.-.*1-.-.0-**-****..0*
*.-.-1-.**-.-*-..1--..-*.-..-*0*--0-***-
.-.*-.--..11*.***10.-*-.1---0-0.*....-.*
.*.-.-.*.-0-..000.-1.*1.-..****.*1**-.*.
-*.*0*1.-..-.*.*1*1..-*.1-.-1.***0*..1*.
.0*.--*0**.---*.1*-1-0----0..---.*..-..*
--*.*..-..**1-*.--*-..0*0-1.-*-.-.*-.*1-
*..*--**-0*.1...-.--1--**...-*-**-.1.--*
*11..0.0.1-*---.1.**..*.0-..*.0*.*.-.-*1
..-0*-*.1*11*.-0..----*1*-1*.-1.1..*1.*-
***.-.1**-.*--...1.--1.1-1.-..-01.1--0.1
*-.*.-*...--...*..-**-.-.0-.11.0-**.*0.-
..-****-.*1.*1.*.*--***..-***-**.***-.-.
0-1-*0.--.0.1**.-1--0.*-.-..-..-*1*.*.00
...--1-1**.0.*-.--*--1.-0*.*--.*-01**---
.--.*.--.-.*0*.**..-...-*1*-....0*00*-.1
..*1--01**-***1.*1-*1...--1---.0**-*0..*
*--0-.11*-0*..--0*.-11.****1*1**.-------

Generation = 9, Population = 790.
.*1-..-.**1...*..*10.***.1-*0.*-.-..*1..
....1*....-*....*1.--..*-...-**0*10.--**
.*-..*1-**--1*.....*-..--1-0*-.1.*-...**
..**0.*01*....-*.1.1...--.1.*..0.*..1.-1
-**.---00*-..*.-.-..*-.*0--.-**1-.0.--.*
*.-.-.*-.---*.*-*-1.*0.-.0..-*-0-.0.*.1-
*....--**...*.*00*-.*-*----*.-..0.1.01-.
---*--..*.1--..*1*..**.101..-.*--**..1*-
.-.**..-**..--*--**1..--***11-1.*-.--..1
-...*.-11.*.1-.*.*0..*--0*.-0*.1**-..**1
*0*.*-1*.**-.1*.*-.1.-*-****-1..*....1*.
-1*1---*-***-*...-....*-.*.0-..-01-....-
*.1*..-1***1...-1--.-.1...-..**..-*..0*0
--.----1--**11*-1*.*..1-*-.-.-.*1..1.*1-
.1*.*1*...-******..-.1*-.0-.*-***-...-.*
--*.**-..-1*.1---**-*.*1--..*-*-.-*1..**
.-.-*0*.....--.--*.1***-***---1.*.*.....
..*0--*.-..*1*-1-*.**--.*.-***1.--.1.0-1
--.01-.*0**-.-.*-.*.-.*-.110.-11*.1.1*-*
-..*0...1**-**-...-1*-1..**..-*0*-1*-..*
.***11-.-*0.1-10**1.**.*1-0.-.*.01--00.-
.*1*-.*-*.-0.1-*.01-..*-**.*0...*.-***.-
..-*...*-.1.--0--.*...-.--.**0...0--*-.*
--**.--..*.....-.---1.*.-1.*.0.1...1-..*
1.---********.....*.*--1..0*1-..-****-*.
---.*0........--.-*.-11****..-****---.-*
.-*..1.*.*1-.00.-**-1-....*.---1-.11--*.
.1**.-..0.-.**-**..1.1***....--..*--*1.0
*..1..-....01...*-*-.1..*-1.0.1..*.-0.1*
***.****.*--***..-*0***-.1.--..0...**.1*
*.1.0*-.*.0.0.0..*--.*-*.-..-.-.1-11**.0
.1..1.-1*.--*....*1.0*-*-0--1--.*...*1.*
...-.1*..11-*.--1.0-**-.-..*.....*.*1***
1*.*-*-.1*.-.*..-.**.1**-1.-*.*..-.*.***
.-..--*-***11-*.-.----11-11*.111....-..*
0-*..*.-....--.*0-*-**1.--*.1.0.0**-..*1
*..*--**--..**..1*---11.....-*1**-*-.11*
*-*..-.1.--.1--.-..*.**.-0.**.-..**-*1*-
..01*0..-.--*.1-**10--.*.0**.0*.*.***..0
***.0.*.*-.*--..*-.1--.*0*.1**---.*-01.-
*-.*.-..**01*.*...1*.1.1*1-.-*.-1...*-*1
.*-...*0.*-.*-.*..0-..*..-***1**....1.0.
---1.1.10.1.-...1*-01.*1.1..0.*0.-..**11
...-1*-***.1..-*0-.0--.1-...1-.*-1-..01-
.-1***1-.-..1..**.*1*..0**.-....-.1-.0.*
..*--0-*.*1...*..--*-*.*-1--11.-..0.-...
.1-11.-*.11*.*11-**--*..***-*-**.0-10--1

Generation = 10, Population = 802.
..*1..-..**.....**-1..***--.1.*-*0...**.
.**.****..-***..*-.--..*1...0..1.*1.0-.*
..-...-0.*1-*....*..0..11-11*-.-..-..*..
...*1..1-.*.**1..-***..11*-.*..-.**.-.--
-**.0-0-1*1..**1*0*.*-..1-1.-*.*1*1.--**
*.0.-.*1.1-1*.*0*0-.*1*1*-..1*01-.-.*.--
.....--***.*..*1-.-..-*-0-1..0**-.-.--1.
1-0*--....-11*..*...****1-..1*.10.***-*-
.-.**..-..**11*0-..*.*--...--1*..1*--..*
0**.*.---.**--.*..-.*.-11..1-..*.*0..*.-
*1..*-*....-.-***-*-.-*-...*1**......-.*
0-.----.1...-***.-...**0**.10**1-*-....0
..-*..1*...*..*0*--.-*-...-...*..-*.*-.1
01.100-*--..**.1**....--.-.-.0..-*.-**-0
.**.***...0........0**.-*-1..-*.*1***0.*
--*...0..0**.*-1-**0...*--**.-*-*1**..**
.-*-.1*...*.1-*01*.-..*1***----..**.*..*
..*-0-*.0***-.-*-*...--.*.1.*.*.--*-.1-*
--.1-1.*1..-.-..1.*.-..1*-*-.-***.*.**-*
-...1..*-..-**-...1**1*......1.1.1-.1...
.*..**-*1.-.*-*1..-.*...--1.1**.1*-1--*1
.**.-**1*.1-*--..-*0.**1**..-..**.0*..*0
.*1.*..*-*-.-----***.*-*0-...-*.*-01.-*.
10***11........-.--0**..1-...1*-**.*1***
-.11-*******........*-0*..-.*-..-*.**-**
1-1.*1......**1-.-*.0*-**....1**..0-1*1*
.-*..**.***1*-1*-**1-0....*.---*-.**--**
.*.**0..-*1...1**..-.-***..*.-0.**--**.1
*..*.*1**..1*...*-*1.-..*0-.-.-.*.*--.-.
*.*...****--..**.-*-...-*-.-1..-**....-.
*.*.1.-...-.-.1..*10..1*.-..1.-**-**...-
.-.**.-**.-1*...*.-.-.-.--0--0-.*....*.*
***0.-*..-*-**-0-.-1..-*-.****....***...
*...-*1.-..1.*..1***.-.*-*.0*.**.0**....
*0*.-0*-*.*-*1**1*-100*---*..*-****.-*..
1-...*.1***.-1**-0.-*.*.--*.-.-.-.*1.*.*
*.**0-**1-..**.*-*-1-***..*.1.*..-.1*--.
.-*..0.*.--*--1*-..*.*.*01.*..-....1.*.1
*.1-*1**1.--**--**-110.*.1...-*........-
*...1..**-..1-..*-.-11..1..-..---.*11*.-
*1.*.-*...-***.*.*-**-.-.--.1..--...*0**
..1.*.*-..1.*1.**.11.....1**.*..*..*-.-.
-01-.*.*-.-*1...-*0-***-*-*.-..1.1..*.-*
..*0-.0..**-..0.1-.-1-.--*..*1**---..1-1
.0-...*1.-.*-.*.***-...1.*.-**..-**0.1..
.*.1010*.*-.*....11.1*.*---1-**0.*1.0.*.
.-1**.1..-**.***-.*-1.*.***-*1*..-1*101-

Generation = 11, Population = 719.
.*****1...***...**--..*.*1-.**.0*-*..**.
.**.****..1.**..*1*11...*...-..-.**.-1..
..0...--.*-1..*..**.1.***1*-*1.1*.-*....
..**-***-...*.-..1..**.--.1.**.0..*.-.11
-**.1-1-*.-....*.1...-..-1-*1..*-.-*00..
..1*0**-.-1-*..-.--**-*-*0.**.1*-*0..*-0
..**.--*.*.....-0*-..0.----*.1..-.1.-1*.
--1*--..**-**...*...*...-1..*..-1.**.-*-
*1..*..-....**.--..*..--...1--...-.-1**.
-.*.*.0--.*.-0....0***-**..*-..***-...*-
.-**.-.....0.-..*-.1.-.1.*..*....**..1*.
1-.10--.-...1*...-...*.-*.*-1..*-.-...*-
**1*.****......-.--.0*-**.-....**1***-.-
1-.-1--*1-.***.-.*...*--.-.-.-**-..-..--
*......*.*1..*.*...-*..-.-**.-*..-...-.*
--*.*.-*.1..**1*1*.-.*..1-.*.0.-.-.....*
.0*1.**.*...-1.--..1..**...-0--**...**.*
..*0--..-.**-.-.-.*..-0...-..**.1-*1.*-*
--.---..-.*1*1..-.*.1****-.0.-..*.*.**-.
-..**...1..0**-*.*-.*-**.*.***.*.*-.*..*
.****.0.-*0.*0**..-.....1--.**..-.1*-0*-
*...1..-..--.11..-.-.*.*.*..0.....-.**.-
..*.....1*-.0---0*....1.1-...-*..0-*.-..
*1...*-........-.1--....*1...**-*...*...
-.*--..*******.......-1...-.*1..-*...-..
---..*........--.-*.-.1**....*****1--.-.
.-*...*.*..-*0*.0***11...*..-01.-.*.01..
.*.*.1..0.-...-....-*-***.*..0-.*.0-**.*
*..*..*....*.*..*-**.-...11.0.1...*00.-.
*.*.*....*11.****-.0...-*-.0*..-...*..-.
..*.**1..*-.0**.***1..**.-.***0*.1*....0
*1..**-*..-**.****1*-.0*-01-110**.......
***-.-*..1*-.*--1.-*..1.1*.....**...*...
...*0.*.1**-....-....1.*-*.-...*.-......
*-..11.0*.*1.-..*.1-1-*---*.**1*....1.*.
--.....-..*.1*..0-.0....-0*.1*0*0..-.**.
..**1-..--***...-.-*1.....*.-....-.*.1-.
.1*..1...-0*11**-*.*....--.*.*-....*...-
..*-**..-.--**--**--*1.*.**..0....*..**0
*.*.*...*1..-0**.1.1*-*.-..-..0--..-*..1
*****0*...-....*.*1..-.-.10*-..-1.*..1*.
*.*.*.*-..-..-.*..--.....****...*..*1.0*
01*-**.*0*1.-.*.1.-0**.-*-..0..*.-..*.1.
...11*1.*.*1**1.*1.0*-*1-*****.*0-1*.*-*
.1-....-.-.*-*..*.*1****..*-....0*.1.*..
.*.-1--.*.-.*....-*.-*.*-----..1*.*.1.*.
.-*...**.-*****.0**-*.*****1**.*.--.*--1

Generation = 12, Population = 746.
.*....-*..*.**..*.-1...***0....1*0*..**.
.......*.**..*.*.-.--.*...**-..-..**0**.
..-...--*.1-........-.***-*-*-.-*.1*..*.
....1***-.....1..-.****11.*....-..*.1***
0*..*--0..1*....****.1..-*1.*..*1*1*--.*
..*.1.*-*---...0.-1.*1.-*-....**-*-...1-
.*...0-*.*..*..1-*0*.-.-0-1*.-**0.-.0-.*
1--.--..**-***..**..*...1-***..1-***.1.0
.*..**.-.**..*.-0.*..*-0*.**--.*.1*-*.**
0.*.**-1-..*-1....1...-**.**-...**-.*..1
.1*..-.....-.-...0**.-.*.**.*..*.**..***
*-.*1-1*1...*....-...*.0...-*..*-.-.*.*0
*.-..**.*..*...-.0-.1*-***1......-**.0.-
--*----.--*****1.....*10.-.0.0*.-**1..-0
.*.*..**.**....*.*.0**.-.0***-**.-...-..
0-*.**-*.**.*.-*-..0****-0**.-*0.-.....*
.1.-.*******-*.01**-.***...--0-***.***.*
.*.-01..0**.-*-.-.*.*--.*.-.***.--**..-.
--*-1-..1*.-.-*.-**.-...*-*1.-..*.*..*1.
-...**..-..-..1**.-**1...***.**.**1.....
.**...-.-*1..-.**.-..*..-0-...*.-.**--*-
....**.-*.1-.--.*0.-..**.*..1.....0..**-
*.......*.1.--001*....-.*1...-**.--*.1..
.**...1*.....*.-**0-....**..*.*-***.....
1*.1-.*.*****........1*..*-.**..1.*..-..
---...*...*...1-.-*.0.-**......**.-01.-.
.-*.****...1.-..1**.**...*..01-.-.*.--*.
.*.**-*.1.-...1**..1.1***.***10*..-1..*.
*..*.*...*.*.*..*-***-...*-.1.-..**1-*-.
..*.*.*..*--.....-.-*..-*-.-...0.*..*.-.
*.*...*.**-.-......**.*..0....1..**....-
*-..*.-***-*......*.0*1.1-*1-*1.........
*.*-.-*..-.-**--*.-****.*....*..........
*.**-.*.-..-....-*.**-.*1**-.*...-...*..
.0.*-**1*..**1...*-1-0*--1*.*.*.....-.*.
1-...*.1....-*..10*1.*..01*.-.1.1..1..*.
.****-..-0.....*1.1**....**.1..*.-...*-.
.*...*...1-.-***1*.*.*..-1.**.0...**.*.1
..*-**..1*1-..10.*11.**...*.*1*....****-
*.....*..*..--.*.-.**1*.-..1..-01*.1*..*
*....-**..-....*.***.-.-.-1.-..0**...*..
.......-**1..-**.*11*...*...*..***.*-.1*
--*1....1.-.1.*.**0-.**-*1..-.**.-*...*.
*..**.*.*..*..-.**.1.-.-0**.****-1**.*1.
.*1*...-.-*.-.***..*.....**-*.*.1..*.*..
.**1-10*..1...***-..1...-1-11.*-..*.*.*.
.-.....*.1.***..1**-.******-*.***-1*.0--

Generation = 13, Population = 706.
......1.*******...1-...***-*...**-*...*.
.......*..*.***..-.1-.*.....-..1....-..*
..-..*10*.*1..*.....1...*-*1.1.1..*.....
....-***-***..-..1.*...*-.*....0....**.*
1*..*-11*.*....***...-..1.-*..**-.**-0.*
*.***.*-*-11...1.0-..-.1*-...*..-.-*..-0
.*...-1*.*******0.1..0.1---.*1..1.1*--.*
-1-.1-*...1*.***....*...--..*..-1....-.-
**.****0.*...**01.**..--....--.*.*.0*..*
-.*.**--1.*.-*....-...1.....-..*..0.*..-
***..1..*..0*1...1**.0.*.**.*..*.****...
*-***1-.-........-.*.*.-...1....0*-.*..-
.*1****.***...*0.-0.*.1..******..-...-.-
1-*--0-.1-..***-..**..--.-.1.1**1*.-*.1-
.*.*****.......*..*-...-.-...1..*1*..-..
--***.-.....*.1*-..-...*--...-.1.1..*.*.
***-........1*.--**-.....**1-1-.**.**.*.
.**0--..1..*1*-*0....-0.**1****.--....0.
--.--1..-.*-.-*.-**.-*..*1.-.-..*.....*.
-**.**..1.*-..-...-**-..*..****.*.*..**.
...*..-.-*-..-*...-..*..1--**.**1..*0-*1
.*.....1*.-0.-1..-.-..**.**.-***..1..**0
.*...**.*.*.--1--.....1..**..0***00****.
..*...-.....***-..10...*..*.*.*1*.**....
**.-0**.******....**.**..*0.***.-.*..-..
101**...*...*.-1.-*.1.-***....***.11*.1.
.-*.*......-.-*.-.*......**.---.0.*.01..
.*...-..-.-.*.*....*.-***.*..*-..*0****.
.*....*****...*.*-*..-*..*-.*.1*.*.-0*-.
..*.*.**.*11.....-*0...0*1.-...-....*.-.
......*...0.-.........*.*-*..******....-
*1.*.*0..*-.*.....*.1.*.*0**-*-.........
*.*-.1*.*1.-*.00.*-........*.*..........
*..*0...1..1....-*...1..*.*0***..-......
*-.*-*.**...*-....1-1-*-0*....**....-**.
-0...*.*....-***-1.*.**.1-..-.*.-..-.**.
*****1*.11...*..*.-..*......*.**.-**.*-.
.*...*...--.1*..*....**.0*....1*..**...-
.*.-***.*.*1.*-1.*-*......*..-*.**.....0
.*....*..**.--.*.-...**.-.*-**--**.-....
.....0**..0....*.*...1.-.1-*1.*1...*.*.*
.......-***..1*...-***.**...........1*-*
01*-*...-.1*-**...-0.*.-.-**-....1..*...
....*..*.*.*.*-....**1.1-...*...0*.*.*-.
*.*....1.0**-.*...***......0....-.......
.*.--*-****.*....-**-***---**.*-*.*...*.
.1*....**-*****.-*.0.******1*.**.--**---

Generation = 14, Population = 656.
......-****...*...--...**.-....**-......
.....*.........*.-.--......*-..-.*..-...
..-..**-...-..*...**-..*.-**.-.-*.....*.
....-...-.....1*.**....*1.*.*..-*.*.**..
-**.*0**.......*.*...-..**-...**1.**01.*
*.***..-.1*-.*.-.1-..1*-*0...*.*1*0...1-
**..*0*.*.......1*-..-**---.*-..****0-..
--1**1....-.......*.*...--..**.-*...*-.-
**.....1**.*...1*..*..1-....1-.*.**1*...
-.....--*.**-..**.-.*.-.....0.**..1..*.1
*....-*..*.1*-...***.1....**...*....**..
*-...*-*-.*****..0...*.0*..*..**1*-.*..-
*.-...****....*1.01.**-..........-...-.-
--.11-1.*-...*.1.**...1-.1.*.*..*.*1..-0
.*....**....*..*..*-...1.-..**...-**.-..
00....0.....*.**1**-....10*.*-*-.-..*...
*..1*.......*..--*.1...*...-0*-******.**
*..101..-..**.0*1....--*..*..***-1....-*
--.1-*..-.*-*-**-***-*...-.-.-...*....**
0.****..-.*0..-...-**1.**.**..*.*..**...
.*.**.-*1*-..0....-.***.*--.....-.**1-.-
..*...***.--.1-*.-.-.***....-.....*....-
.**...*.**.*0--0-.....*.....*-...--....*
*.*.*.-.*.....*1..--**.**...*..*.....*..
*..--*.****......*...**...-.*...-...*-..
-1*....**.*.*.--.1*.-*-*...*..*.*.*-*.-.
*0..*......-.0**-.*...*...*.-11.1...1-..
.**..-.*1*1...*..***.1***.**.*-*..1...*.
.**..**......*.*.-*..1*...-..**.**.-1.-.
..........-*.....0*1..*1.-*-...-..****-.
.****...*.1.0.....*..**..-.*******.....-
***.*.1.**-*.*......-*..*-.*-*-***......
*.*0.-*.*-*-**11**-..*.**...............
*.**1...-..-**..1**..-.**.*1...*.-......
*-**1*.**...*-*.**-1--*-1.***..*....1**.
11.......*..-***1-**..*.*-..1...-..1....
*..*.-.***......**-.....**.......1**.*-.
........*10***.***..***.1*....*....**..1
***1*.**..**.*-*..-.*..*..**.-*........-
....*...*...-0.*.-*.***.-**1*.0-.**1..*.
.....1**..-*...**....-.1*-1*-.***....*..
.*...**-*...*-.*..1*.*..**..*......*-*-.
1-.-....1.-*-.....0-...-*1.*-...****..*.
*.*......*...*1......-*-0.*.*...1**.*.1.
.*.....-.1..-*.........*...1.*.*-.*.....
*..-1.-.......*..-..1...-1-...*1...*....
.-*...**.1*.**..1..1.*..*****.**.--*.01-

Generation = 15, Population = 668.
......1.**........--......-.....*-......
.....*.***....**.-.1-..**.**0..1.*..-...
..-..**0...-..*.****1..**1*.*-.1*....*..
....1..*-.....-*.*.*...*-.*....-*.*.....
-**.*-*........*.*...1*...-..**.*...1-..
*......1**.1...1.-1..**1.-...*..-.1...--
*....1*..*......**-..-**-1-.*1*.....-1..
-1**.-...*-....*..**.***--.***.-.....1.-
.****..***.*...-**.***-0...*--.*.**-**..
-*....0-....-..*..1.**1.....1***.**..**-
.....-****.*.-**.***.**...****...*.****.
*1...*-.-.....**.-...*.1..**..**-.1.**.-
..-.*....***...-.1-***-**.*.*.*..1**.-.1
11.**--..-...*.-.....*--.-...*...**-..1-
***...*.....*......0...-.-....*..1*.*-..
--*..*1*...**.**-..-...**-...-*-*1..**..
*.*-........*..-1..-...*..*1-.-..*******
..**1-..-...*.-.*..**00.....**.*1-.*.*0.
--.--.*.-.*-*-*.1***1*.**-*1.1...**...**
-*...**.1.*1**1...-..*.***.......*..**..
.*....-.**-.*1*...-*....*01.....1**.-0.-
.....**...-0.*-..-.-*.......1.....*....0
..*..**..*..1---1...*...*....0...-0.....
*.**.*1....*..*-*.-0*..*...***..........
*.*--.*...**....***.....*.-***.*1..**-..
1-*...**..**.*11*-*.1*-*...**.*..*.-**-.
*1.*......*-.1**1...*...***.0--.*...*1..
...*.1**-**.....**.**-...***..-...-*.*..
.**...*****...*.*1...-..**-*******.-*.1.
....**....-**....1.**..*.1.-...0..****1.
*...**.**.-.-....*****...-**.*.....**..-
*...*.*.*.-....***..1*..*0.*1*1..*......
*..-.1..*1*0..--..-.......***.**........
*...-.*.-*.1....*....1....*-*....-...*..
*0..**..*...*-....-*10*1-.*.*.......**..
**....*..*..-**.*-.*....*-*.*...-..*..*.
**...-.*...*......-**.*..........*....1.
*...*.*..*1..*.*.*..***.-..........**..-
.**-**.*.....*-*.*1....*....*1**....*..0
.**.*...*.**11.*.1.****.-..-*.--****....
....*-..*.0.*..****..-.*.--.1.****.*.**.
.....*.0*..**1.***-*........*......*-*-.
*-.-...***1.-**...1-...1.-.*0...*.....*.
*.......***.***......1.11.*.*..*-....**.
**.....-.*..1*.........****-**.*-.*.....
.*.1-.0.***.*.*..-..-...-*-....**.***...
.1.......*...*..-..-*...****.***.-1.*1*1

Generation = 16, Population = 645.
......-..*........-1......0*....*-......
.....*...*....***1.*-..*..*.-..*.*..-...
..-.**.1...-..*..*..*.*..-..*1.-........
...**..*1.....-*...*.*.*-.**.**-*.......
-*.*.-*.......**.*..*-....1..***...*-1..
*......****-...*.1-....-*0.....*1.-...--
*.*..***.*.....***1**0..--1*.-*.....0*..
--...1**.*1....*...*....11**...1.....-*-
*...*..****....1**....-1...*1-.*.**-*...
0*.*.*11....-.**..*...-*..*.-..*.......1
**...-***....1...***...*..*......*......
.*...*-*1..*..**.-.....**.....**1.*....0
..-***....*...*1.--..*-****.*.***-..*0*-
--.**01..0***..-..**.*10.-...**.*..-..--
*...*.**...**.*....-...1.-...***.*..*-..
--**.***...**..*-..0...**0...0.-**......
..*-***.....*..-*..1**.**..*-*1........*
.****1..-...*.0.*....11.**...**.*1....1.
-0*11.**1**1.1*.-**.*....1**.**..***...*
0....**.*.*-..*..*1..*.....*.......***..
......-.**-..-....1.*..*.1*.....*.**-1*1
.....*****1-..-..-.-*...*...-.....**...-
.***...*..**--10*...**.....*.1...01.....
..***.**...**..-*.-1*..**..*.......*....
*.*--........*....*..****.0....**..**-..
-1**..**.*...***.1*.-*-*......*..*.-..1.
**.***..*..-*-..*.*.....*...111....*.**.
*..***..1..*.*....***1........0..*1*..*.
..**...........*.*...-....1*******.1..*.
.*.**.....-*.....-...*...*.-...1.**...-.
...*...**.-.0.........*..0.*.*.........-
**..*.*...1.....**..-*...1..*.-*........
**.-.-*.**.-..-1.*-.**........**........
*...1.**1..**........*...**1*....-..**..
.-...******.*-.*..1*-1**-.*.**......***.
..*..****...-*...1*......-......-...*.*.
.....-****..**.**.1*..**..........*****.
*.***.***.*.*....*..*.**-....**....***.1
*.*-*.***....*-*.**....*....*-****..*..-
.**.*..**.*.*-.*.-.*****-..1*.-0...*.**.
...**-..*.1..........1*..--*-..*...*.**.
......*-.....-....-*........*....**.-*1.
.1.-..*...-.1...**--..***-..1*......*.*.
*......*.............-.*-.*...**-....**.
***....-....*.........**..*-**.*-**.**..
.*.-1.-.*.***.*..-..1..*1.1.....*.*.*.*.
.**.....***..*..-..1....***...***0*.*-**
