*** Life<FredkinCell> 15x3 ***

Generation = 0, Population = 20.
--0
000
---
0-0
--0
-00
-0-
0-0
0--
--0
-00
---
00-
-0-
--0

Generation = 1, Population = 22.
0-1
1--
-0-
--1
0--
0--
-10
10-
10-
0-1
01-
0-0
1-0
-1-
---

Generation = 2, Population = 22.
1--
2-0
---
0--
100
1-0
0-1
-1-
2--
---
120
-01
201
---
-0-

Generation = 3, Population = 26.
201
3--
--0
1-1
2--
-0-
112
1--
---
-01
23-
012
31-
0-0
0-0

Generation = 4, Population = 28.
--2
4--
-01
2-2
3-0
11-
-23
2-0
200
--2
-40
1-3
4-1
-11
1-1

Generation = 5, Population = 25.
20-
---
01-
30-
-01
--0
1--
3--
--1
00-
-51
21-
51-
022
-02

Generation = 6, Population = 21.
312
---
--1
-1-
---
1-1
223
410
---
1-2
262
-2-
62-
---
---

Generation = 7, Population = 25.
4-3
40-
---
3--
301
212
334
-2-
-0-
203
-7-
2--
7-1
02-
---

Generation = 8, Population = 20.
51-
-1-
-1-
4-2
41-
3-3
---
---
---
3-4
28-
3-3
-2-
-3-
10-

Generation = 9, Population = 24.
6-3
--0
-2-
5--
521
41-
3-4
---
2-1
40-
392
4--
-3-
--2
2-2

Generation = 10, Population = 26.
--4
4-1
---
612
632
5-3
43-
---
30-
5-4
4+3
523
---
0-3
--3

*** Life<FredkinCell> 3x2 ***

Generation = 0, Population = 2.
--
-0
-0

Generation = 1, Population = 5.
-0
01
01

Generation = 2, Population = 2.
-1
-2
--

Generation = 3, Population = 5.
02
03
-1

Generation = 4, Population = 2.
--
-4
-2

Generation = 5, Population = 5.
-2
05
03

Generation = 6, Population = 2.
-3
-6
--

Generation = 7, Population = 5.
04
07
-3

Generation = 8, Population = 2.
--
-8
-4

Generation = 9, Population = 5.
-4
09
05

Generation = 10, Population = 2.
-5
-+
--

*** Life<FredkinCell> 11x2 ***

Generation = 0, Population = 12.
--
00
-0
0-
0-
--
--
00
00
00
0-

Generation = 1, Population = 15.
00
1-
01
1-
10
0-
00
--
11
1-
1-

Generation = 2, Population = 12.
-1
-0
12
-0
21
-0
-1
--
-2
--
20

Generation = 3, Population = 13.
02
--
23
1-
32
--
02
--
1-
1-
31

Generation = 4, Population = 11.
13
--
-4
-0
-3
--
13
-0
22
--
-2

Generation = 5, Population = 14.
24
1-
25
1-
34
0-
2-
0-
3-
1-
3-

Generation = 6, Population = 13.
-5
-0
36
-0
45
--
-3
-0
-2
-0
42

Generation = 7, Population = 12.
26
--
47
1-
5-
0-
24
0-
3-
--
5-

Generation = 8, Population = 9.
37
--
-8
--
-5
--
35
--
42
--
-2

Generation = 9, Population = 12.
48
1-
4-
--
5-
0-
46
--
53
1-
5-

Generation = 10, Population = 9.
-9
--
58
--
65
--
-7
--
-4
--
62

*** Life<FredkinCell> 3x2 ***

Generation = 0, Population = 2.
-0
-0
--

Generation = 1, Population = 5.
01
01
-0

Generation = 2, Population = 2.
--
-2
-1

Generation = 3, Population = 5.
-1
03
02

Generation = 4, Population = 2.
-2
-4
--

Generation = 5, Population = 5.
03
05
-2

Generation = 6, Population = 2.
--
-6
-3

Generation = 7, Population = 5.
-3
07
04

Generation = 8, Population = 2.
-4
-8
--

Generation = 9, Population = 5.
05
09
-4

Generation = 10, Population = 2.
--
-+
-5

*** Life<FredkinCell> 14x3 ***

Generation = 0, Population = 6.
---
--0
---
--0
---
0--
---
-0-
---
---
---
0--
-0-
---

Generation = 1, Population = 14.
--0
-0-
---
-0-
0-0
-0-
00-
0-0
-0-
---
0--
---
--0
-0-

Generation = 2, Population = 10.
---
0--
---
---
---
01-
---
1--
---
00-
-0-
0-0
---
0--

Generation = 3, Population = 18.
0--
-0-
0--
---
00-
120
-0-
-0-
-0-
1-0
01-
-0-
--0
-0-

Generation = 4, Population = 11.
---
0-0
---
-0-
---
--1
---
1-0
-1-
2--
---
-1-
-0-
0--

Generation = 5, Population = 20.
0-0
---
000
0-0
-00
-2-
0--
-0-
0--
---
01-
020
-10
---

Generation = 6, Population = 9.
---
-0-
---
1--
---
-3-
-0-
1-0
---
-0-
---
---
---
-00

Generation = 7, Population = 24.
-0-
0-0
00-
-0-
00-
141
-1-
-0-
010
2-0
-1-
---
-10
011

Generation = 8, Population = 11.
---
1--
---
1-0
-1-
--2
---
---
-2-
3-1
---
--0
---
12-

Generation = 9, Population = 16.
0--
-0-
--0
-0-
--0
---
--0
-0-
---
-0-
0--
-2-
010
231

Generation = 10, Population = 9.
---
---
-0-
1-0
---
---
---
1--
---
--1
-1-
03-
---
-4-

*** Life<FredkinCell> 16x2 ***

Generation = 0, Population = 8.
--
0-
--
--
00
--
--
--
--
-0
-0
0-
-0
--
-0
--

Generation = 1, Population = 16.
0-
-0
0-
00
11
00
--
--
-0
01
-1
-0
--
--
0-
-0

Generation = 2, Population = 16.
--
0-
10
1-
22
--
00
-0
-1
12
--
01
-0
0-
--
--

Generation = 3, Population = 12.
0-
1-
21
-0
-3
--
1-
--
--
2-
--
1-
01
--
0-
--

Generation = 4, Population = 15.
10
--
--
--
24
00
-0
0-
0-
-2
--
2-
-2
-0
-0
0-

Generation = 5, Population = 16.
21
10
--
10
--
-1
11
1-
1-
--
01
--
-3
0-
-1
--

Generation = 6, Population = 12.
--
--
--
21
2-
-2
--
--
21
-2
12
2-
--
-0
--
-0

Generation = 7, Population = 15.
--
--
21
-2
34
--
-1
10
3-
2-
--
3-
03
0-
--
0-

Generation = 8, Population = 14.
--
10
3-
2-
4-
0-
-2
--
--
32
--
4-
14
1-
--
-0

Generation = 9, Population = 19.
21
-1
--
-2
-4
1-
--
-0
31
43
-2
5-
25
2-
01
0-

Generation = 10, Population = 20.
3-
-2
--
23
-5
--
12
-1
-2
-4
13
61
36
-0
12
1-

*** Life<FredkinCell> 15x12 ***

Generation = 0, Population = 99.
--0--0--0-0-
00000-0000--
--0-000-----
000---00-000
00--0--00000
00--000-0---
00-0--000--0
---0--0-0000
--000-0-00--
----0--00---
-00000-000-0
--00000-00-0
00-0-00-0---
0000-0-----0
00000-0000--

Generation = 1, Population = 86.
0-1-----10-0
1-------11--
-0-0--100-00
-1-0----0-1-
11-01-0-111-
110-------0-
---1--1-1--1
00---0-011--
-011--101--0
-0-0----10-0
0111--0----1
00--1--01--1
----01--1---
1-110100-00-
-111101--100

Generation = 2, Population = 72.
1--0---0----
2-00--0-2---
-1-1002-10-1
---------0--
-20-2-----20
-2100-----1-
----0--02---
1---0----20-
-1--0-212001
----0----1--
-----0---00-
----2--1-002
-00-1--02-00
-0-2--110---
-22221--0-11

Generation = 3, Population = 86.
20-10-------
3011--103--0
--0---------
--00-00--1--
1--030-----1
1-2-10-0002-
000--0113---
---0-00-1---
--11--3---12
-0-01-00--00
----0-0001--
-0003-021---
0-1021-1-0--
1--30-2210--
0--3-2--1-22

Generation = 4, Population = 97.
--1-10001--0
-12--02-410-
0--1-0-010-1
01--0-100-10
220-41-01---
-230-10-1-3-
-----1224-0-
1001--102200
--22----20--
0-0---1-----
--11--1-12-1
-11140---0--
10---2---10-
-0-4--332--0
12242---2133

Generation = 5, Population = 76.
--2-211-----
-2---1--5210
11--01-----2
1---1-2-112-
---0----21-1
--4112----40
0---0--350--
2-1-0--1-311
--3-0------2
---0-020---0
0-2---2-2---
--22-------2
21---3-1--1-
1-15--4--001
23-5321-----

Generation = 6, Population = 95.
----32201000
-3--0--06---
--01------03
2---20---230
2--14100---2
12522300-05-
10----2---0-
3-2--0122---
01421-3--0--
0-0-1131--01
--31--30-2--
---340021---
-21-2-0-2-20
--2--15-2112
-42----0-133

Generation = 7, Population = 87.
-0-1---12--1
3---1-------
1-1201-01---
3100---01341
------1-2-23
23-334---1--
2-0101-35-11
--3--1--3-1-
1------1---2
10------1112
01--00412--1
-12-5--3--02
23-03--1-1--
-0-5-2-3-2-3
25-5-2--2-4-

Generation = 8, Population = 86.
------22300-
4-212------0
-1-312----03
--1--0----5-
--0-4--03---
-45-4--01-5-
30-212-4-0-2
-04--2124-21
2-4--03-2013
2-0-1131---3
-2-1---2--0-
0233------1-
341---0--2--
1---03-4231-
3--6-31--1--

Generation = 9, Population = 92.
2-21323---1-
-332--206211
----2-2--0--
--2-2120136-
----5-1--1--
---3--01-1--
41-32-2----3
3----323---2
31-2-14---24
3010224--114
03-2-0-3221-
--4-5-03--22
45--3----32-
--2-1--5--23
452-3-2--2--

Generation = 10, Population = 88.
-0-2----3-2-
-44-2-3--322
-1--32-01-03
-1--3-----71
--0-61-0----
24544412-250
-2--32-4-014
-0-----44---
4-43125----5
4-----------
---3-1---321
-2-3601--033
5610-30-2430
-03--3--23-4
5---4---2--3

*** Life<FredkinCell> 11x3 ***

Generation = 0, Population = 11.
--0
000
-00
--0
---
---
0--
--0
0--
---
0--

Generation = 1, Population = 15.
0-1
111
--1
--1
--0
0--
-00
-0-
-00
---
-0-

Generation = 2, Population = 17.
102
--2
0--
-0-
001
---
--1
0-0
0-1
--0
0-0

Generation = 3, Population = 17.
2--
--3
--1
01-
112
00-
002
1--
1--
-0-
--1

Generation = 4, Population = 18.
-02
114
0-2
--1
2-3
110
113
--0
2--
---
---

Generation = 5, Population = 16.
---
-25
10-
-1-
31-
221
-24
--1
-01
0--
---

Generation = 6, Population = 13.
-02
--6
21-
0-1
-2-
---
--5
-0-
-1-
--0
0--

Generation = 7, Population = 17.
21-
127
-22
1--
---
-21
---
11-
22-
0--
-01

Generation = 8, Population = 18.
---
---
2--
--1
323
232
1-5
--1
3-1
100
-12

Generation = 9, Population = 16.
---
1--
-22
--2
-34
343
22-
-1-
42-
-11
---

Generation = 10, Population = 13.
2--
--7
-3-
-1-
--5
---
-3-
1-1
53-
--2
-12

*** Life<FredkinCell> 6x11 ***

Generation = 0, Population = 25.
-0--00--00-
------0--0-
00-0---0--0
----0-0-000
-0--00-0-0-
0--0---0---

Generation = 1, Population = 34.
0-0011-01-0
0--00----1-
11----0--01
0---10--11-
--0--10101-
--0--00100-

Generation = 2, Population = 42.
1-1122-120-
------00-20
2200---0-12
1-002-0--2-
0010-212-20
-0100-121-0

Generation = 3, Population = 32.
--2--30----
-0--0-1103-
--1---01-2-
--1-30101-0
-1-1-3--0--
--2110-3201

Generation = 4, Population = 31.
---1-4--20-
0-00-022--0
--20--12-3-
--204121-2-
0--2---2---
--32---43-2

Generation = 5, Population = 33.
1--2-5--31-
---1--3--3-
2231-023-4-
10----32-30
-11--3---20
004-1-1-4--

Generation = 6, Population = 27.
-023---14-0
-0--004---0
-3---1-----
-120-1---4-
02-2--12---
11---0----2

Generation = 7, Population = 37.
1--4-5-25-1
0---115-031
2--1-----42
-2---2-21-0
-3130323020
--421--4-0-

Generation = 8, Population = 37.
202-2603-12
-0-12262-42
3-3---230-3
-3---33----
0-2414--13-
---3---541-

Generation = 9, Population = 37.
3134-71----
01-233-30-3
----0134144
1-20-----40
-335------0
1--4-0165-2

Generation = 10, Population = 36.
-2--2-2-5-2
--0-44---44
-331-2-5255
-3---332--1
044614231--
---5-1--6-3

*** Life<FredkinCell> 2x13 ***

Generation = 0, Population = 16.
-00-0000--00-
00-000--00--0

Generation = 1, Population = 12.
--10-1-1--11-
1-011---11---

Generation = 2, Population = 11.
00--0-----220
---22---22-0-

Generation = 3, Population = 19.
111-11--0-331
1003-0-03301-

Generation = 4, Population = 16.
-2-02-0-10-42
-11421-14-1--

Generation = 5, Population = 17.
131--1-1-1353
1--53202-3--0

Generation = 6, Population = 9.
--2--202-----
2--6-3---4--1

Generation = 7, Population = 13.
13--2--311--3
-1---4-24-11-

Generation = 8, Population = 11.
2-20--0-22---
-21------422-

Generation = 9, Population = 10.
-3-122--3--5-
-3----0----31

Generation = 10, Population = 17.
24-2-3-3-236-
24163--24-2-2

*** Life<FredkinCell> 7x5 ***

Generation = 0, Population = 19.
-0-00
-00--
00---
--000
--0--
0000-
-0000

Generation = 1, Population = 22.
01011
-11-0
1-000
0---1
0--00
11---
--111

Generation = 2, Population = 17.
121--
0-2--
20--1
-000-
--01-
-2---
0-2-2

Generation = 3, Population = 12.
---1-
--300
--0--
--1--
-0--0
--000
-0---

Generation = 4, Population = 17.
---2-
-1-11
-0--1
--201
0-0-1
-21--
0--12

Generation = 5, Population = 17.
-213-
02---
21-0-
0---2
-0-12
13---
---23

Generation = 6, Population = 18.
---41
-3---
3----
10-03
01-2-
2-1--
00234

Generation = 7, Population = 21.
-2152
--311
41-01
2---4
1-03-
--200
--3-5

Generation = 8, Population = 23.
1326-
03--2
-20-2
--205
2---2
2331-
-0436

Generation = 9, Population = 17.
-4-7-
-43-3
---0-
2---6
3--33
-44-0
--547

Generation = 10, Population = 16.
152--
0-4--
42--2
30-07
4--44
-5---
-----
