*** Life<FredkinCell> 20x11 ***

Generation = 0, Population = 63.
-----------
0-0-0-----0
----0-----0
0-00-------
------00-0-
--00--0----
0-----0-0--
---------0-
---00----00
-0---0-----
000--0--000
---00---00-
---0---0-0-
----0--0---
0----0000--
-00--------
0-0--0---0-
--0----0--0
---00------
-000-0--00-

Generation = 19, Population = 113.
52--531-2--
-57--5-----
0--1556--5-
--+---8-32-
------4----
37+-6-2---6
0-46--351-6
0792-742-44
6---32574+-
9-3-2-37-4-
84-2-6----9
----6----6-
-5-42-73488
-34415-----
--62-55372-
-32--47--45
-7-616-5-61
64-5-369--0
5-1-42-52--
+4---67--6-

Generation = 38, Population = 110.
-89+----5-+
--+--+-7-5+
2-546-+-59+
-9-9-9----+
6---8--8-++
7+--+---7--
6-9---+-3--
6++------79
+-++-+++6+-
99--8---7+5
-+--+-++---
+--898-9+-7
3---+-+9-+-
8--+----+6+
8+7-7---9--
7+8-6++-5+-
+---7+----7
97+-+5-+8--
-+689-6+-+-
++--+--+---

*** Life<FredkinCell> 2x13 ***

Generation = 0, Population = 14.
0--0-00-0--00
---0000-0-0-0

Generation = 2, Population = 13.
-11-1--0-1-2-
-01---002-0-2

Generation = 4, Population = 16.
11-1-10--1---
1011-2-2410-2

Generation = 6, Population = 16.
--231-2-13-2-
1--10424--202

Generation = 8, Population = 12.
22-51242--1--
-2---4-----24

Generation = 10, Population = 11.
---7-4---51-1
-4---6-6-234-

Generation = 12, Population = 11.
-3------35-41
-4-----6425-5

Generation = 14, Population = 12.
-5-7--433----
-6-1-74---767

Generation = 16, Population = 11.
----2--3-62--
---31-47-4-69

Generation = 18, Population = 14.
--3-464-4-452
-725----569--

Generation = 20, Population = 20.
3--9666467454
2-4-1968-6-7+

Generation = 22, Population = 16.
-7---886694-4
4-471--868+--

Generation = 24, Population = 13.
-7--7--88-464
4967-------8+

Generation = 26, Population = 15.
-94+7+-+--684
6---2+---9+8-

Generation = 28, Population = 14.
4--+-+8-+--+6
---82+8-8-+-+

Generation = 30, Population = 13.
-+5-9--+-+-+-
-+7---88+-+-+

Generation = 32, Population = 16.
5+-+-+8--+---
7+79-+-++++-+

Generation = 34, Population = 16.
--6+9-+-++-+-
7--92+++--+8+

Generation = 36, Population = 12.
6+-+9+++--7--
-+---+-----++

Generation = 38, Population = 11.
---+-+---+7-7
-+---+-+-+++-

Generation = 40, Population = 11.
-+------++-+7
-+-----++++-+

*** Life<FredkinCell> 9x2 ***

Generation = 0, Population = 9.
-0
-0
--
-0
00
00
0-
--
0-

Generation = 2, Population = 10.
--
--
0-
02
-2
2-
20
00
0-

Generation = 4, Population = 10.
0-
11
20
-2
--
4-
--
-0
20

Generation = 6, Population = 11.
21
3-
-2
--
14
4-
41
12
--

Generation = 8, Population = 8.
-3
5-
-2
--
-6
-1
--
-2
41

Generation = 10, Population = 6.
-3
5-
-2
03
--
--
5-
--
--

*** Life<FredkinCell> 1x11 ***

Generation = 0, Population = 4.
--0-0---0-0

Generation = 2, Population = 4.
0-0-0---0--

Generation = 4, Population = 2.
----0-----0

*** Life<FredkinCell> 10x14 ***

Generation = 0, Population = 78.
000--00---00--
-0-00000-00000
------00--0000
00000----0000-
-0-00-0-0-0-0-
0---0---000--0
-0000--0-0000-
-00-0--00----0
0-0000000-0--0
-0--0-0-0--000

Generation = 1, Population = 60.
111----------0
-101-1---1--1-
0-0-----001---
11-1-0-0-1-11-
010-1---1--01-
-000-00--11-0-
--1-1001--1-10
--1----1---0-1
------111-----
----101010-1--

Generation = 2, Population = 52.
22---0---0----
0--2--0--2-0--
1-10----1-2---
2---0----20--0
-----00--0--20
---1-----2-0--
---0211-0-20--
-020000-----02
--0-0--------0
---02-2121--0-

Generation = 3, Population = 65.
-3100---0100--
---30--0-30-1-
--2---00--3--0
310---0----1-1
0--0-1101---3-
--02-----311-0
-0-132---03--0
0131-1-10-0-1-
--1----110--01
---1--3--201--

Generation = 4, Population = 69.
24-1-0--1211--
-10--1-10-10--
1-3-00--1-4--1
-------00---12
1-01-22-2-00-0
0-13--00--2201
-1-2--11--4--1
124-02----1-22
0-20-0--2-0--2
----20-----2-0

Generation = 5, Population = 64.
3-1--10---2-0-
0------2132-10
-04-1-00--5--2
---10--112--23
2----3--3-----
10-40-1--333-2
02-3----00--1-
-3--1--100--33
10-1--11--1---
0-0-3-3-2----1

Generation = 6, Population = 73.
4--1021-1-3-1-
1---010---3---
-1502-1110600-
31-2----23-13-
3---1---40003-
2---10-00--40-
-3-43-1--1--21
1-41-2--1--0-4
--2-00--2--00-
10-1--41-20-0-

Generation = 7, Population = 69.
541213----4--0
2-03121-------
1--1-0--2171-2
--030-0-34-243
----2---51--40
3---2111-3--1-
0-1-----0-40--
-3---3-12-11-5
--3-1---3-----
210---52231211

Generation = 8, Population = 69.
--232----2-11-
-1--2-2213-0--
215--111-2--03
3114-0--450-54
3-0------20-5-
4014---2-4--2-
13-43-1111---1
--4----23-----
104---11----0-
3--1306-3----2

Generation = 9, Population = 52.
--3--310-3--20
-20-32-3-4-110
------2-------
42-5-1--5---6-
---1-3-0-3----
512----30--43-
----4-2-2-4---
-35-1-03----35
----1---3--0--
4--2---2-3----

Generation = 10, Population = 67.
--43-----44---
23--4--4-5-22-
2-5121--22-1-3
53-6-2-----2-4
---2-4-1--00--
6-3-21-----542
1--45-3-3----1
146----43-1-46
104-2011--1--2
-10---6-3-12--

Generation = 11, Population = 69.
5-54---01-5-2-
-4035-2-1-3-3-
--623-2-3---04
-41-0-0155---5
-1-32---5311--
7------30-----
--15-2-141402-
25---30---2-57
--5-3-2-30---3
---23-72---312

*** Life<FredkinCell> 17x9 ***

Generation = 0, Population = 53.
000-0--0-
-00------
0--0--0--
0-000-00-
-0-00-0-0
---0--0--
0-0-----0
0-0-0-00-
0----0---
---0-----
0----0---
---00-0--
----0-0--
---0-000-
-00-0--0-
-0-0-0---
--0------

Generation = 3, Population = 79.
13-00-010
-01-00-20
1-----3--
-03-0---1
01-1-11--
--0-12-01
31--0-0--
-01-0-1-1
3--2-----
--210-0--
001111-1-
---11012-
1--0--1-1
-001-331-
--1--2010
03-10----
1-00----0

Generation = 6, Population = 78.
4----11-1
21--03---
--1--2-1-
3---10-12
-1-1022-1
-1-42--34
62--1210-
---0--42-
41050-12-
1022-0-1-
---1--0--
----2-42-
-0----10-
0---04413
3--2-314-
-4-1101--
--3-100-1

Generation = 9, Population = 82.
--02--232
-2---6222
1-1--33--
30----1--
3-0---511
-----43--
-2--2-41-
---112531
52--32-52
1-5----40
3-34-21--
021-2352-
200---232
32113--14
-0--0-1--
--2-20--0
3130-1-1-

Generation = 12, Population = 76.
-4--0--63
----4-2-2
--2--3442
637--1---
64--148-2
-304---34
7--2--511
31342-8--
55--42-65
2465-----
---73-25-
-------3-
--10-2-32
4--245-24
5--4-7-4-
-6-12-2--
6----411-

Generation = 15, Population = 73.
-5-6-1---
3-20-8--2
3-34-35--
6-7------
6522--9--
--044843-
+-52-2-4-
--3----51
-6--55--6
35-5--2--
5-----5-4
--4-----1
-22---2-3
-2---66--
62--0837-
-7-13-530
715-2-443

Generation = 18, Population = 72.
65----4--
6-2--9---
4-45--8-4
7-82--3-3
-----7-3-
-43-49-3-
+46235-5-
--6--5+6-
6-166--8-
---6-2361
8-4-4--5-
-45-6--32
6-2225--6
-----6-3-
-3----4-2
-7-4-2-3-
-2---645-

Generation = 21, Population = 70.
-82733473
--328-564
--75-39--
+592--6--
----48-44
24---+-38
-7-------
-4------1
67--9--87
--69-5---
8-5-7--6-
3-85-67-2
7-33----7
---3-----
96-40+4--
-8----740
-3-3-----

Generation = 24, Population = 74.
---8-358-
--4---8--
6----6---
+-+2-1---
--235--5-
3-36-+64-
--63-9---
---635+--
----+9-+8
-5--2--7-
9-6-75-76
369----5-
82-655-7+
----47---
+664-+5-2
184-758--
+6-4-665-

Generation = 27, Population = 82.
8+---4--5
--5--+9-5
9-9-29-6-
-6+----2-
6-3-8-+-4
-54-6--5-
+97469-72
-----5+--
-7---+2-9
4--+-548-
-3--88-+9
4--67--63
--3985-7-
6--5---3-
+9-51+5--
2-44+6-5-
+7747-763

Generation = 30, Population = 74.
------89-
--8--++--
92+83-+9-
+9+-3295-
6-----+65
--5-7-689
--+--+78-
7-9---+--
8-3-+-5--
---+2-7--
--79--8+9
59-68---4
846--657-
9---4-8-8
---64----
3---+6-62
---77-896

Generation = 33, Population = 73.
++6-66-+8
65+--+--7
+-+93--96
+-+3---6-
--4498+--
-78-8---9
++-68+7--
8-------3
--4---6--
4-7+2-78-
----+--+9
--9-9-+7-
9-----8--
-3-------
+-897-8--
38------2
+8+887-+7

Generation = 36, Population = 77.
-----6-+-
9-+4+-+-8
-----9-+-
+-+4---7-
-----8-6-
---9-+-+-
--+9-++-5
-5-947+--
---+++-+9
-78+-7-9-
+38+++8++
----+-+--
9--++8-9+
+-5-8---9
-++--+8+2
6-6-+-+6-
+9+-9--+7

Generation = 39, Population = 77.
++-+-7-+8
+--5----8
---+--+--
++-534+8-
--7--++67
67--9-9--
-+--+--+-
-5+-78++4
+-6+++8++
----38-+-
+---+---+
---8+9-9-
+77-+--+-
+-86++-7-
+--+9----
-87-+-+-4
+9----+--

Generation = 42, Population = 77.
-+7---8+8
+6+6-+-8-
+---6-+-8
---63----
-9---+-7-
--9---++-
-+----++-
96--8-++4
-8--++9-+
489-497+-
-7-----++
--+9++++-
+77+-+-++
+-9-++--+
+---++-+-
---5--+8-
+-+8+--+-

*** Life<FredkinCell> 16x5 ***

Generation = 0, Population = 12.
--0--
-----
--0--
---0-
---0-
-----
--0--
--0--
-00--
-----
-----
--0-0
---0-
-----
-----
-0---

Generation = 1, Population = 27.
-0-0-
-----
-0---
---10
--010
--00-
-010-
---0-
01-0-
-00--
--0-0
-0-0-
-----
---0-
-0---
0-0--

Generation = 2, Population = 35.
0---0
---0-
0-000
-0---
-0---
--11-
01210
0---0
1-010
----0
-010-
0-0--
-0---
-00-0
---0-
-0-0-

Generation = 3, Population = 39.
-0---
---10
-0111
-1-10
01-1-
00---
--32-
---0-
2-1-1
00-01
-121-
--1--
-10-0
0-10-
---1-
0--10

Generation = 4, Population = 29.
0-000
-----
0---2
--02-
-2-2-
-----
0-4-0
0-01-
31--2
-----
--3--
-0--0
-210-
-0---
-----
-00-1

Generation = 5, Population = 44.
--1-1
--01-
-01--
0-1--
0-030
00110
1-52-
-0-20
-2---
000-1
---10
011--
03-1-
01-0-
--0-0
011--

Generation = 6, Population = 45.
-020-
--12-
-12--
11--0
-214-
1----
2--30
-10-1
---1-
11102
--32-
-2200
14120
--11-
-011-
1--11

Generation = 7, Population = 43.
013-1
-02-0
----2
221--
0--5-
2-1-0
3--4-
-21-2
3-122
2-2-3
01430
-----
25---
0122-
-122-
----2

Generation = 8, Population = 30.
12--2
-----
0--13
--2-0
--1--
-----
4-5-0
03--3
422-3
-1---
--5--
--200
---2-
--3-0
--3--
-11--

Generation = 9, Population = 46.
2330-
-0-2-
-1-2-
22321
-2250
2---0
51--1
1-12-
--3-4
-22-3
--6-0
-2-11
--130
-142-
---20
12-1-

*** Life<FredkinCell> 19x13 ***

Generation = 0, Population = 60.
--0-----0----
------------0
-00--0-0---0-
---0---------
-----000---0-
-----0---000-
--0-0--0-----
---0---------
0------------
----0-00--0--
--0---0--0--0
0-00-----0-0-
0--0---00--0-
0---0-0------
-00-0---0----
-00---0--0---
--0----------
-----------0-
-000--00--0-0

Generation = 22, Population = 124.
-+-37----4443
---0---57-18-
-5+65-44226-3
--46-2-8--3-4
-56+-----9584
24-7-45----4-
4565----4-85-
---9-5---2-8-
98-4-7--78206
---5--54--2--
65-36-5+6--1-
95----77---+4
2---2733-59--
+-3-----24--5
-14--4258----
1---27846-333
53-55-8--33--
--2-55--55--6
-6-8--+7-2---

Generation = 44, Population = 120.
----++-+---+-
5+84++---+--6
-+-+-+--7--+8
-+-+--2+----5
---+---+-+-++
--++7-+---+6+
7-7+8-6-9-+-+
+---++5---8--
---5-+----+--
+-+-++-+++--9
--8-+++--85-+
--++-++++---9
-9+-5+87+-+--
+-+-++8-5+8--
-----9--+----
-+9+-+-+7++-8
+-++-9+--66+-
--95-+----+5-
++5+--+---+-+

*** Life<FredkinCell> 7x9 ***

Generation = 0, Population = 6.
0--------
-----0-0-
---------
----0----
------0--
------0--
---------

Generation = 10, Population = 22.
----2---0
-20--611-
1---1-3-1
-3-112--1
6-----2--
2-1------
1---1----

Generation = 20, Population = 21.
--2---2--
--2--7-55
--0-2----
--1---2--
+-6------
33543--34
--4-----1

*** Life<FredkinCell> 5x3 ***

Generation = 0, Population = 6.
-0-
00-
-0-
0--
--0

Generation = 3, Population = 6.
--0
--2
0-2
-1-
2--

Generation = 6, Population = 9.
0-3
--3
12-
-12
-10

Generation = 9, Population = 8.
--6
334
2-6
--2
2--

Generation = 12, Population = 7.
-19
33-
-27
0--
---

Generation = 15, Population = 6.
--+
--8
6-8
-4-
2--

Generation = 18, Population = 9.
0-+
--9
72-
-45
-10

Generation = 21, Population = 8.
--+
66+
8-+
--5
2--

*** Life<FredkinCell> 10x3 ***

Generation = 0, Population = 16.
000
--0
-00
--0
0--
0-0
0-0
-0-
---
000

Generation = 15, Population = 13.
---
--2
--6
---
447
-6-
5-4
1-4
46-
9--

Generation = 30, Population = 12.
+-+
-8-
+-+
5-+
---
+-+
+--
--+
-+-
---

Generation = 45, Population = 14.
---
+--
++-
+--
++-
++-
--+
-++
+-6
-9-

*** Life<FredkinCell> 7x18 ***

Generation = 0, Population = 65.
0----00-----0---00
-0-------0-0-0-000
--00----00-000-0-0
00-000-0----000000
00--00000---000000
0000------0-0--0-0
0-0-000--00--00-0-

Generation = 9, Population = 57.
3-1---------4420-0
3----2--43--3501--
42------524--623--
-46---4-0011---1-1
3-2-4-------352---
4--7---46-5-220---
-37-2--4422213--0-

Generation = 18, Population = 60.
7----6--3--6-7525-
5-462--78626-613-4
-3----3595-24--67-
-------42--83-5---
5--36-2-4-5--66--6
84-+--24--8--27-2-
-897-2-5--9---4---

*** Life<FredkinCell> 8x11 ***

Generation = 0, Population = 34.
-0--000-0--
0-----00-0-
0-----00-0-
000------0-
00--0-0-000
0-----0-0-0
--0--00-0--
0-------0--

Generation = 15, Population = 49.
---339-5-79
6--12342---
-1--2-632-4
-26-641-364
315-0-4----
--1---5--7-
2677-757-34
--12-348--3

Generation = 30, Population = 42.
8+----+88--
+-5-4+-+-78
-8-8--+--98
66-9+------
--+8---64-6
8-1+---8---
8--8888--9-
4--79-++3--

Generation = 45, Population = 47.
9+-+-+-+++-
-+-9-+-++8-
9---8-++-++
----++---+-
+-+++++8-+-
-3-+--+--+3
-++-+-+-8--
--6+-8-+9++

*** Life<FredkinCell> 10x1 ***

Generation = 0, Population = 6.
0
0
0
-
0
-
-
0
0
-

Generation = 20, Population = 5.
8
8
3
-
-
6
-
6
-
-

Generation = 40, Population = 4.
-
+
9
-
+
-
+
-
-
-

*** Life<FredkinCell> 6x13 ***

Generation = 0, Population = 38.
00-0--0--0-00
-----0-0-0---
0-00---0----0
--0000000000-
0----00--00--
0-00000--0-0-

Generation = 1, Population = 39.
11--0---01-11
-00-0-01-100-
----------0--
-0-1-111-111-
10--011--1-0-
1-1--1-0010-0

Generation = 2, Population = 38.
2--0100-1-0-2
--1-1-120-1--
--0000---0-0-
-1--0-22--2-0
----1--0---1-
20-0-201-210-

Generation = 3, Population = 31.
-1-12--02-1--
002------12-0
-----10------
0----13-0----
1---2-1-0102-
31--03---3--0

Generation = 4, Population = 44.
-202300131212
113-1012-2---
-00-0--0000-0
11----4-1-21-
---03-2--2-3-
-210-4---4---

Generation = 5, Population = 45.
--1-4112-2--3
2-402123--20-
01--1-0-11-0-
2--1-1522----
1---4130-3040
33--0---0510-

Generation = 6, Population = 37.
2222-22------
31---2---23--
12-02----2010
--0----3-12-0
-----24---151
-4101-0-162--

Generation = 7, Population = 34.
-3-3--32-22--
42---3--0---0
--013--013---
2---01----3--
-0-0-3--032--
35--241-2---0

Generation = 8, Population = 42.
-4--4-4333313
5------31230-
--1--10124--0
--01--53-141-
11-----0---51
4-1-352-3-20-

Generation = 9, Population = 49.
--23--5444424
--4-2324--4-0
122-321-3501-
2--20--42---0
-2004341-3262
55--4-31--3--

Generation = 10, Population = 38.
-4-4---5--5--
5--0-4--12--1
---143----120
310-115--1-11
1--1--52043--
6---55--3-4-0
