*** Life<FredkinCell> 47x19 ***

Generation = 0, Population = 61.
------0------------
-------------------
-0---0----0--------
------0------0-0---
-0-----0-----------
------0------------
-------------------
-----0-------------
----0------------0-
-------------------
-------------------
----0---------0----
0------------------
-------------------
------------0------
-----0-----0-------
-------------------
---0---------------
-------------------
--0----------------
-------------------
0----------00------
-----0---0---0-----
-------------0-----
-----------------0-
-------0-----------
------0---0-00-----
---------0----0----
--0-----0-0--------
-------------------
-----0-----0----0--
----0--------------
----------0--------
-------------0-----
-0-------0---------
-0-----------------
-----------00------
------------0------
-----0-0-----------
-------------0-----
------------------0
-----0-------------
-------------------
--------0-0--------
00-----------------
-----0-------------
-------------------

Generation = 5, Population = 387.
-0-01-0-0----------
--0--0---0----0----
--0-02--12-0-0-0-0-
--------1---0-0-010
0--1-210-1110---020
-0--0-1--02------0-
01--------10-000---
0-00-0------0--200-
020-0-111---01-00-0
-0---1--0---00---0-
0-----0-0-0--0----0
-01----0--12-------
00------0-00----0--
----1---0-------00-
-0000---------1--0-
-11--00-0-0--011---
1-0-0----0-00-00---
21---00-0001-------
----01-00-00--0----
-0--1-10-00-110--0-
0-00000-0--0-0-0--0
--1-1-00-12-1-0110-
0-00-11000---101-10
--10-00-0---2--00-0
001----0---0----010
-00-0-0------20----
00--0------123110--
0-00-2--00--10---0-
-0-01--0-02--0-01--
0---1--20----2-0-00
00---01----0010-00-
11-------1000-1---0
0--0-0--3-1---10-0-
-20---00---12-0---0
030-000-001-1100---
0301220-0-001100--0
-2--0-01---1--02---
---00-0-10101-0-100
-00-01---0--10--00-
-100---01-201-0---0
110--2--0--2-------
-20-02001-0-200-0--
-1---10-00---00----
-0001------01-10--0
2-4--1---0--000--0-
----00--1-0-------0
3-0------0---------

Generation = 10, Population = 401.
--1-4210-0--0101111
1----1101----1---2-
12-1-5----1---1-111
---143-030-0--1----
2--1-53-24-2-----30
-10-0-40---12---01-
120-2-0-0---0210---
1--2---1-1-0-214---
04---0422---3-10---
-----------01--10--
-01------1---3-----
1--1--1---3-32-2-10
-1-0-10-3----1----0
001132--312-2-100--
-1102--01------00-0
12-0-52-----0------
--2-11---20-2-----0
---0-0---12--1-----
0-0-----0--14-30---
----1-2-----4-----0
--1-1---3--10---0--
-11--0--42-3----210
0-2-----2-20---4--1
--2-0---21--------1
122-10-024-0-42202-
-20-120------5-012-
2-2---1--0---3-1--1
---1----2--2-11---1
2-40-212-15-41--42-
5-1---0--2--02--10-
11-11-34-2-------01
----0--1--22--2--2-
2--100013-2-3121-2-
--1-----132-3-01---
14-2----0---4-0--21
---2271-5-1-----111
-3-2121-30-2---2-12
--111-303-2---1-223
10101--111202-14-0-
-3023-22-------1--1
22---3---114-2001--
031-33-03-0-----000
3-1--20103---------
--313-1-2-2--12-2--
3--034401--2-00---1
121----32--1--200-1
---0-40-1--01---0--

*** Life<FredkinCell> 45x20 ***

Generation = 0, Population = 75.
--0-----------------
---0------0---------
-0---------0--------
--------------------
----0---------------
-0--------0---------
-----0--------------
------00------------
--0-------------0---
0-------------------
---------00-0-------
---------------0----
----------0------0-0
0---------------0---
-------0------------
-------0------0---0-
-----------0---0----
--------0-----------
--------------------
-----------------0--
----------------00--
-0-----0-0----------
---------0----------
-------------0------
--------------------
--------0----------0
--------------------
---------0----------
0-0------------0----
---------0-0-----0--
--0---------0--0----
--------------------
------------0-------
-0------------0--0--
-----0---0---0-----0
-----------0--------
-------------0------
--------------------
--00----0-------0---
--------------------
-------------0-----0
0-----0--0----------
0-------0--------0--
------------0-------
-0---------------0--

Generation = 2, Population = 247.
010-0------0--------
-1---0--0---0-------
--110----0---0------
-1-0----------------
-10--10----0--------
---0--000---0-------
--001--1--------0---
00--00--100---------
1---00---00-0-0---0-
0-1---00-------0----
--0----01--00-0-00-0
-------------0--11--
-------0010----1-0--
0-0----1-------1----
-----0---000---0-0-0
0----0--10--0---0---
-------1-0-------0--
------01--0---0--00-
-----------0---001--
-0-----000-----0---0
---------1----01--10
---0-0-0-2-0-0---1--
-------1---0----00--
-0-----001-0---0---0
---------0----------
------0--10--0---0-0
0-0------------0----
-------010-------0-0
----0-------00-0-1--
-------0---0-0-0---0
--0-0-----0-0110-1--
-0-------0-0--0-----
--0--0---00-0110---0
---0-------01--11--1
---0--------10-0-1-0
-0-------1---00--0--
--00-0--00-1-0-00--0
-----------0--------
01--100---0---0---00
0-----0--0----------
1-00-------0---00--0
2-0-0--10--00-------
210---1---0--0-0-0--
1-----0--00---0-----
10-0----0------0---0

Generation = 4, Population = 223.
23--0-0----0--------
-3-1--11------0-----
-13----0-------0----
------10------------
1-------1-------0---
01-2-00---0---0-----
----------101-------
--00------01---0----
1---0-0---0-0----1-1
203-1-----1-----0---
------003----10-0---
------0----1--0---11
--1---1----1-11-12-0
0-0-0---0---0-------
---0-----0020-------
---0------00--00-1--
-------3--00---00---
00--0--1-0--0---0---
-------0-1----------
-------2------0---02
-----------100-1---0
-0-0-------2-0-----1
-----1-------1------
--------------------
0-0------------101--
-0--0--1---11--1----
--0------0--0--0----
-----0--------------
0-0-0-0----02------0
-0---0-01-----10-0--
0----10-00-0-3--0---
---------2-0--------
0-0-----1----1-00---
-0---1---102-1---011
-1-2-0--0---10--1---
-------0-------1----
---------0--02---0-0
11----1--1----1--0--
----300100---1---1-2
-----------10-------
-0-------1---0-2-1--
----01----0--0------
-1-1----1---00--00-0
--------0---0---0---
12---0--0--------0--

Generation = 6, Population = 402.
--20---000-0-0-0----
-3-10-1110--0---0---
11-2-01-10-0-0--10--
1---0--0000---------
31----00---00-11--0-
03-2022---20---11---
----1-1--1---11-00-0
1222--2-22--1-1-11--
3---2--10--1-1-101--
--5-3---1-3-1--1---1
1-2--10-52---3-0--1-
-0--0----01--1--12-1
1--1--31--2------41-
---10-1---1---11-101
-00--10-02-40--2-1-0
--1--1-2-------0-1-0
---1-0-51-00--0--10-
2----12--2-----0-2-0
-----0---31010--1--1
0--000-4---1-0--02--
-----0-1--11-021---0
-0-0-1-1-3-4-011-21-
0-01---1----13-010-1
---00--0----01-1---0
----10---0--1-1--310
--11--1---2---1--1--
0-----01--1-21121--0
---000-11--10-0--1--
0-0--0---0124-1203-0
------02--0010-210-1
0-00-----0021-2-0-00
--------1-0---01--00
01010----12-1322-01-
-------01--431-332--
130--21000-03---1212
0-----1--300--2--201
-1-10-1--21-2-0-2--0
3-101---0-------1--0
-31250--001-0--0-3-2
01--112----------0--
-0--110--1--02--11-0
--00--12----1--11---
41-1--2-31-1-0-1-20-
----011---0--0----0-
--10-011--0-10-00---

Generation = 8, Population = 222.
--4-00----0-----0---
0513------11------0-
---412----1-1------0
---------------1----
-12-------102----1-1
0-04-2---04-----1-1-
-02----3-----3------
1------2-------1--1-
--0-4---2-01---12---
---0--2---3---------
--4-1------1-----01-
-------1------------
--3-1----1-3-3-3261-
------12-03-----0---
-----1---4-----2----
-------4--2--012--1-
--01---5--------13-1
--------0-------2--2
---------31-1-------
--------------------
1-0-----113-----10-0
00---3-----6---31---
-12----1----1--2-0--
-----0-2------1---00
-----------13--1----
11------0--3-01-03--
-----0---1---1-----0
-0---------1--------
----0-000-3--1--2---
---1---4-------2-0-1
--22---1020-----22--
-------------0------
----2--------5-----1
0----3--13-----3--23
1----4--2--2-------2
---1-----5--1------3
112--0---------1-1-0
---------2-1-----0--
13345---0-300--0-5--
------------1-------
1----3--1--204---1-0
--------10----------
6----02-5------31---
----2------0--------
--32-0--2----0-22---

Generation = 10, Population = 394.
4---2-201-----0-0-10
-53320--12--00-02---
--441-202-31--0-1---
-3---1---1-1-0--11--
432--3-010----22-1-1
032612-22--01-0-1---
12-1-1--13-13---20-0
------4------1---31-
510----22003111-----
20--51------1--2--1-
1-4-1-2-5-1----12231
---0-0-1--------3---
1----142---3--154--2
----20-4-25011-2----
----1--1-6-----4-110
-----216--22-2-2-1-1
01--10---12-0-1--52-
------31-----0-1-3-4
0--0-----5-11-0-----
10---1--1--1---0---3
-1--0-0-31-20-3---2-
0-1--3---4-------3-3
--4301--1--0150-2---
---0---411--1213---2
-10--2-1--1-5031---1
3332-122-14-20--2---
---01-110-3033--31-0
10-----232-1--001--1
---00--221-261232402
---------1-0---2----
01--1----2-41-304-1-
0--1-0-124-1---1-11-
2--2-000-32----41---
2-0---1--5153---5---
-4-31632-11----2---2
11-----00-2---32--2-
-1-1-0-0--1-33---3-2
---1---0---3-0-0----
--3471---1-2-21--7-3
--------0-13--0--0--
12--23-1-11-261-2---
----1-34--1-3-------
----0-407-1201153-00
--1---3-0----1------
-45-10-3--11--04-10-

*** Life<FredkinCell> 43x15 ***

Generation = 0, Population = 65.
----------0----
----------0----
-----0---0-----
---------------
-------------0-
-----00------0-
-----------0---
---0-------0---
----00---------
-----0---------
----------0----
----0----------
0------00--000-
---------0-----
00--------00---
-0-0-----------
-------------00
--0-0---0-0----
------------0--
---------------
----0----------
---------------
-0-0-----------
--0------0-----
---------------
0---0----------
---------------
----0--000-----
---------------
0-------------0
---------------
-0--------0---0
---------------
---------------
--------0-----0
----0----------
-0--------0----
---------------
--------0------
----------00---
--0------------
0---------0----
------0--0-----

Generation = 8, Population = 163.
--0-30-----04--
--0---1-----11-
----------2--6-
----0----------
0------23--214-
12---2----1--20
01-0-----------
-0-0-----------
-21-------1-2-1
-21-1---0----2-
--1--3---0-----
--1---------0--
0--2-21-1304-54
-2---31--------
-11--31-02--0--
--2--4---------
----0-3-11-----
-----1----1---2
----1----------
-------002-----
2-2----15--1-3-
2--------0----1
30-2-6---31----
-0-32--------01
-------------11
----2-1---1-0--
--------0---1-1
451-2-------312
-3--1-----0----
---------------
-1-1----2------
-----20-3-202--
--1------------
----0-----2----
1-------21----3
--2-1--033--1--
--1--25-----0--
----------4---1
1-2-----------2
-011--------5-2
----2---4-1----
--4---1-0---2--
3-------3-3--2-

*** Life<FredkinCell> 44x17 ***

Generation = 0, Population = 87.
----------0------
0---------------0
-----00------0---
-----------------
----0----0-------
--000-----------0
---------------0-
----0------------
------0--0---00--
--00------0-----0
-----0-----------
--0-0------------
----0-------0-0--
---0--------0----
--0----0---------
-----------------
----0-00-------0-
-------0---------
-----------------
--0--0-0-----00--
--0-------0-0----
--00---0---------
---0------00---0-
-----0----------0
00--------0---0--
-----------------
-----------------
---------0-------
--------------0--
-----------0-----
-----0--------0-0
----0----0-------
-0---------------
------0------00--
----------0------
-----------00----
-------0---------
-----0-----------
-----------0-----
----0---------0--
-------0----0----
----------0-00---
----------0------
------00-0-------

Generation = 8, Population = 233.
--1---4--0---4002
----0-1----------
12--0----0----1--
--0-4------------
-11-352------12--
6-3-0---2--1----0
--0-------20-----
--2---------1----
01--32-3--2-5430-
4-413--22--1-----
-3---11----------
----60-0--2-200--
------1--30-4-2--
---0---0---1--4-1
---21------2---2-
----20----------0
-30---41-1103302-
--25------0----10
-----1-----------
-04--63--32-2--3-
--0-4-----2-0-1-5
----2-----2-1--0-
-----3--------21-
-2--2---002--2---
-35-452121--3--53
------10-----21--
----------2------
-10--1-2---3100--
--0---11--0------
--1--0-2-------4-
-2-2--1-0---40-0-
-11-05------1-2-1
00---1-3-11-0-3--
0----11---1---1--
--1-------0-----3
---01-10------10-
--------------03-
-2----12-2-1-1---
---1-0----0---102
--2-0-3--30-23---
-2--0--3----2-13-
--0--21-------1-5
--0-------32----1
23---5-----01-51-

*** Life<FredkinCell> 40x10 ***

Generation = 0, Population = 66.
--0---0---
-0-0---0-0
------0-0-
----------
0-00----0-
----------
-0-0--0---
-0-------0
----------
0-0---00--
------0---
----------
--0--0----
-0------0-
----0---0-
----0-----
0--0-0----
--------0-
---------0
----------
----------
------00--
-0------0-
----------
---0------
---0-00---
----------
--------0-
0---0---0-
----0--0--
-0----0-0-
---0-0----
-0------0-
----0-----
--------0-
-----0-00-
0-00------
---------0
------0-0-
----------

Generation = 4, Population = 156.
---0------
-------0--
-1-32---0-
-0-------0
0------10-
0311--1--0
-40--3-00-
-1-----1--
0--2-1--1-
10-00-1-31
-1102-1-0-
-0--1----1
-0-3-13--1
001-3020--
0---1-0--0
1-------1-
-3--32-2-2
-1--2-01--
-1--10-2--
----0-----
1----1----
--0--31-00
-0--11--11
--------0-
0---0--10-
-00-2-11-0
------0---
---032--2-
2300----4-
0---210-32
-01-10----
-0---0---0
-211-1----
1---1--001
-0--0---4-
-0--32--0-
124-1-001-
----12-1--
--2-2-0-2-
-----0-000

Generation = 8, Population = 176.
01-13-----
030---11--
1-054---2-
----------
4-44-1---1
---5---011
1-1233--2-
-2-402---0
2-13-20---
10-415-2-2
1-------21
----------
31332--22-
2---3424-1
2-132-1---
-11-----20
-5----1414
--3330-2--
-5-1--3---
--------2-
3-3-13--2-
31--15311-
10---11--1
---224----
00---2--01
21-36-1331
--------41
1---43-16-
---22-1---
--1--32143
-0--34---0
-1-0---2-0
0--233---1
--03-01-2-
1---0-0-6-
21--44-301
--6---2--1
-3-356--1-
-3--4-----
---220----

*** Life<FredkinCell> 48x13 ***

Generation = 0, Population = 61.
--0----------
0----------0-
--0---0------
---------0---
0------------
-----0-------
----0--0-----
---------0---
---0---------
----00-----0-
0------------
-------------
-0-0---------
-----0----0--
----------0--
-------0-----
-------0-----
----0--0-0---
-0--00-------
---00--------
----------0--
-------------
-------------
-------0--0--
--0--0-0-----
-0---00---00-
-------0---0-
-------------
-------------
------0---0--
--------0----
-------------
-------------
-------------
-------------
-------0----0
-------------
----0-0---0--
----------0--
-------------
-------------
--0------0---
-------------
---0--0------
---------0---
-------------
0---------0--
------------0

*** Life<FredkinCell> 43x19 ***

Generation = 0, Population = 71.
-------------------
---0----0-------0--
---0------------0--
---0---------------
----0----0---------
--------0-----0----
-------------------
-------------------
---0------------00-
--0-------0--------
-------------------
---------00--------
---------0---------
------------------0
-0-------0---------
------------00-----
--00--------0-----0
-------------0-----
----0----0---0-0---
----------0--------
--------000--------
-------------------
---0---------------
----0-------00-----
-------------------
-------------------
-------------------
----0--------0-----
-------------------
-0-----00--------00
-----------0-------
-------------------
-------0-00--------
--------0----------
-----0-0-----------
--0------0---0-----
----------0--------
-------------------
---------0--------0
--0------0---------
--------------00---
-0-0--00-----0-----
----00-------------

Generation = 2, Population = 225.
---1------------1--
-0-2-00---0---0---0
-0--10---0----0---0
-0-2-0--------0-1--
--00--00---0----0--
---0--0---0-0---0--
---00----0------00-
--0-----0-0---0----
-0---0--------01--1
0---0---010-0------
---0-----1------00-
--0----01-210-----0
-0-----0-2-0-------
---------00-00--0-0
--1----0-0-01-----1
----------01-210--1
0----0----0--1000-0
----------0002-1---
---1--00100-12-0-00
--------1---01-----
---00-01200100-0---
----0-----1-00-----
-0---0--000--------
--0---0---01--10---
---0---------------
------------0------
-------------------
-00---000--0---0-00
-----------0-------
---0001--10--0-01-2
-------1--1--0-----
-0-----1---------00
--------12--0------
--0---0--01--0-----
---0-0-------------
0---0--11------0---
-----0-000--0-----0
-------------0-----
-------0--10--000-0
01-10-0----0-0-----
----00---1--00--100
-0000---1--0---1---
--002201------00---

Generation = 4, Population = 206.
---31----0------1--
---41--1------2-2-2
-------0----0-----2
-------1-----------
0--2-0--1----0--01-
--000---0---0---0-0
---0------------0--
---0-----10--------
----0--0----11---21
0-------2---------1
-0-------3---------
-----01-----2-0----
--0--0------11--100
--1-------2--21-0--
-1--0----2-----1---
--------0-------01-
0-----10--0---2----
---------0-------10
00-1-1--3--1-4---2-
----1-0-------1----
--12002------20---0
-------------0-----
----0--1-0---1-1---
0---0----00--2--10-
--------001--------
-0-----00--------00
---0-------1-------
1---0---21--10---2-
-------1-10--------
-0-200--2--0120-31-
-----1---------1---
--1-0----1---------
---0-01---11-00----
-1--0--10---0----00
-0-0--------------0
0-0--11------0---0-
------00-21----1---
-0-0--001----0-----
----10-0-----12-2--
2-0--10--2---------
----22-----1------2
--2--12--010-1---1-
00------0-----20--0

Generation = 6, Population = 368.
-013110--0-00-1-3--
-11---23-1--1-2----
0---3---1-0--11-214
--0--2-300--1-1----
011--01---000-1-0--
112020-1-10-----0--
00-01--01---1-0-2--
001200-11--1----1--
-000-11---11--1---1
0-00-0---2--1-0-0-3
--1001-----0----1--
0-101--1----41----1
0--1---1--12---11--
0---110----10--1-02
1--1-1----001-0-1-1
--0---1--0---2-023-
--11----0--1-3-120-
----0-110--1--11-12
-2-11-1--0-1------1
--1-3-2-20--13--011
--3-2-2--0--1----10
0-----1--110-00100-
---12--11-1---01-10
01----0-----243--2-
---01-0-021-01-0---
---1-01-00--0--0--2
-1---0-101---1-----
1--001-----132--1-2
---1---101--0--0---
10---0-122-2----533
-----31--1-1--0--1-
0-11011------11-0-1
----0--0-2-3-2--0-1
1-110-0------010120
-2-----1-0-0-1000-2
--0-1-111--010---00
-1-1-----4-10-1-110
-0-00-0-3-10-2-1-0-
--103-----2-1-4-2--
-2---3-0-21------0-
1001441-01-----1---
--22-14-----01-----
-201331-0-110042-00

Generation = 8, Population = 224.
---3------------31-
0-14------00----3--
---13---30-1--3----
---------210-------
-333-----1--0---23-
3--2--2-2-------0-0
-2-------0---------
------------00-----
--0-----10-1233---3
--221---3-1--0--2-5
---02----4---1-13--
-010------4------11
-1--1---1-3------0-
--------0-3-0-2----
-2-1-3---2-------0-
-----0------04---31
-----------31---421
--1--0----2------1-
-21--1-0----2--2---
--3-3----22--5----3
115------0------130
-1-----00--------2-
-1-3-----2---------
--1-11-------6---40
--10---0-43-2-----1
--------2----1-----
----00-3-1---3-1---
-----1---11-52---2-
--------21---------
3----2----0-12-17--
---------3--------1
--3-2----1--11-----
-00-----------2--11
13-1--03-----2--1--
-2--00-------3-2---
-1---2----1--0-----
--1-10------------0
---2--0-3----2---20
-1--------211-41-1-
-41-1----21------0-
------1---0----13-2
1--4----12-0--02-2-
-42--5-2--3-22-----

*** Life<FredkinCell> 43x16 ***

Generation = 0, Population = 92.
-----0---------0
---0-------0--0-
---00------0---0
------------0--0
0-0------0-0----
-0----0---------
-----------0----
---0-0-----0----
-0--0-----------
--------000--00-
----------------
-----00---0-----
----------------
----------------
-0--0-----------
------0-0-0-----
-----0---0--00--
-------0---0----
00-------0-----0
-0-------0--0---
----------------
---------------0
----------------
---0-------0----
----------------
-----0-----0-00-
----------0-----
0----------0----
----------00----
-0----0--------0
----0--0--------
---0-------0----
---0---0-----0--
----0-0--0------
--------0------0
---0--0---0-0---
----0-0---0-0---
-0--------------
-----------0----
-0--------------
-----0-0--------
-----------00---
----0-----------

Generation = 6, Population = 343.
--0---1-00-----4
-4--0---11--12-5
2-0-2-----1-----
-203---021-2-3--
2-2-0--2-1---2-1
0--013--2---1--1
111--1-100-6----
--02----1-----00
13-20-11-203-1--
---2-------2-3--
---04-0-10-30---
1-----23211--021
-20-401-1101--1-
---01113--02-1-0
---20-2-020102--
1-305-1-1311101-
--0--210001--1-1
-200123--023--0-
20--0---0---21-1
-2--1----1-01322
1201-----3-1--0-
1----200-10----1
0-10-1-1102----2
1-10-000-2----24
11--0-110-0-0011
000--1-0---01---
--1120--10210130
12---222-----1-4
01-1-1211-4-3220
----3-----0-0---
301-01-10----002
--1-----0-1-13--
00022-3-33--2-1-
00-0--1-0-11-303
1-0-1--5---031--
--311-2-22-32--1
-00011-01--132-2
----0210-02-30--
00--------21210-
-2----1-102-2-00
10-2---0-43-210-
-2--------2-2-21
-00-----11--00--

*** Life<FredkinCell> 48x20 ***

Generation = 0, Population = 85.
----0---0--------0--
----0--------0------
-------------0----0-
---0----------------
-0------------------
------0-------------
--------0-----------
--------0-----------
-0------------------
-0-------0--0-------
--0-----------------
--------------------
----0----0--0--0----
--0---------0-------
--------------------
------------------0-
-----------0--------
--------------------
--------0--0---0----
--------------------
---0----------------
---0----0-0---------
---0----------0-----
---0----------------
--00-0-------0------
--------0-----0-----
-----0-0--00--------
-0--0----0----0----0
-0-0----------------
---------0----------
------------------0-
-0------------------
-----0--------0-----
---------------0----
0----------000------
--------------------
-0----------------0-
-----------------0--
--------------------
-----------0--------
---------0-------0--
----------00--------
-------------------0
-0---0---0---0------
0---0--------00-----
---------------0----
--0-------0---------
----0------0------0-

Generation = 7, Population = 461.
-------031-0-1-11223
300---000---0---0--2
22-0---2-2------0---
-3--12-21---1-0002--
-00-12--1-----1-010-
2-2-201-01----2--0-0
10--202--23-4--0-20-
02-231-02-0--0--100-
1--12-003022--2--110
1-1-2-41-02-1--1-000
21-000--14-0-----00-
-030-0-----0-2--2-0-
---0012-0012--30-211
-11130210-----201010
01--11--2-22-1-0-10-
1--2------10---01---
0-01-0---31-40--0-0-
12---11-20-01-0-0---
---34-2--335113-200-
-1--1-11--2-0---100-
131----220002--2-0--
0-22-----000200000--
-1--0--2-01----12---
---0-2-----110------
--202-41-0---0120-0-
--2--200---1-21-1---
123--0--121------0--
-32-20----2-012----2
-31-13--0031-310----
20---123120-1-322-21
21-2-----001-4-10-00
---12220---02-3-----
2113-0-10--103--1-00
03002---0-0-02-2-3-1
-2312--3--1---2-2211
--0-00-000--0--301-0
--211----1-0--000-3-
0--001-1--2---00-0--
-0--12--0----2--0---
------1--2--0-----0-
---0---1--1-----001-
-20-00--20-23-2-23-2
12---10-011-1--2--00
--1---0--0-0-2----1-
1--0--00--3-302---01
1-1----1---3---0-1--
30---0--00---------3
-42---1-11-1---3-0-1

*** Life<FredkinCell> 50x16 ***

Generation = 0, Population = 82.
---------------0
--------0---0---
---0---00-------
----------------
----------------
-----0----------
-0---0---0--0---
---------0------
----------------
----------------
----0-0--0---0--
-0---0-0--------
----0-----------
---0------0-----
----0-----0-----
------0---------
-----0----0--0--
---0---00-0-0---
--------------0-
-0------------0-
-0----------0---
----------------
----------------
------------0---
------0------0--
--------0-------
--0-------------
----0-----------
-------0--------
-----------0----
--0-0----0------
--0----0--0-----
--00------------
--0-------0--0--
----------------
-----------0---0
--0-----0-------
------0--0-----0
---0------------
---0------------
----------------
--0---0------0--
0-0--0---------0
--------0-------
---------0----0-
---------------0
---00--0--------
----------------
-------------0--
----------0-----

Generation = 1, Population = 246.
--------0---0-0-
---0----10-0-0-0
--0-0-01-0--0---
---0---00-------
-----0----------
-0--010--0--0---
0-0-010-0100-0--
-0---0--010-0---
---------0------
----0-0--0---0--
-0-0-0--0-0-0-0-
0-0-0-0-00---0--
-0-----0--0-----
--0-0----010----
-----00--010----
----0--0-----0--
---00--00010--0-
--0-00011-1---0-
-0-0---00-0-0010
010---------0010
010--------0-00-
-0----------0---
------------0---
------0----0----
-----0-00-----0-
--0---00-0---0--
-0-00---0-------
--00-0-0--------
----0-0-0--0----
--0-0--0-00-0---
-01--0-00--0----
-0--0-0-0--0----
-0110--0-----0--
-01------0-00-0-
--0-------00-0-0
--0-----0-0-0-0-
-0-0--00---0----
--00-0-0--0---0-
--010-0--0-----0
--010-----------
--00--0------0--
0010---0----0-00
--100---0----00-
0-0--0-0------00
----------0--0--
---00--0-0------
--01100-0------0
---00--0-----0--
----------0-0-0-
---------0-0-0--

Generation = 2, Population = 226.
---0---01----0--
------0-------0-
-0----1--10----0
-----0--1---0---
-0-0-1-000--0---
---0---0-1------
----------11--0-
-----1-0---0----
-0--000-----00--
-0---0-0-1------
--0---001------0
---0-0-0-10-----
--0------01--0--
------000---0---
--0-011-0-2-00--
----1--1----0---
---11--11-210-10
--------20--0---
-1---0----1--1--
-------00-0-----
---0------0-----
-1----------1-0-
-0----0-----10--
--------0-0---0-
--0-0---1--0---0
----0-1---0-0---
0---1-00-----0--
--1---0-0--0----
----10----------
--1-1--1-11--0--
0--00-0----1----
0-0-10--100100--
012--0---0------
0-2-0--00-0-1---
---0----0-------
--1---0---1--0--
0--10-1---0-----
---10--10----0--
-01--0--0-------
-01--0---0---0-0
0-11-0---------0
1--1-------0---1
--211--0-0---110
--1-------0--0-1
0-0000-----00--0
--------0----0-0
-01---1------00-
----------0----0
---00--0---0---0
--------0-0-0---

Generation = 3, Population = 403.
--0-0--120--0---
-0-0-01-100-----
0-0---21-2100---
---001--200010-0
0--1-2--1-0010--
-001010102-00-0-
---0-1----2-00-0
-0---20-0--1-00-
01001-10-0--110-
01---1-10-0-00-0
-----01-200---0-
--0---010--0-0-0
-0---00----0--0-
----0------010--
-0------1---110-
--0----20-----00
--02-00--03-1-21
-0-000---11-1-00
0-0-0-00--20--1-
-1-0-0011--0-0--
-10-0--000100-0-
0200--0---0020-0
010--0-00-00-10-
-00-0-001---0---
-0--1000200-----
0-00--2-00-0---0
-0002-11--00--0-
00-0--10-00-00--
---0-1-00000-0--
00-0-----22-0-0-
101110--0-02----
-010---021-2-10-
1-3101000100-0--
1030--01-0---0--
0-0---0-10--00--
00-0001000200-0-
-0----2-0010----
00-----2-00-0-0-
0----10-1------0
--2-0-0---0-0--1
10---10--0-0-00-
201--0-0-00-00--
00-2200----00--1
00-0-0-0-----10-
-----10-0--1100-
00-00000-0-0-101
0121-0-00-0-0-10
-0000-00-0---0-1
--01100---0---01
---00------0-0-0

Generation = 4, Population = 219.
---0---23--0-0--
----01----------
-0-000-2-3-1---0
---------1------
---------------0
-1------13--1---
---10-00--------
-1-----0-----1--
----2-----------
---0-2----1-----
000-0---3---00-0
---0-01----1----
0----1--0-1--0--
---0--0-0-1-2-0-
0---0---20---2--
--1--0-3--0---1-
----1-1-----2-32
----1-012-202-1-
----1---------2-
-2---11---0-0-1-
-2----0-1-2-----
---1---0--1-3---
--1-----------1-
-1--1---2-----0-
-10----1-11-0--0
----0------10---
0-1-3-2--0------
1-1----10-1-1---
--0---0----1-1--
--1----10-3--0-0
--2--10-1----0--
0--11---------10
2-4---1-1-------
2-----1----0--0-
--100----1------
--11------31-0-0
0-010-3-----0---
--0--00----0----
1-1--2-0-------1
-------00--0---2
--1-----01----1-
3-2-------1----1
112---10-0-1-1--
---10-------0---
-----2----0---1-
--0---1---01----
--32-1-11--0---1
--------0-0-----
-------------012
------0-------01

Generation = 5, Population = 374.
--0--003400---0-
-0-0--1-10---0-0
0--11----4--0-0-
-0-001-02200----
-0------1---1-0-
0-010-0-2400-0-0
--021-1--1--00--
0-00---10---0-0-
-1-----0--0--1--
01----0-01-000-0
1-1--010-00-11--
-0--0-21-------0
-0--02001-2-----
--0------02----0
-00---1--12---0-
00-01-0----00-2-
--0220211---3-43
---0----3-3-----
-1-02--00--0-1-0
030--2-1101---20
0300--10---0--0-
-2--0----02--00-
----0--00-0-1120
0200-0----0-001-
0-10--0-222010--
00-01020---2-0-0
1-2-4------0----
2--00-1210-0----
00-0-1-0--0-0200
-0-0-002----0---
103--210200-01--
10122---------21
----012--1-0---0
30-00021000-10-0
00-1100-1----000
00220-1---420---
--121040--10---0
-0--------0----0
--210301------02
0----00---0-0--3
1021-----2-0-0-0
40-1--0000---0--
----2021--0-0-11
00-21-00-00---0-
--00-----01-10-0
-01--0--00--0-01
-1-3--12-0010-1-
--00-0--1----00-
------0-0-0-012-
-----0-0--------

Generation = 6, Population = 360.
----011-5110----
--01--20-1------
-002--220----0--
-1--12-133-11---
-1---20--0-0-0--
-1-2--1--5-1-10-
-01---2-02-----0
-1------1-011--0
02-0---10---12-0
------1-1--111--
2--0-1--3-10--0-
-1-01-32-1--000-
01-0--112030----
-01000-0--30----
----01202---121-
1----0--00-1----
0-1-3-3--03-4--4
-0--1001----201-
-20-3-0-1-2---21
---0--122-20----
--11--2---2-0---
-3--100--1----1-
0-1-1-0110-----1
--1-1--0---01---
---1-0113-3121-0
11--2-31-0--01--
-0------000-00-0
-----023-111-000
----12-----1---1
0-11-113-2-0-000
---1--21--1--2-0
-12--0-02-020-3-
--4112---20--0--
--------11102-0-
1112-1102--00---
-13-1---00-31-0-
00-32-51002---01
0-0------01-----
1-3--4121---0013
1----------0----
21--01-0-30-01-1
--22---1---0-1--
---2---2-01--1-2
111--0----10--11
00---200-1---1-1
0--00---110--1--
02-41123-----0--
--1---0-2--00-11
--01-0-01---12-2
----0-0---0-000-

Generation = 7, Population = 397.
--0-1--362-10---
------3--2-0-0--
0-1------4-1--0-
0---2---4---20--
0-01--------11--
0-0-0--1---2--1-
012--13-----00-1
---0--0--11---0-
1---2--210002--1
-1-----1-1--2--0
--110-1-402-1110
02-120---2011--0
120-0----14--00-
---11---0----00-
000----1--202-20
201-110---0-0020
10--4-4---415---
-1002--2-1-0---0
0-1040--2-3-0--2
-301-22---31--20
--2-----1-30-00-
--0---1--2--30--
-12--0-2--001---
02202-0-20------
01---12-4242----
2-0--0---10-120-
-12-40-11--0-101
-0-----41-2-1--1
0-0-230-----0-0-
--2-1-2---31---1
103212-2--22-3-1
12-2-10-311-1---
------201-100-0-
30--0-2--221-0-0
222312--31-110--
02--2--01-4---1-
---4--6-1---00-2
-01-00--0--000--
--4105--2-0-1--4
--2-0-0-00--0-0-
-2--12-1-41-1---
4-3--00-0-1-0-0-
11232023-1-10213
-22-11---0-10122
1--0---102111212
-01--0-022110-01
-33-2-341001-1-1
0-20001-3001--2-
-0-21--1-00-2--3
--0--0--00---11-

Generation = 8, Population = 257.
-0---1-4----1---
0---01------0---
1--21-2--5-2-0-0
-1---2-1--------
---20--01-------
-1-2----2-0-11--
-----2---22-11--
-1----1--------0
-----0----1--2-2
---0---2--1-----
2022-1-05--02--1
-----1---3---001
-31-------------
--12-0-----0--1-
-1---1---1----3-
3--------0--1-3-
-11--05----2--4-
0-113---3--12-11
--2-5----04--1--
-4--0-32-04-----
-----0-0-0--0---
---1------20----
--3------01-----
--3-3-10--0-1---
1-11------53-10-
3-10---10---23--
----5-----0---1-
-11--------12-02
-01-----0---1--1
---1--3--2---0-2
-1432-----3-0--2
--232-----2-2-31
---11-3---21-0--
----103-1-32-10-
3----3---------0
---23--120---0--
0---2--1-02---0-
01-----2-0-1--0-
--5----2-0-0----
--31---0--00----
--21---------1--
5-4-01----20-11-
-2--3-34021--3--
1---------12---3
-00---0-1-2--3-3
------11-------2
--443--5---20--2
---1-----------1
-----0---1-0--2-
------0-1----22-

Generation = 9, Population = 373.
--0--2--6--120--
1------0-2--1--0
2-13----0---0---
--0-2-02-3-1-0-0
--0-1-0--00-11--
0--3-1--351---1-
---21----3----01
0-0--2-1-1--1-01
-2-02--2-0202--3
01-10-13-12-21--
3----2--6--13--2
0--12232--01-1--
14-------1-0-0-0
-0-3-10--03-2020
---0022-222022-0
-01---0-010----0
12---161104350--
-12---02----30-2
0-30-000-------2
0--1124--1-100--
-3-1--21-13--0--
----10-0-2-1----
-14-1-02112-1---
02-0--212--0--1-
2-2---2-42-4--10
4-----3211--3-0-
11---0-110----2-
2--00---1--2----
0-----00----2---
--22-1-3----0---
125--22---4-1---
----310--1-2314-
----2240123-0100
3----1--------1-
-2-314-0-101----
--33--1-----1--0
1---306-113---12
-2--0-0---120010
1-6---1--10-1-1-
-04-0-010-1-00--
223--2-1----12--
-052-2-10--1-221
1--3404---2104-3
-22-1--0--230-24
-110-211--3-1---
-0-000----11010-
-35541-61-03111-
---2-0-0-0--0--2
---21-------2-3-
-----------003-1

Generation = 10, Population = 375.
00-01-1---123100
20-1-13---0---0-
3--4--22-5--1---
01-03--3440--1--
0112221--1-02--0
-1-4---14--21-2-
----22-0----111-
-1-00--2----2--2
130------13-3--4
-----22-1---320-
----0310--2--11-
--02-3-3--12120-
--1-0--122-10-01
-1-41--0-1-----1
-----33-----3-3-
--2-11-31-11--31
231-42-2215-6-4-
0----013-13----3
12--5---20-0--23
1--2-3522242--20
---200---240-10-
--0--1--0----0--
--5020--223--12-
-----03230-1-02-
-1---1--5--5-121
--1----3-20-----
2220--2---000131
--111-242-2---0-
101-2-1-----32--
---3-2-40-31-0--
2----3-----2--0-
1223--1--2-3-2--
2--1--5--341-2-1
---01---1--22-2-
--2---1--2-2--00
0-4-302-2----0-1
--1---7-2------3
0--110-2002-1---
--71-5---210--2-
1-5--0-2102-1---
3-4--30-0-1--3-1
5-6-0-0-10-2-3--
-22-515402--1---
----21010034113-
122-----12-----3
0--111--2222-2-2
0---52--20-4-2--
-0---1-13-----2-
--0-2--1-1---2-3
---00-----01142-

*** Life<FredkinCell> 45x12 ***

Generation = 0, Population = 58.
--00--------
----000-----
-----0-----0
-0---------0
------0-0---
---------0--
--0---------
-------0----
------------
--0---------
----0-------
------------
------------
------0-----
----00-0----
----0-------
---------0--
---0--------
---0----0---
------------
--0-----0---
---0--------
------------
------------
------------
--0---------
0----00-----
------------
--0---------
----0-0-----
-00---------
------------
--------0---
-------0---0
-----0-----0
-------00---
--0---------
--0---------
------------
------00--0-
-00-0-0-0---
--0---------
0---------00
------------
------------

Generation = 6, Population = 255.
-24---131-0-
-2---3-2-01-
00--01-21212
12---3--1-0-
0-030--00--1
1-01-12-0--3
0------1-012
0121010--0-1
--2-1--0--00
21103------0
---013102-0-
1-21-02---0-
-00--0--10--
11--00-0----
0-11-4110--0
2-1----1----
-1-1-000--1-
01-------0--
0-22001111-0
------------
---14--0---0
01-------1--
-112-3-1-10-
1-0-0--0----
2-0111--01--
11---10-----
--0-5--22--1
---01--01-10
33---13-31-1
3-0--112--20
1---3-1010-3
0-0021--2---
-1---110---3
01011--0--02
-12-00---1--
1132--3--2-5
2-212100--1-
----10----00
---1-130--1-
10----011-1-
0----14--00-
---1------10
------40-3--
1-0-013--0--
21-0---10-2-

*** Life<FredkinCell> 45x12 ***

Generation = 0, Population = 78.
------------
------0--0-0
0-----0-----
----0-----0-
-00---0---0-
------------
------------
------------
---------0--
0----0-0-0--
--------0---
---0-0------
--0--0------
------------
-0------00-0
------------
-00-0-0---0-
-0-----0----
-----0------
-0----------
0-0--0------
------0-----
-0--0-------
0------00---
--------0---
------0-----
--00-----0--
---------00-
------------
--0---------
0----------0
---0--------
--0--0-----0
0--0-------0
-------0----
0-0---------
0----0--0---
---0--------
------------
0-0---------
-----------0
------------
--0----0----
-0------0-0-
------0---00

*** Life<FredkinCell> 41x16 ***

Generation = 0, Population = 85.
------00------0-
------0---------
----------------
-----0--0------0
--0-------------
----0-----------
---0------------
--------0------0
--------------00
-------0----0---
-----000---0----
-----0---0------
-0-0-----------0
----------------
--0--0-----0----
0-0----------0--
-------0-------0
-00-----------0-
----------------
------------0---
---0------------
-0--0-------0---
--------0---000-
-0--0-----------
----0------0----
------------0---
-------0-0---0--
--0000-------0--
--0--0---0------
0----00-------00
----0-----0-----
----0-----------
---0----0--0----
------------0---
-0--------------
----------------
---------0-00---
----------------
----------------
---00--0---00-0-
0-0-------------

Generation = 9, Population = 335.
110--3---2-11-0-
112---510-0----1
---0-2-5--0--000
1--110--43122--3
-202300301-10216
--500-5---00-000
-242-42-01--0--1
-02--0---6--1-23
-1--1--2--632---
--21-----013--23
2-1--30-1-------
1014032--0--42-3
---004----2-14--
25--02-11-1-3-4-
1-21--00--11--1-
321-463-1----13-
-0-11001-30413--
---2-43---0--23-
--21----2---441-
---31-0-2-012-02
-31-----0----0-3
30---1210120306-
--21--14---05-54
32-531-0--0-2-10
0-31-3154-112-0-
15-----02---1---
---2612-----021-
14-33-1---42-311
40--4--1----260-
-1--501222-1--3-
00011--12-13-41-
2113--1---1-13-1
--6215-0---00---
0--03--0--------
--41-1-13--0-1--
2------420115-2-
-13--3-40-1----2
--022-21--03--3-
0-40----03125-0-
-----121--233---
1-124-21-0--22-0

*** Life<FredkinCell> 43x17 ***

Generation = 0, Population = 93.
-------0------0--
-0---------------
-0-0------0---0--
-----0--0--------
-----0--------0--
-----0-----------
0-------0--------
--0---0----0-0---
0----------------
-----0--0--------
-----------------
--------0--------
------00---0-----
----0---0--------
-----------------
0----0-----------
-----------------
0----------------
0-00-0-----------
-----------0----0
-----------------
--0---0-------0--
0---00---0-0-----
0-0---0---0------
--------------0--
-----------0-----
---0--0--------0-
--0--------------
--0-00-----------
0------0--0------
--------0--------
------------0----
-0-----------0---
----0---0--------
--------0--------
----0--00----0---
-0---------------
--0-0-0----0---0-
-0------0000--0--
--------------0-0
-------0-00-----0
---------0-------
------0-------0-0

*** Life<FredkinCell> 46x16 ***

Generation = 0, Population = 74.
--------------0-
----------------
----0-------0---
----0-----0----0
----------------
----0-0----0----
--------------0-
--------------0-
-----0----------
-----------0----
----------------
-0--------------
-----0------000-
---------0---0--
--0-------------
----0----0---00-
----------------
----------------
0---------0-----
----0-----------
-0---0-0--0-----
-0-0----0-0-----
0--0--------0---
----------0-----
-----0--0-------
---------------0
----------------
--0-------------
------0-0-0-----
----0-0--0-----0
0-0---0--0------
----------------
0------------00-
---------------0
----------0-----
----0-------0-0-
-------0--------
----------------
-----------0----
----0-----------
---0-----------0
----------------
----------------
---------0------
------00-0------
------0--0------

Generation = 2, Population = 219.
----0---------0-
----1-----0----0
--0---0---1-----
--0-2---0--110-0
----0-------0-0-
--0---0-001--010
-----0------0---
----0-0-----0---
---0---0------1-
-0-------0---00-
------------000-
---0-----0-0-1--
--00---0--012-21
-0--0--0-0---200
0---10------001-
--1---00-0--12-1
0-0-------0-----
---------0---00-
010--0-00-0-0---
-101--0-0-0-----
---1-0-0012-----
-2-2110-0---1---
0-1--0-01-----0-
-0-1------0-1--0
0-----11--1-0---
--0-------0--0-0
-----00---0-----
0-----1--0------
0-1-1----10-0---
----0-010--0-0-0
0-0---21--10-00-
----0-1--1------
------0--0001--0
----0-------0100
0------00---101-
--0---0---1-0-01
-----0---000----
------------0-0-
---0---0-0---0-0
--0---0---------
-0---0-----0-0-0
----0----0------
---0--00-1-----0
------11-2-0----
----01-200-0----
----0-201--0----

Generation = 4, Population = 236.
----2-----1-0-0-
----3-1----1----
0---------------
0-----1-0--3-2--
-----1--------2-
0-0----02-31---2
----0-----1-2-2-
-0--0---------20
-1---0---1--103-
----0-01-0-0-0-1
--0-----------0-
-0--10---0---3--
-0---0--1-2---21
-----0---0-1-2-0
------0---0-----
01--10--000--221
-0-----1--0-101-
-1-0----001--2--
2--01-1-----0-1-
0---1---010--00-
---1--0-01-1--0-
-2--1120----1-10
0-1-0--21-1-----
--1-1-1-------0-
----013311--2---
-1-10-0-0101-0-0
--10--0--0--0---
2-----3---1-----
2-1-311-0-2-00--
0-0--0--2-12----
0---014------0--
--1-0-------1-1-
--0-0-2110----12
----0-1--1-0-3-0
0-1------1-1--3-
1---0-----3---0-
0----------2-001
---------------0
-------0--1----0
0---0---01--0-0-
------00-1-0-0--
------1--2------
-----------1----
----101--2---0--
--0--304-000-0-0
--0--1---11--0--

Generation = 6, Population = 333.
0-0-4-1-0---0---
1-0-5----0-1----
2-1-20----2-0---
-------0-1-3-2--
0--02--1--1---2-
000--1----33013-
-11---0-113-204-
1--12---011-1--2
--1-1---------31
--1-0-2302---211
0---0---000--1-0
--0-30-0-------1
--2----21----241
0--0----000---12
----22-11----0-0
21-1-2-----1-2-3
0---11--11-03--0
---2--102-1-1---
4--010-2-0-1-03-
2--2310--3--022-
-21111---1-1-00-
0---11-0----1-12
---1---23011--0-
1-31-131-120-10-
0-1--133--102-1-
11-1-1-1-1--0-0-
-03--2--02-0-00-
-1-1-03--1--01-0
2-3-53-0-1-1-210
0--1---341---10-
---1036-1131001-
-----0--13--1130
0---0-211-1-2-12
1---2-30010-1---
2-----1-2---3---
1---0---00-1-0--
-------0--1-0-21
--------001-01-0
1----0100---100-
0-----11-1-00-00
----11--1-00-0--
0---0130---0010-
--0--1---11--1-0
---132--1-0--2-1
0--1-5-----20---
0-21--3-2-1-1--1

Generation = 8, Population = 206.
-----01---1---0-
----5-2---------
--3-2-----------
-0--3--2-10-3-00
----41-------14-
0-00-----0--2-5-
--1---0---5---4-
----2-1--31--04-
-3-----------13-
---0---------2--
0---0-----2-2---
-----2---11----1
----1-12---244--
---0120-2-2----4
0--14-----2-1-2-
-32--22----32-33
--------1-------
-----------0---1
--1---1-1-----3-
-1----------2---
-41---1-132-0--0
0-13113--0-1-134
0--30---32-10---
--3-1----1---3--
-1------------1-
-------3-3-----1
0---------------
----1-----3-2-0-
-13--3----2-----
2-13---3631-0-20
-0-10-8-3-312-30
----1-----1-----
---1------30---2
-------2-1-----2
--1-----------4-
----0-1--24-----
-------0123----1
----0----------2
3-00--3--1---2--
--0---1--1--0---
0--1--1----2-21-
---------4-----0
----------1-----
-0--3-------0-03
21-1---5------00
20--2---------11

Generation = 10, Population = 349.
--10-211--1---0-
-01---41002-0-10
3-3-------3--0--
2---30-20-2333-2
--114--3--302-60
--0-021---44-353
12--21----------
1---2-31-5--3064
1-312-1----0--33
-1--0-3----0-42-
01--0--00-40----
---1420---110---
--30301-1-34-6-2
---01202-0-1-314
00--43-2--41314-
2--12442-0-52-35
1-202---1---4---
--1--03--0-0--1-
521-----12-----0
4-2-311--42--3--
--1-2--1-5---0-2
--15313-1----3--
213--1145-2121-1
---2-2-----2-310
----2---21-1----
--0--1-3--121-01
0----2----2---1-
4--2--4-----2---
-3-0--22--22--21
-01-1-0583-422-0
----0----2-1--3-
0--1--2---1---4-
--21102--032----
-----052---2-3-4
2--11--222-24---
--1---1--2-21---
1--0-0-21-331-43
----0-1---2-12-4
3002-25--320-21-
1---0--22310--1-
-1-1223-1-221--0
-00-0-41-4-1-21-
-1----000--211-1
02113-1--32-03-3
2311-----11-11-2
---1--3------2-1

Generation = 12, Population = 365.
-0---43--0---12-
---06-4-004-0-1-
--5--21-0-------
41-03----2---31-
2----30-0----262
1-22-4-13-4---7-
----------7-4---
111-2-3305--5084
-4----10-3122--3
1-2-00532-0-0-2-
---0--------2-1-
--1-4-0---3-2302
0250---41136-86-
11001-22303-1-34
-------22---5-6-
243---422-25443-
-02----1130161-2
0-1----2321---11
5-3-3-1-34120---
----3-3-06-14540
1-1-2-----312---
-2--533130----4-
-----33-5---2313
-1--344-032--310
-1----4-432-2-10
---20-030-1430--
225-1-0--44---30
6-1---6--1---3--
35-2-4---142---1
3-34-0-78-3-2---
-1--258----32050
0-------24--2---
-14--24232-2-22-
2-1-40-2010-2-1-
-11-3-3-22-441-1
2---10--14--311-
1--010----3-32-3
0------01--0-2--
3-0-0451-3---211
312--1--45--0031
03-32---3-2-----
12---2-----1--3-
0-11-----3---31-
--3-533--32225-3
--33061---13--12
3-3--3--222124--


