*** Life<ConwayCell> 20x20 ***

Generation = 0, Population = 114.
........*..***.*....
*.***.*.........*...
*.....*..**.........
.*.*.*...*.*...**..*
*.....*.**...*....*.
**.**.**..***.**.*..
.*.......*...**..**.
............*..*...*
.*.*..***..*...***.*
**....*....**....*..
*....*...*..........
.*.*.*.**.*......**.
...*..*.....*.......
*...*........*..**..
..**......*....**...
..**.....*...**..*..
***.....*.........*.
.*...*..*......*....
..**..*..*.........*
*........*....*.*...

Generation = 3, Population = 108.
.....*...*.*........
..*.*...****........
*.*.*...***.........
**.***..*.......***.
....*...*...*...***.
...*.**.......*.*...
..**.*........*****.
..**..**...**....*..
...*.******...*.....
.*..**.....**....**.
.*...............**.
..*.............*.*.
.***.**.......****..
...*.**.......**....
.*............***...
.*.*....**.....*....
.*.*...*..*....*....
.**...**.**.........
.**.....*...........
....................

Generation = 6, Population = 107.
...........*........
.****..***.*........
*...*..***..........
..*..*..**.......**.
.*...*..............
..............*.***.
.....*........*...*.
...*.*........****.*
..***.......*..*..**
.*..**.*.**....*..**
*...**..***......*.*
.*.......*.......*.*
...*.**.............
.*.*..*.........***.
*...*****...........
*.**.*****..........
*.*....**.*.........
.**...**..**........
.**....****.........
.......***..........

Generation = 9, Population = 74.
.........*..........
***....*.*..........
......*.............
.....**.............
.....**...........*.
....**........**..*.
..*..*.......*.....*
..*...*......*.*..**
.*.....*.......*..**
*.**...*.......*...*
*.**..**.......*....
.****..**.*.....*.*.
...*..*.*...........
...*................
....*...............
.*.*......**........
*.**......*.*.......
*...........*.......
.**.......***.......
....................

Generation = 12, Population = 77.
.*..................
.*....*.*...........
.*....*.*...........
......***...........
....................
..*.**............**
..*.**.......**..***
**..**.*.....**.*.*.
.......*.....**.**..
...**.*.**...**.....
*.*.***..*.....*....
.......*..*.........
...*.***.*..........
...***..............
....................
.........****.......
**.......*..**......
..........*..**.....
..........*..*......
...........**.......

Generation = 15, Population = 78.
....................
***.................
.......***..........
.....**..*..........
....**..*...........
...***.......**.....
.....*..........*...
...*...*....*.....*.
......*.*..**.....*.
...**.*.**..**.*.*..
......*.*.*.....*...
..**.*.*.*..........
..**.*.***..........
..**.***.*..........
....**..............
........**...*......
........***.*.**....
........***....*....
...........*...*....
............***.....

Generation = 18, Population = 83.
.*..................
.*......**..........
.*....**.**.........
....*.**............
..**...*............
..**..*.............
..*..**.....*.......
...*.*..*.****...**.
....**..*....*....**
..*...*.*.**....*.*.
.*........*.....**..
.*......*..*........
.*....***..*........
....................
..*........*........
...**.......***.....
......*....******...
.......*...**...**..
........*..*...**...
.........***...*....

*** Life<ConwayCell> 30x30 ***

Generation = 0, Population = 180.
*.***....*.....*...........*..
....*........*...**...........
.........*.......*..***...*...
..*....................*..*..*
..*......**........*...**...*.
*.......*.*...*...*.....*....*
...........***...*...*.....*..
.**......*....*...***...*.**.*
..*.........*...........*.....
*..*....*...*...............**
*..*.*....*....*..*...**......
.........*.*..***......*..*..*
*...***.......................
.......*...*....*....*....*...
........**.......*............
...*....*.*..**.*.....*...*...
.*.*......****.*.....*....*...
.*...*...*..*.....*......*....
....*......*....*......*.*..*.
....*..*.....*......*.*.......
.*....*................*....**
.**..***....*.........*.....*.
.....*.............*...*......
**.*..............*......**..*
*..........*.*..........*..**.
**.....*.....*.........**.....
.....*..*.......*......*......
...**.*.*.......*...**........
.***.................*....*...
................*..*..***....*

Generation = 4, Population = 131.
...**............**...........
...**..............*..**......
.................*....*...*...
..................***..*...*..
........................*.****
..............*...............
.**..........**...***.........
.*..*.......*...***..*..**....
..*.*.......*..****..*..**....
..*.......*.....*..**.........
...*.*...*..*.*.**............
.....*....*...................
.........**....*..*...........
.........**...................
................***...........
........*..*....***...........
....*...*.**..................
...**....*....................
..**.*........................
.***..........................
.**...**.....................*
*.*...**................**...*
*.**..*..................*....
*.**.........................*
..*........................*.*
..**..**......................
.**...**......................
......**................*.....
.*.*.................*........
..*..................*..*.....

Generation = 8, Population = 113.
...**...............***.......
...**..............****.......
...................**..*..*...
..................*.**...*.*..
..................****...*....
..............*..*...*...**...
...........**.**.*..*...**....
***........*......*..*....*...
*****.....*...**....*...**....
..........*.*..***............
..........**......*...........
........*..**.....*...........
.......*......................
.......*......................
..........*...*...**..........
.......*..*....*...*..........
...*...*..*.....***...........
..*..*....**..................
.....*...**...................
....*.........................
.......**.....................
......*.................**....
........................**....
..............................
..............................
.......*......................
.*.***..*.....................
**....**......................
***...*.......................
..............................

Generation = 12, Population = 108.
...**.........................
...**..................***....
.......................***....
..................**..........
.................*..*..*.*....
.................**.....**....
.................*...*........
**...............*..**........
*................*...*........
**.**.....**.....***..........
.*.*......**..................
..*......*..*.................
..........**..................
..........**..................
................****..........
...............***..*.........
.....*..**.....*...*..........
....*.*..*......*..*..........
....**..........***...........
......**..*...................
........**....................
........................**....
........................**....
..............................
...**.........................
**.**.**......................
*.*...**......................
....*...*.....................
*.***.**......................
**.**.**......................

Generation = 16, Population = 114.
...**..................***....
...**.................*..*....
......................***.*...
..................*...........
..................**.....**...
...................**...**....
....................**.*.*....
.***................*..*......
.*.*..................**......
*...*............*.**.........
*...*....*..*....***..........
.......***..***..**...........
.***.....*..*.................
...................*..........
...............*...**.........
......*.**..........*.........
.....*...*......***.**........
....*....*..........*.........
.....*.........*...*..........
................*..*..........
................***...........
........................**....
........................**....
..............................
.*............................
.**..*..*.....................
....******....................
.***......*...................
*.*.*....*....................
**...*.**.....................

Generation = 20, Population = 139.
...**..................***....
...**................*.....*..
..................*.*...*.....
.................**.**......*.
.................*.*..**.***..
..*...................*..*....
.*.*...............*.****.....
.*.*..............**.*..*.....
*...*...................*.....
**.**............*****.*......
*...*...*....*...*.****.......
.***...*......*...............
.***....*....*...*..*.........
........**.......*............
.........*......*.....*.......
........*.*.....***...*.......
....**..*.*...........*.......
....**...*......**............
..............*...*...........
..............*.**..*.........
..............*...*...........
................*.*.....**....
................***.....**....
..*...........................
.*.*..........................
**.***........................
**...*...**...................
*....*....**..................
*...*...*.*...................
***.....**....................

Generation = 24, Population = 129.
...**.........................
...**..............*..........
................*...*.........
................*..*..........
..*................*..........
.***...............*.*........
*...*..........*....*.*.......
*****...........***....*......
...**...........*.**..........
..*..............*.****.......
*****..............*..........
...**.........................
*...*.........................
.***.....*.....**.............
..*......***...*..**..*.......
.........*.....**...*.*.......
....**...*.*...**.....*.......
....**....*...................
.................***..........
..............................
..............................
...............*........**....
..*............**.**....**....
**.*............***...........
**...**..........*............
...*.**...**..................
...*...***..*.................
....**...*..*.................
**..**......*.................
**.....**.**..................

Generation = 28, Population = 117.
...**.........................
..*...........................
..***.........................
.*............................
*...*.........................
*..**................**.......
.....*.........**....**.......
....**........*..*............
*...**.........*......*.......
.*.............*......*.......
.****...........*....*........
.*..*.............*...........
*....*........................
.***...........**.............
.*............*..*....**......
.............*...*.....*......
....**...............***......
..............**...**.........
...................*..........
..................*...........
...............*..............
..............**........**....
.*...........*..*.**....**....
*.****....*...***..*..........
*..***...*.*.......*..........
.........*..*...*.*...........
.....**...*.*....*............
........*..**.................
.*..*....****.................
.*..*....**...................

*** Life<ConwayCell> 25x25 ***

Generation = 0, Population = 73.
.*.........*.............
.....**..*..*........*...
..*................***...
*..*..*.*...*............
*......*.......*...*.....
..*.........*............
............*.........*..
.*...............*..**...
...*....*................
........*......**..*...*.
.....*....*..............
.................*..*....
.....*.............*.....
.......*.......*.........
*........................
.......*...*.............
......*.........*........
.*......*...*...*..*.....
.*.................*.....
..*........*...*.........
......**.................
.........*.*.............
..**.*.......*...........
...................**..*.
.*..*..*................*

Generation = 5, Population = 12.
.........................
......**.................
.....*..*..........**....
......*.*................
.......*.................
.........................
.........................
.........................
.........................
.........................
.........................
.........................
.........................
.........................
.........................
.........................
.........................
.........................
.........................
.........................
.........................
.........................
.........................
..***....................
.........................

Generation = 10, Population = 10.
.........................
......**.................
.....*..*................
......*.*................
.......*.................
.........................
.........................
.........................
.........................
.........................
.........................
.........................
.........................
.........................
.........................
.........................
.........................
.........................
.........................
.........................
.........................
.........................
...*.....................
...*.....................
...*.....................

Generation = 15, Population = 10.
.........................
......**.................
.....*..*................
......*.*................
.......*.................
.........................
.........................
.........................
.........................
.........................
.........................
.........................
.........................
.........................
.........................
.........................
.........................
.........................
.........................
.........................
.........................
.........................
.........................
..***....................
.........................

Generation = 20, Population = 10.
.........................
......**.................
.....*..*................
......*.*................
.......*.................
.........................
.........................
.........................
.........................
.........................
.........................
.........................
.........................
.........................
.........................
.........................
.........................
.........................
.........................
.........................
.........................
.........................
...*.....................
...*.....................
...*.....................

Generation = 25, Population = 10.
.........................
......**.................
.....*..*................
......*.*................
.......*.................
.........................
.........................
.........................
.........................
.........................
.........................
.........................
.........................
.........................
.........................
.........................
.........................
.........................
.........................
.........................
.........................
.........................
.........................
..***....................
.........................

Generation = 30, Population = 10.
.........................
......**.................
.....*..*................
......*.*................
.......*.................
.........................
.........................
.........................
.........................
.........................
.........................
.........................
.........................
.........................
.........................
.........................
.........................
.........................
.........................
.........................
.........................
.........................
...*.....................
...*.....................
...*.....................

Generation = 35, Population = 10.
.........................
......**.................
.....*..*................
......*.*................
.......*.................
.........................
.........................
.........................
.........................
.........................
.........................
.........................
.........................
.........................
.........................
.........................
.........................
.........................
.........................
.........................
.........................
.........................
.........................
..***....................
.........................

Generation = 40, Population = 10.
.........................
......**.................
.....*..*................
......*.*................
.......*.................
.........................
.........................
.........................
.........................
.........................
.........................
.........................
.........................
.........................
.........................
.........................
.........................
.........................
.........................
.........................
.........................
.........................
...*.....................
...*.....................
...*.....................

*** Life<ConwayCell> 50x50 ***

Generation = 0, Population = 293.
....................*....*.......**..........*.*..
........*......*..........................*...*...
....*...*.*..........*.*...**....*.....*....*.....
..*.................*..................*..**......
*.*....*.........*....*......*..*..........*....*.
.......**.......................*...*........*....
...............................*.............*..**
...........*..........*.*.........................
**.....*.......................*..........*....*..
.*.......*........*...*......*....................
........*...*..................*..............*...
.*.....*.....*........*.................*..*.....*
..........*..........*...........*........*.....**
.........*.........*.......................*.....*
...*....*...........*..*................*.........
...................*..*.........*.................
........*................**.*.......**.....*..*...
...........*.........................*..*.*......*
.................*.*.....*.........**......*......
*...............*...*......*.*............*.*.*.*.
..............*.............*...........*.........
.........*.....*......*.*..**..*....*.............
*.**....*.....*...*.......*.......................
...............*..**.....*.........*..........**..
...*............*..*.......*.....*...*.*.........*
....*............................*.*..........**..
..........*......*.....*..................*.*.....
.*.........................*...*......*.....*.*...
..................................*..............*
.*..*..*..*...*..****.............**..............
....................*......*......*.......*.......
.........*.....*...............*...............*..
*.........*..*......*.....*.......................
*........................*..........*.......*..*.*
........*.*.......*....*...*..........*.*.........
..*.....*..............................*..........
..*...*..................*....*...................
....*.............................*.........**....
...*..*..*.......*...*..*......................*..
......*.................*.*...***.....**..........
.*.......*.*......*.*.......**...**...*.........*.
................*...*..***....*...............*...
...*.............................*.*..*..........*
.....*......*................................*..**
.....*..............*...................*.....*...
............*.......................*.............
..*.............*.*.........*..*...**........*.*..
..*..*.......................*..........*.........
...............*........**....*..*.....*.*.*.*.*..
..*...*.....*.*..**.......*....*..................

Generation = 7, Population = 91.
............................................*.....
...........................................*.*....
.............................................*....
..........................................*.......
.............................................*....
...........................................*.*....
............................................*.....
..................................................
**................................................
**................................................
..................................................
..................................................
..................................................
...................**.............................
...................**.............................
..................................................
....................................**............
...................................*.*............
....................................*.............
..........................**......................
.........................*..*.....................
..............***........*........................
..............*...................................
...............*...*.........*....................
................*...*...*...*.....................
.................*.*.....***......................
..................**..............................
..................***............***..............
.................*...*..........*...*.............
.................*...*..........*...*.............
.................*...*..........*...*.............
..................***............***..............
..................................................
..................................................
..................................................
..................................................
..................................................
..................................................
..................................................
........................*.............**..........
.......................*.*............**..........
.......................*.*........................
........................*.......................**
................................................**
..................................................
...................................**.............
...................................**.............
.............................**...................
.............................**...................
..................................................

Generation = 14, Population = 97.
..................................................
..................................................
..................................................
..................................................
..................................................
..................................................
..................................................
..................................................
**................................................
**................................................
..................................................
..................................................
..................................................
...................**.............................
...................**.............................
..................................................
....................................**............
...................................*.*............
....................................*.............
.............**...........**......................
............*.*...........**......................
............*.............**......................
............*.*..........***......................
.............**.....*...*..*......................
...................**........*....................
..................**...*.....*....*...............
................*.***...*....*....*...............
...............*....*.....*.......*...............
................***.*.*...........................
.................*.....*......***...***...........
...................**.*...........................
..................................*...............
...................**.............*...............
...................*..............*...............
..................................................
..................................................
..................................................
..................................................
..................................................
........................*.............**..........
.......................*.*............**..........
.......................*.*........................
........................*.......................**
................................................**
..................................................
...................................**.............
...................................**.............
.............................**...................
.............................**...................
..................................................

Generation = 21, Population = 109.
..................................................
..................................................
..................................................
..................................................
..................................................
..................................................
..................................................
..................................................
**................................................
**................................................
..................................................
..................................................
..................................................
...................**.............................
...................**.............................
..................................................
....................................**............
............***....................*.*............
...........*...*....................*.............
..........*...**..........**......................
.........*...............**.......................
.........*..*............*.*......................
.........*..........*.....***.....................
..........*...**...*.*...**..*....................
...........*....*.**.*....*****...................
............*..*....*......*..*...................
..............*.*...........**...***..............
...............**.................................
................*..............*.....*............
........................*......*.....*............
......................*.*......*.....*............
......................***.........................
...................**............***..............
...................**.............................
..................................................
..................................................
..................................................
..................................................
..................................................
........................*.............**..........
.......................*.*............**..........
.......................*.*........................
........................*.......................**
................................................**
..................................................
...................................**.............
...................................**.............
.............................**...................
.............................**...................
..................................................

Generation = 28, Population = 119.
..................................................
..................................................
..................................................
..................................................
..................................................
..................................................
..................................................
..................................................
**................................................
**................................................
..................................................
..................................................
..................................................
.............*.....**.............................
............***....**.............................
...........*..*...................................
..........*****.*...................**............
...........****.**.................*.*............
..............*..........*..........*.............
.............*..........*.*.......................
........**...***...*....**........................
........**........***.............................
........**........*..*............................
....................**......**....................
........*..**.....................................
.........***......................*...............
..........*.......................*...............
...............*****..............*...............
..............*....**.............................
...............****.***.......***...***...........
................*......*..........................
....................*.............*...............
....................***...........*...............
..................................*...............
..................................................
..................................................
..................................................
..................................................
..................................................
........................*.............**..........
.......................*.*............**..........
.......................*.*........................
........................*.......................**
................................................**
..................................................
...................................**.............
...................................**.............
.............................**...................
.............................**...................
..................................................

Generation = 35, Population = 144.
..................................................
..................................................
..................................................
..................................................
..................................................
..................................................
..................................................
..................................................
**................................................
**................................................
..................................................
..................................................
..................................................
..........*.*......**.............................
.........*.........**.............................
.........*...*...***..............................
.........*.......*..................**............
.........*****..*.*................*.*............
.........******.....................*.............
..........*****.........***.......................
........****..*...................................
........*...*.**..................................
..........***.*.....*.............................
...........*.......*..............................
.......*.*..........*.............................
......**..*.......................................
........*.*....**................***..............
........**.**..***...*............................
.........*..**..**.****........*.....*............
.........***..****....**.......*.....*............
..............***...****.......*.....*............
..................*...............................
..................***............***..............
...................***............................
..................................................
..................................................
..................................................
..................................................
..................................................
........................*.............**..........
.......................*.*............**..........
.......................*.*........................
........................*.......................**
................................................**
..................................................
...................................**.............
...................................**.............
.............................**...................
.............................**...................
..................................................

Generation = 42, Population = 122.
..................................................
..................................................
..................................................
..................................................
..................................................
..................................................
..................................................
..................................................
**................................................
**................................................
..................................................
..................................................
..................................................
..................................................
..................................................
..................................................
................***.................**............
...............*..*................*.*............
...............***.......*..........*.............
..............*..........*........................
.............**.**.......*........................
........****..*.**................................
..........*...*.*.................................
......***..**.**..................................
........*..***....................................
.....*.....*......................*...............
.....*......*..*..................*...............
......*.*.*.**.*..................*...............
.......*.***...*..................................
..........**.....*.....**.....***...***...........
.................**..**.**........................
................*..****...........*...............
..................**..............*...............
..................*.***...........*...............
...................****...........................
..................................................
..................................................
..................................................
..................................................
........................*.............**..........
.......................*.*............**..........
.......................*.*........................
........................*.......................**
................................................**
..................................................
...................................**.............
...................................**.............
.............................**...................
.............................**...................
..................................................

Generation = 49, Population = 135.
..................................................
..................................................
..................................................
..................................................
..................................................
..................................................
..................................................
..................................................
**................................................
**................................................
..................................................
..................................................
..................................................
................***...............................
................*..*..............................
...............*....*.............................
................**..*...............**............
...............*....*..............*.*............
............**..*..*................*.............
...........*..*****.....***.......................
...........*......................................
.......****.****..................................
......*.**.****...................................
.....*...*.*......................................
.......*..*.......................................
.....*.**..*......................................
..........**.....................***..............
..........**..........**..........................
.........***......***.****.....*.....*............
...........*.*...*........*....*.....*............
...........*.*...*..*..**.*....*.....*............
............**..*..*...***........................
................**...............***..............
..................................................
...................***............................
...................***............................
..................................................
..................................................
..................................................
........................*.............**..........
.......................*.*............**..........
.......................*.*........................
........................*.......................**
................................................**
..................................................
...................................**.............
...................................**.............
.............................**...................
.............................**...................
..................................................

Generation = 56, Population = 166.
..................................................
..................................................
..................................................
..................................................
..................................................
..................................................
..................................................
..................................................
**................................................
**................................................
................***...............................
................*.................................
.................*................................
..............**.**.*.............................
.............**.*.................................
............**..**..**............................
...........*****...*...**...........**............
..........*..*...***.*.............*.*............
........*..*.*..*..**...**..........*.............
.......*.*.**......*.....*........................
......*......**.***......*........................
......*.....***.***...............................
......*.....**....................................
..........*.*.....................................
..........**......................................
.....*.....*......................*...............
......*....**.....................*...............
.............****.***...*.*.......*...............
.......***...***.*.*...*..........................
.............*.....**.**..*...***...***...........
..........***.*.**.******.........................
..............**...*..............*...............
....................*..*..........*...............
.................**.*..*..........*...............
..................*...............................
..................**.*............................
....................*.............................
..................................................
..................................................
........................*.............**..........
.......................*.*............**..........
.......................*.*........................
........................*.......................**
................................................**
..................................................
...................................**.............
...................................**.............
.............................**...................
.............................**...................
..................................................

*** Life<ConwayCell> 5x5 ***

Generation = 0, Population = 4.
.....
.....
.....
*...*
*.*..

Generation = 3, Population = 0.
.....
.....
.....
.....
.....

Generation = 6, Population = 0.
.....
.....
.....
.....
.....

Generation = 9, Population = 0.
.....
.....
.....
.....
.....

*** Life<ConwayCell> 5x5 ***

Generation = 0, Population = 6.
.....
*..*.
..**.
**...
.....

Generation = 8, Population = 0.
.....
.....
.....
.....
.....

Generation = 16, Population = 0.
.....
.....
.....
.....
.....

*** Life<ConwayCell> 7x7 ***

Generation = 0, Population = 10.
....*..
..*.*..
....**.
.......
.....*.
.*...**
..*....

Generation = 2, Population = 5.
.......
.....*.
...*...
...*...
.......
.....**
.......

Generation = 4, Population = 0.
.......
.......
.......
.......
.......
.......
.......

Generation = 6, Population = 0.
.......
.......
.......
.......
.......
.......
.......

Generation = 8, Population = 0.
.......
.......
.......
.......
.......
.......
.......

Generation = 10, Population = 0.
.......
.......
.......
.......
.......
.......
.......

Generation = 12, Population = 0.
.......
.......
.......
.......
.......
.......
.......

Generation = 14, Population = 0.
.......
.......
.......
.......
.......
.......
.......

Generation = 16, Population = 0.
.......
.......
.......
.......
.......
.......
.......

Generation = 18, Population = 0.
.......
.......
.......
.......
.......
.......
.......

Generation = 20, Population = 0.
.......
.......
.......
.......
.......
.......
.......

Generation = 22, Population = 0.
.......
.......
.......
.......
.......
.......
.......

Generation = 24, Population = 0.
.......
.......
.......
.......
.......
.......
.......

Generation = 26, Population = 0.
.......
.......
.......
.......
.......
.......
.......

Generation = 28, Population = 0.
.......
.......
.......
.......
.......
.......
.......

Generation = 30, Population = 0.
.......
.......
.......
.......
.......
.......
.......

Generation = 32, Population = 0.
.......
.......
.......
.......
.......
.......
.......

Generation = 34, Population = 0.
.......
.......
.......
.......
.......
.......
.......

Generation = 36, Population = 0.
.......
.......
.......
.......
.......
.......
.......

Generation = 38, Population = 0.
.......
.......
.......
.......
.......
.......
.......

Generation = 40, Population = 0.
.......
.......
.......
.......
.......
.......
.......

Generation = 42, Population = 0.
.......
.......
.......
.......
.......
.......
.......

Generation = 44, Population = 0.
.......
.......
.......
.......
.......
.......
.......

Generation = 46, Population = 0.
.......
.......
.......
.......
.......
.......
.......

Generation = 48, Population = 0.
.......
.......
.......
.......
.......
.......
.......

Generation = 50, Population = 0.
.......
.......
.......
.......
.......
.......
.......

Generation = 52, Population = 0.
.......
.......
.......
.......
.......
.......
.......

Generation = 54, Population = 0.
.......
.......
.......
.......
.......
.......
.......

Generation = 56, Population = 0.
.......
.......
.......
.......
.......
.......
.......

Generation = 58, Population = 0.
.......
.......
.......
.......
.......
.......
.......

Generation = 60, Population = 0.
.......
.......
.......
.......
.......
.......
.......

Generation = 62, Population = 0.
.......
.......
.......
.......
.......
.......
.......

Generation = 64, Population = 0.
.......
.......
.......
.......
.......
.......
.......

Generation = 66, Population = 0.
.......
.......
.......
.......
.......
.......
.......

Generation = 68, Population = 0.
.......
.......
.......
.......
.......
.......
.......

Generation = 70, Population = 0.
.......
.......
.......
.......
.......
.......
.......

Generation = 72, Population = 0.
.......
.......
.......
.......
.......
.......
.......

Generation = 74, Population = 0.
.......
.......
.......
.......
.......
.......
.......

Generation = 76, Population = 0.
.......
.......
.......
.......
.......
.......
.......

Generation = 78, Population = 0.
.......
.......
.......
.......
.......
.......
.......

Generation = 80, Population = 0.
.......
.......
.......
.......
.......
.......
.......

Generation = 82, Population = 0.
.......
.......
.......
.......
.......
.......
.......

Generation = 84, Population = 0.
.......
.......
.......
.......
.......
.......
.......

Generation = 86, Population = 0.
.......
.......
.......
.......
.......
.......
.......

Generation = 88, Population = 0.
.......
.......
.......
.......
.......
.......
.......

Generation = 90, Population = 0.
.......
.......
.......
.......
.......
.......
.......

Generation = 92, Population = 0.
.......
.......
.......
.......
.......
.......
.......

Generation = 94, Population = 0.
.......
.......
.......
.......
.......
.......
.......

Generation = 96, Population = 0.
.......
.......
.......
.......
.......
.......
.......

Generation = 98, Population = 0.
.......
.......
.......
.......
.......
.......
.......

Generation = 100, Population = 0.
.......
.......
.......
.......
.......
.......
.......

*** Life<ConwayCell> 8x8 ***

Generation = 0, Population = 3.
........
*.......
........
.....*..
*.......
........
........
........

Generation = 8, Population = 0.
........
........
........
........
........
........
........
........

Generation = 16, Population = 0.
........
........
........
........
........
........
........
........

*** Life<ConwayCell> 9x9 ***

Generation = 0, Population = 2.
........*
.........
.........
.........
.........
.........
.........
..*......
.........

Generation = 7, Population = 0.
.........
.........
.........
.........
.........
.........
.........
.........
.........

*** Life<ConwayCell> 12x12 ***

Generation = 0, Population = 62.
...*.*.....*
....*..**.*.
*...**.**.**
.**.*.....*.
**..*****...
....****.*..
.*..*.*...*.
***....**...
.*.**..*.*.*
.**..**...**
.**..**...*.
.*...*.**.**

Generation = 3, Population = 37.
............
..**.*.*.*..
.*....*..***
......*.**..
.***.*..**..
.......*.**.
......***...
......**....
....*.*.....
....***...*.
.....**...*.
..........*.

Generation = 6, Population = 16.
......*.....
......*.....
.**....*....
*..*..*.....
.**...*.....
............
............
............
............
....*.......
....*....***
............

Generation = 9, Population = 15.
............
......**....
.**..*..*...
*..*..**....
.**.........
............
............
............
............
..........*.
..........*.
..........*.

Generation = 12, Population = 15.
............
......**....
.**..*..*...
*..*..**....
.**.........
............
............
............
............
............
.........***
............

Generation = 15, Population = 15.
............
......**....
.**..*..*...
*..*..**....
.**.........
............
............
............
............
..........*.
..........*.
..........*.

Generation = 18, Population = 15.
............
......**....
.**..*..*...
*..*..**....
.**.........
............
............
............
............
............
.........***
............

*** Life<ConwayCell> 15x15 ***

Generation = 0, Population = 42.
...*.....*...**
...*........*.*
.....*.*......*
..........**...
*.....*....*...
.....*....*.*..
...............
.*.............
.*...**....*..*
....*.......*.*
...............
*..*.........*.
*.*.....**..*.*
.........*.*...
...**.......**.

Generation = 4, Population = 24.
.............**
...........**.*
...........***.
.........***...
...............
...............
...............
...............
.............*.
.............*.
...............
...............
........*****..
........*..**..
.........***...

Generation = 8, Population = 11.
.............**
..............*
...............
.........*.....
..........*....
...............
...............
...............
...............
...............
...............
.........*.....
.......*.......
.......*...*...
.........*.*...

Generation = 12, Population = 4.
.............**
.............**
...............
...............
...............
...............
...............
...............
...............
...............
...............
...............
...............
...............
...............

Generation = 16, Population = 4.
.............**
.............**
...............
...............
...............
...............
...............
...............
...............
...............
...............
...............
...............
...............
...............

Generation = 20, Population = 4.
.............**
.............**
...............
...............
...............
...............
...............
...............
...............
...............
...............
...............
...............
...............
...............

Generation = 24, Population = 4.
.............**
.............**
...............
...............
...............
...............
...............
...............
...............
...............
...............
...............
...............
...............
...............

Generation = 28, Population = 4.
.............**
.............**
...............
...............
...............
...............
...............
...............
...............
...............
...............
...............
...............
...............
...............

Generation = 32, Population = 4.
.............**
.............**
...............
...............
...............
...............
...............
...............
...............
...............
...............
...............
...............
...............
...............

Generation = 36, Population = 4.
.............**
.............**
...............
...............
...............
...............
...............
...............
...............
...............
...............
...............
...............
...............
...............

Generation = 40, Population = 4.
.............**
.............**
...............
...............
...............
...............
...............
...............
...............
...............
...............
...............
...............
...............
...............

Generation = 44, Population = 4.
.............**
.............**
...............
...............
...............
...............
...............
...............
...............
...............
...............
...............
...............
...............
...............

Generation = 48, Population = 4.
.............**
.............**
...............
...............
...............
...............
...............
...............
...............
...............
...............
...............
...............
...............
...............

Generation = 52, Population = 4.
.............**
.............**
...............
...............
...............
...............
...............
...............
...............
...............
...............
...............
...............
...............
...............

Generation = 56, Population = 4.
.............**
.............**
...............
...............
...............
...............
...............
...............
...............
...............
...............
...............
...............
...............
...............

Generation = 60, Population = 4.
.............**
.............**
...............
...............
...............
...............
...............
...............
...............
...............
...............
...............
...............
...............
...............

Generation = 64, Population = 4.
.............**
.............**
...............
...............
...............
...............
...............
...............
...............
...............
...............
...............
...............
...............
...............

Generation = 68, Population = 4.
.............**
.............**
...............
...............
...............
...............
...............
...............
...............
...............
...............
...............
...............
...............
...............

Generation = 72, Population = 4.
.............**
.............**
...............
...............
...............
...............
...............
...............
...............
...............
...............
...............
...............
...............
...............

Generation = 76, Population = 4.
.............**
.............**
...............
...............
...............
...............
...............
...............
...............
...............
...............
...............
...............
...............
...............

Generation = 80, Population = 4.
.............**
.............**
...............
...............
...............
...............
...............
...............
...............
...............
...............
...............
...............
...............
...............

Generation = 84, Population = 4.
.............**
.............**
...............
...............
...............
...............
...............
...............
...............
...............
...............
...............
...............
...............
...............

Generation = 88, Population = 4.
.............**
.............**
...............
...............
...............
...............
...............
...............
...............
...............
...............
...............
...............
...............
...............

Generation = 92, Population = 4.
.............**
.............**
...............
...............
...............
...............
...............
...............
...............
...............
...............
...............
...............
...............
...............

Generation = 96, Population = 4.
.............**
.............**
...............
...............
...............
...............
...............
...............
...............
...............
...............
...............
...............
...............
...............

Generation = 100, Population = 4.
.............**
.............**
...............
...............
...............
...............
...............
...............
...............
...............
...............
...............
...............
...............
...............

Generation = 104, Population = 4.
.............**
.............**
...............
...............
...............
...............
...............
...............
...............
...............
...............
...............
...............
...............
...............

Generation = 108, Population = 4.
.............**
.............**
...............
...............
...............
...............
...............
...............
...............
...............
...............
...............
...............
...............
...............

Generation = 112, Population = 4.
.............**
.............**
...............
...............
...............
...............
...............
...............
...............
...............
...............
...............
...............
...............
...............

Generation = 116, Population = 4.
.............**
.............**
...............
...............
...............
...............
...............
...............
...............
...............
...............
...............
...............
...............
...............

Generation = 120, Population = 4.
.............**
.............**
...............
...............
...............
...............
...............
...............
...............
...............
...............
...............
...............
...............
...............

Generation = 124, Population = 4.
.............**
.............**
...............
...............
...............
...............
...............
...............
...............
...............
...............
...............
...............
...............
...............

Generation = 128, Population = 4.
.............**
.............**
...............
...............
...............
...............
...............
...............
...............
...............
...............
...............
...............
...............
...............

Generation = 132, Population = 4.
.............**
.............**
...............
...............
...............
...............
...............
...............
...............
...............
...............
...............
...............
...............
...............

Generation = 136, Population = 4.
.............**
.............**
...............
...............
...............
...............
...............
...............
...............
...............
...............
...............
...............
...............
...............

Generation = 140, Population = 4.
.............**
.............**
...............
...............
...............
...............
...............
...............
...............
...............
...............
...............
...............
...............
...............

Generation = 144, Population = 4.
.............**
.............**
...............
...............
...............
...............
...............
...............
...............
...............
...............
...............
...............
...............
...............

Generation = 148, Population = 4.
.............**
.............**
...............
...............
...............
...............
...............
...............
...............
...............
...............
...............
...............
...............
...............

Generation = 152, Population = 4.
.............**
.............**
...............
...............
...............
...............
...............
...............
...............
...............
...............
...............
...............
...............
...............

Generation = 156, Population = 4.
.............**
.............**
...............
...............
...............
...............
...............
...............
...............
...............
...............
...............
...............
...............
...............

Generation = 160, Population = 4.
.............**
.............**
...............
...............
...............
...............
...............
...............
...............
...............
...............
...............
...............
...............
...............

Generation = 164, Population = 4.
.............**
.............**
...............
...............
...............
...............
...............
...............
...............
...............
...............
...............
...............
...............
...............

Generation = 168, Population = 4.
.............**
.............**
...............
...............
...............
...............
...............
...............
...............
...............
...............
...............
...............
...............
...............

Generation = 172, Population = 4.
.............**
.............**
...............
...............
...............
...............
...............
...............
...............
...............
...............
...............
...............
...............
...............

Generation = 176, Population = 4.
.............**
.............**
...............
...............
...............
...............
...............
...............
...............
...............
...............
...............
...............
...............
...............

Generation = 180, Population = 4.
.............**
.............**
...............
...............
...............
...............
...............
...............
...............
...............
...............
...............
...............
...............
...............

Generation = 184, Population = 4.
.............**
.............**
...............
...............
...............
...............
...............
...............
...............
...............
...............
...............
...............
...............
...............

Generation = 188, Population = 4.
.............**
.............**
...............
...............
...............
...............
...............
...............
...............
...............
...............
...............
...............
...............
...............

Generation = 192, Population = 4.
.............**
.............**
...............
...............
...............
...............
...............
...............
...............
...............
...............
...............
...............
...............
...............

Generation = 196, Population = 4.
.............**
.............**
...............
...............
...............
...............
...............
...............
...............
...............
...............
...............
...............
...............
...............

Generation = 200, Population = 4.
.............**
.............**
...............
...............
...............
...............
...............
...............
...............
...............
...............
...............
...............
...............
...............

*** Life<ConwayCell> 3x3 ***

Generation = 0, Population = 9.
***
***
***

Generation = 7, Population = 0.
...
...
...

*** Life<ConwayCell> 4x4 ***

Generation = 0, Population = 16.
****
****
****
****

Generation = 2, Population = 0.
....
....
....
....

Generation = 4, Population = 0.
....
....
....
....

Generation = 6, Population = 0.
....
....
....
....

Generation = 8, Population = 0.
....
....
....
....

Generation = 10, Population = 0.
....
....
....
....

Generation = 12, Population = 0.
....
....
....
....

Generation = 14, Population = 0.
....
....
....
....

Generation = 16, Population = 0.
....
....
....
....

Generation = 18, Population = 0.
....
....
....
....

Generation = 20, Population = 0.
....
....
....
....
