*** Life<Cell> 4x4 ***

Generation = 0, Population = 8.
-00-
0--0
0--0
-00-

Generation = 1, Population = 8.
-11-
1--1
1--1
-11-

Generation = 2, Population = 8.
-**-
*--*
*--*
-**-

Generation = 3, Population = 8.
-**-
*--*
*--*
-**-

*** Life<Cell> 114x29 ***

Generation = 0, Population = 108.
-----------------------------
---------------0-------------
-0---------------------------
-----------------------------
-----------------------------
-----------------0-----------
-----------------------------
---0------------0------------
-----------------------------
-----------------------------
------0------0---------------
-----------0-----------------
-----------0-----------------
---------------0-----0-------
---0-------------0-----------
-----0-0---------------------
-----------0-----------------
-----------------------------
-----0-----------------------
---------------0-------------
-----------------------------
----------------------0------
--------------------------0--
---0-------------------------
----------------------0------
-----------------------------
------------------0---0------
----------------------0------
------0------------------0---
-----0-----------------------
-----0-----------------------
-------------------------0---
-------------0---------------
-----------------------------
-----------------------------
-----------------------------
--------0--------------------
-------------------------0---
----------------0------------
---------------0-0-----------
0------0---------------------
----------0------------------
----------------0-----0------
----------------------0------
--0--------------0-----------
-----------------------------
---------------0-------------
--------0--------------------
-------0-------------0-------
------0----------------------
-----------------------------
---------0--------0----------
-----------------------------
----------------------------0
-----------------------------
-----------------------------
0---------------------------0
-----------0-----------------
-----------------------------
--------------------0-0------
-----------------------------
--------0--------------------
-----------------------------
0---0----0-------------------
----0-----0----0-------------
--------------0--------------
-----0-----------------------
---------------------------0-
-----------------------------
-----------------------------
--0-------0------------------
-----------------------------
-----------------------------
-----------0-----------------
----------------------0------
-----------------------------
-----------------------------
---------------------------0-
------------------------0---0
0----------------------------
-0---0-----------------------
-----------------------------
----------0------------------
-------------------0---------
--------------------0--------
-----------------------------
-----------------------------
-------0---------------------
0---0------------------------
-------------0---------------
-----------------------------
-----------------------------
-------0---------------------
------------------0-0--------
------------------0----------
-------------0------0--------
------------------------00---
-----------------0-----------
-----------------------------
-----------------------------
--------------------------0--
-----------------------------
----0------------------------
--------------------------0--
------0----------------------
0----------------------------
-----------------------------
-------------0---------0-----
---------0---------------0---
-0---------------------------
-----------------------------
----------------------------0
----0-00---------------------
0----------------------------

Generation = 19, Population = 1277.
*-.**-*1*.....*1.-1.*--0-----
-10.*.*.**-*1..-.*--.--1--0--
*11*.***....**.1.--..11**----
-.-.***.0-*.*.*.-...**.10-110
....-...-.*..***.-..*..**..-1
.........-**.***.....---*.**-
--1-*.-..*.-....1...--*-1-00-
-..***...*.*1.........****10-
1*-*.--....*.1........--1-**0
.1..1-1....-.....*....*1-.--0
...1..*-**.*1*-***-**.-.*1-*-
..1..*1.-...*.-*.***-****11*1
0***.*.-.......*..-.*-1.0***.
0...*.*.**1****.0.0....**.*.1
.--.*.....**....*.....-.*.*.*
.-*.*-.1.....-**...**1.*..0-.
.*..*....***..**..1**.-.*-.-1
.......**..*.-****...-..0-*.*
.-..0..*0...*.*1-.**.*...*..*
0*-...**.*-.-.*.*1.0.**..***-
*1..-*..0--.*.1.*.-**.*..*..1
*--**....0..-.*.-...*-.*.*1..
*****.....*.-.*.*..1-*.....*.
-.*.*.-*-.....*-**.*.-....---
*.*..**.-...1...**-.-.-.**1..
-.0.1*..*.1*11*----**....**.-
*0..-.*.0*.....*0.......-**..
0.-.1**-.*.....*....-.*..***.
.....**-***..1**.1**.*.*.1.*.
1*.**...0.*.1.*-.***.*...***.
*.*...*...1...*.**.*-.**.**..
*.1....**...--.11.--......*..
.*.**.***..1-...*0.--*....**-
-..*..*.01--1....*.-.-*-..***
0.1-...1**.-.........-0--*1--
-.0-.......-0.-**..*..1-*.**-
*-*010.*..*.**......*-*-....*
----..1..-..**1.**---.-..-*10
.-*.-...-....******-***...1-1
0..1.......*1*....0-***...--0
....*..*..--*.*-..***..**1.1*
.....1*..-.**.*.**.1...**1..-
0.1-1.*....--.1-...1.-.*..-..
..-.11.....*0**...***-******.
--.--.-....**.***...*..*-..0-
.-*-11.*1.1.-*....*..-*0*..*-
.0-**1..*.1.*......***....***
*1*-.-.*-*..1....*..0*.-.-***
*.-*..0*1*-..*-*.*-..-...*.1.
-.-0**10-.**..*-.-.-.*.*1.-..
.*.0..1.0.-..*1*0*.**....*11.
*.*......-**.*.**-.....-.*...
*0*-..0-0111***-..-*-..-1-..-
**0*0.......1*1-..**-.-....-*
--01*...-..**..*1.0*.........
*--.--*0..*.-**..*01.*..--...
**-*.-..-0*0.1*..**..-..--...
..**1.....-**..*.*.*.*..*...-
..*1.**..0*.*-**-.--.1--.-...
...-**....*..**1-*..-1*1--.*.
..-0....*..*.*--.-.-1.--.*...
1**....0.*.**-1*-*1.1--.--**.
--.-....*....**.--1-1--..*...
...****......1*.**.1--.*.**.-
**1.**....-..-*.1-*.10......*
***-.......0...****..1*.--**1
.-..**....1*.-.*.*.**0-1.0--*
.1***..**.-..1*.-..**.***..*0
.***..-.0---..-11-*1*....-.*0
*1.-...-..-..*.1.-***0.*-0110
*-*0..-...1-**...*0**.--*0.-0
*....-..**----.*11*1*...--01-
..0...*.*.1-1-.*011-*.-1.---1
..-.1*0*-1**1-.*--.-1-.1--0--
...*.1-*..--1*.*-.1.*-*1-0---
.1.*-.*...*11-.---*0*-10-00--
..---.*.*1---.--*.-1-00-0--0-
0.*1--..1.--.1-1.1-010--00---
-1....**.*.....*-1-01-00110--
-....-.*.***-.*0.1--.1--00-0-
.**.**..0...-*10*.1-*---1--10
..1.*.*.-..*..0..-*1..1---*--
.*.*1....*.1.11*-.11.11*-..--
*.*-*.-.*...0*-1*-.0.*--.0-.-
**.-1.*.*.0-.-0*.0--.1*.-..-*
*-**-...*-1.*-..*-*--.-1*1.-*
-..1**.***--*-*0.**-.---..*1-
.....*-*1-.1*.-*0-.*0..-.11*0
-......*.***-..-00--*.*..-.-.
1*-*-.-**0-..1*..*-***---*-*.
**.**..**-.*-.-***.*0.*.*.*-.
-*.-.-..1-...-*.**-**....0*..
-.1.*1.0**.*..*...**...*-.**.
--1.....**.*.**.....-*...*-*1
...**.0..-.*.*...**...-*..--*
..--****1.**-*..*.1*.**.-....
..--**.-1..10....-..........*
..-11-....0-*--0-..***..-.-0-
.*1**-****-...-*...*.**1**.-.
-.-.**..-.*.*...-.0.*.**...-*
***.--..--...--...******.*...
*..1-**0.1*.-.-..-.**..-.***.
...-**-.1..11*.-..0*.***..*..
...0**.**.1*0-..-..-..*.*.*1*
*...*...**..1..-.1.*..--..*.*
**-**1..**.1-.--0-...0***-*0*
.**.*....-...-----.*-1***...-
***.*.....**-0*..--1....*...*
.-*1*.1.1*-.**1*-1**...*.*.-*
.*1...**1*.-.*-.*1.-..-..-...
--**.-****.-...*.1*00**.-*..-
....*....**..**..1-0-*...*.*.
...*...**..*....*.**.-**-*-*.
-..-.*.**1..******-...0**1...

*** Life<Cell> 21x71 ***

Generation = 0, Population = 49.
-------------------------0--0---------------------------------------0--
------------------0-0--------------------------------------------------
----------------------0---------0-----------------------0-------0------
-------------0-------------------------------------0-------------------
----------------------0------------0-----------------------------------
-----------------------------------------------------------------------
------------------------------------------0---------------0--0---------
--0------------------------------0-------------------------------------
--------0------------------------------------------------------------0-
--------------------------0-----0--------------------------------------
----------------------------------------0-------------0-------------0--
---------------------------0-------0-------------------0---------0-----
-------0--------------------0--------------0---------------------------
----------------------------0-----------------------------------------0
---0---------------------------------------0--------------0------------
-----------------------------------------------------------------------
---------------0-----------------------------------0------0------------
---------------------------------------0--------0----------------------
--------------------------------------------0--------------------------
-0------------0-------------0--------------0---------------------------
----------------------------0---------------------------------------0--

Generation = 74, Population = 133.
....................................................................**.
....................................**..............................**.
...................................*...................................
.......................................................................
........................**........*..*...........................**....
........................**...........*.................**........**....
..................***.............*...*................*..*............
.................**.*..............*...................*.*.**.-........
................*..*...............*...*..............**.*...*.........
................*.*....**..........*...*................**...*.........
.................*....*.*..............*.........*.......*.............
........................*.......................*...***.**.**..........
.................................**...*..........******...*............
..................................*.**............****....*............
........**........................**...................*.*.............
........**.......*.***..................................*..............
................*...*.*...............***..............................
.................*.**..*.............*...*...........................*.
.....................*.*.................*....**....................*.*
......................*..............**.**...*.*................**...**
-............................-.........*......*.................**.....

*** Life<Cell> 10x2 ***

Generation = 0, Population = 10.
-0
-0
-0
-0
-0
-0
-0
-0
-0
-0

Generation = 1, Population = 12.
01
0-
0-
0-
0-
0-
0-
0-
0-
01

Generation = 2, Population = 8.
-*
--
-0
-0
-0
-0
-0
-0
--
-*

Generation = 3, Population = 10.
0.
--
01
0-
0-
0-
0-
01
--
0.

Generation = 4, Population = 6.
-.
-0
-*
--
-0
-0
--
-*
-0
-.

*** Life<Cell> 6x5 ***

Generation = 0, Population = 29.
00000
00000
00000
000-0
00000
00000

Generation = 1, Population = 16.
-111-
1---1
1--11
1-1--
1--11
-111-

Generation = 2, Population = 13.
-*-*-
*-00*
-0-*-
---0-
*-0-*
-*---

Generation = 3, Population = 14.
-*1*-
*-1-*
--0.-
10-1-
.0-1.
-*--0

Generation = 4, Population = 15.
-***-
.0-0.
--1.1
*-1*0
.--**
0.1--

*** Life<Cell> 42x8 ***

Generation = 0, Population = 62.
-----0--
-0------
-00-----
000--0--
-----00-
----00--
-0--0-0-
-----0--
----0---
-0-0-0-0
--------
--------
---0-0--
-------0
0-------
0-0---0-
---0----
----0--0
-0------
--00--0-
--------
0------0
--------
--------
--------
0-----0-
---0--0-
--------
-0------
---0--0-
-----0-0
-----0--
-0---0--
0-0-----
--------
0--0---0
----0---
---0----
--0-----
0----0-0
--0---0-
--------

Generation = 94, Population = 12.
-.......
........
..-....-
........
........
........
........
........
........
........
..**....
.*..*...
.*.*....
..*.....
........
........
........
........
........
........
........
........
........
........
.*......
*.*.....
.**.....
........
........
........
........
........
........
........
........
........
........
........
......-.
-..-....
.....-..
........

Generation = 188, Population = 12.
-.......
........
..-....-
........
........
........
........
........
........
........
..**....
.*..*...
.*.*....
..*.....
........
........
........
........
........
........
........
........
........
........
.*......
*.*.....
.**.....
........
........
........
........
........
........
........
........
........
........
........
......-.
-..-....
.....-..
........

Generation = 282, Population = 12.
-.......
........
..-....-
........
........
........
........
........
........
........
..**....
.*..*...
.*.*....
..*.....
........
........
........
........
........
........
........
........
........
........
.*......
*.*.....
.**.....
........
........
........
........
........
........
........
........
........
........
........
......-.
-..-....
.....-..
........

Generation = 376, Population = 12.
-.......
........
..-....-
........
........
........
........
........
........
........
..**....
.*..*...
.*.*....
..*.....
........
........
........
........
........
........
........
........
........
........
.*......
*.*.....
.**.....
........
........
........
........
........
........
........
........
........
........
........
......-.
-..-....
.....-..
........

Generation = 470, Population = 12.
-.......
........
..-....-
........
........
........
........
........
........
........
..**....
.*..*...
.*.*....
..*.....
........
........
........
........
........
........
........
........
........
........
.*......
*.*.....
.**.....
........
........
........
........
........
........
........
........
........
........
........
......-.
-..-....
.....-..
........

Generation = 564, Population = 12.
-.......
........
..-....-
........
........
........
........
........
........
........
..**....
.*..*...
.*.*....
..*.....
........
........
........
........
........
........
........
........
........
........
.*......
*.*.....
.**.....
........
........
........
........
........
........
........
........
........
........
........
......-.
-..-....
.....-..
........

Generation = 658, Population = 12.
-.......
........
..-....-
........
........
........
........
........
........
........
..**....
.*..*...
.*.*....
..*.....
........
........
........
........
........
........
........
........
........
........
.*......
*.*.....
.**.....
........
........
........
........
........
........
........
........
........
........
........
......-.
-..-....
.....-..
........

Generation = 752, Population = 12.
-.......
........
..-....-
........
........
........
........
........
........
........
..**....
.*..*...
.*.*....
..*.....
........
........
........
........
........
........
........
........
........
........
.*......
*.*.....
.**.....
........
........
........
........
........
........
........
........
........
........
........
......-.
-..-....
.....-..
........

Generation = 846, Population = 12.
-.......
........
..-....-
........
........
........
........
........
........
........
..**....
.*..*...
.*.*....
..*.....
........
........
........
........
........
........
........
........
........
........
.*......
*.*.....
.**.....
........
........
........
........
........
........
........
........
........
........
........
......-.
-..-....
.....-..
........

*** Life<Cell> 14x18 ***

Generation = 0, Population = 30.
--------------0---
---0---0--0---0---
---------------0--
----0-------------
------0-----0-----
--0--------0------
0----------0---0--
--------0---------
---0-----0---0----
0-0------------0--
-0---------0------
--------0---------
-0-00--00---------
-----0------------

Generation = 2, Population = 69.
------------0-*10-
-0--1---11------0-
------0-----000--0
---1--10--00--0---
0---1---0-00--0---
1-------00---0----
0-10--0-----10---0
1-----0---01---1--
1----0-0----------
--0-0--------1---0
-0-00--01---------
0-0--00---0----0--
--0*-----100------
---1-0-11---------

Generation = 4, Population = 72.
------0---0-00.---
--1---1-..----1---
0-------------01-0
1-----------------
--00----*10--0*-0-
--11--1---0---0---
-0.-1--1----.----0
--------0--.0-----
*1-0001-10--01---1
1---*00----------0
00---0-*.--0------
---10*--*---0-----
1-0.*0---.-*10----
000*---**0-----0--

Generation = 6, Population = 92.
0---0-*----0-*.--0
------.-*.--1-*-1-
*--0--*-00---10*--
.-1*----1-1---0---
-----011.10--*.00-
-01--1--------*-1-
1-.-1----01-.0101-
---101*----.-----0
**------1----.1--*
----.00-1------0-*
0*-*---*.0-0-0---1
---.-.-0.1----00-0
*1-..-1*0.*..*11--
0--*-1-.**1111-0-0

Generation = 8, Population = 101.
0--1--.--0--*..1--
--11--*-..--1-*-1-
.10*--*-*--01*-.0-
*1..--1-.-.-01-11-
1--1-01*.*0--..*01
1-.--.110-1---.011
-0.-.1*--*.*.*.---
11-.*-.----*110-0*
.*-----1.--0-.--1*
1--1.---.00---0-0*
-.-.1-0*.*0----0-1
-01.1*10*.-----00-
*.-..0..0**..*..1-
*0*.--0....1-1----

Generation = 10, Population = 114.
---*--.---11**.100
1--.--.-*.--1-*-*-
*-*.11*-.-1*1.0.01
.1..--11*-.00--1.-
-0-11--...-11*.*--
*-*-0..**-.1--*0.1
*-.1.*.1-..*...--0
..-.*-.1-1-*-**1-.
*.--*---**0*0*--*.
10--.-*0.0--0----.
*.1.*10*..0-0--*-.
0-..1.**..10-1-00-
*.-****.0****...*1
.0..01-..**1-*-11-

Generation = 12, Population = 101.
101.1-.-11*1*...--
.1*.-1*-..----.-.-
.*..*1*0.-....*.0*
...*00--*1.-*--*.-
1*1*1--...-..*.*-*
*-.1*..**-.101*-..
**.1...--..*...-*-
**0*.-..-**.-.**-.
**-*.**-..-.*.1-*.
.-01.-*0*-------1.
*.1**1-...--*-1*-.
0*..1.....*-1100-1
**-*....**........
.0.*0--....1-.0.10

Generation = 14, Population = 104.
*--.--.1*1*-....-1
.*..-1.0..1-*0.0*-
**...-.*.*..*..**.
**..0--1...*.-1*.-
-*1..11..*-.*..*-.
.**....*.-.-0.*0*.
..*-*..*1..*...-*-
..0.**..-...-...1*
..-..**-*.-....-**
*10..-.0.*000-0-*.
**-..*-.***-*1-.0.
*...***.**.----0-1
**1*.....*****..**
.***-*0...*-*.-.*-

*** Life<Cell> 7x15 ***

Generation = 0, Population = 49.
0---0-0-000-000
0----0---0-00--
-0--0-000-00000
0---0-0-00--0--
-------00---00-
0-0-0--00---0-0
0000-----0-0-00

Generation = 1, Population = 50.
10-0-0--1110--1
1---0-0001--10-
0-0010----11--1
---01-1-11---00
--0-----1--011-
1010-00-----1-1
--11---0----01-

Generation = 2, Population = 50.
-1--0----*-1---
--001-1-1-00*10
1-11-100-0**-0*
0-0--0---*-----
0-1000-0*-01*-0
*----11-0------
0---00--0--0-*-

Generation = 3, Population = 55.
1---100--*1*-01
1--1-0*0----.*-
*-*-1-110-..0-*
---0-----.0-00-
-----101*01-.--
*0100**0-00-101
10-11--0100--.0

Generation = 4, Population = 45.
*1--*1--1.-.--*
-0----.--100..0
.-*--1-*10.*1-*
0----0---.1--1-
001---1*.1*1.-0
*1-11..1-11-*--
--1------1-00.1

Generation = 5, Population = 52.
*-00.*00-*1.-0.
-1--1-*01---*.-
.-.11*-.--..*0*
1---11--1.*0--0
11*-0-**.-.**--
*--**.**-*--*0-
1---1--01*01-*-

Generation = 6, Population = 48.
.111**1-1**.--.
---1*-.1*-00*.0
.0.*-.-.--..*-*
*-0-*----.*-0-1
*-*0-1...1...-0
*--.*...0*-0.-1
*0--*0---*-*0*1

Generation = 7, Population = 46.
.*-*.**0-.*.0-.
---*.-***1--*.1
.-..1.-.1-*.*-*
*01-*----..-1--
*-*1--..**.*.1-
*-1.....1*-1.--
*111*10--*-*-*-

Generation = 8, Population = 47.
..-.**.--*.*10.
-10*.-...*00*.*
.0*.**1.*0..*-.
*--0*1---.*-*-1
*1.*--..**.*.-0
*1-..*.*-.--.--
*-*-*-10-*-.-.1

Generation = 9, Population = 41.
..1**..-1*..*1.
1-1..-*...-1...
*-....*.*-..*0.
*0--.----.*0*-*
.-.*--*.****.11
.--***.*-*-1.--
*1.-.1*--.0.-.-

Generation = 10, Population = 42.
.*-*...0*...**.
*-*..0..**0-...
*-.....*.0*..1.
*110.----..1.-*
.1**--***....*-
.11*...*1.-**01
.*.1.-*--.-.-.-

Generation = 11, Population = 46.
.*1....1*......
*1*..-*...-1**.
*-.*.....-.*.-.
***-.-1-1**-*1*
.*..01*.*..*..1
***.*...-.1.*1*
.*.*.1.-1.-.0*1

Generation = 12, Population = 37.
*.-....*....*..
**.*.0.*..0-*..
.0.*...*.0...-*
*.*-*-*--**-*-*
....--*.*.....-
*.....**-*-..*.
**.**-.0-.0*-.-

Generation = 13, Population = 43.
**-...*....*...
**..*-.*..--.*.
.1.*.*.*.1...1.
.**0.-*--**-.-.
.*..01*.*.*..*1
**...**.1*-....
**...1*11.1.0.-

Generation = 14, Population = 33.
**1............
....*-.**.-1*..
.-.*.*.*.**..*.
**.-.1.--.*1.-*
...*1*..*.*...*
..*.....*.1*.*.
**...-.--.-.-.-

Generation = 15, Population = 37.
.**............
.****-****-**..
.1...*.*.*...*.
..*-.-.01..*.-*
.***-*......***
.****.....-*...
.*...-.-1.1.-.-

*** Life<Cell> 18x22 ***

Generation = 0, Population = 65.
0--0---------------0--
0-------0--------0--0-
----000-----------00--
---------0----0-------
0--------------00---00
-0---------0-0--------
----0----0--------0---
0-----------0-0-------
-0-00--0--0-------0---
-----0-0-----------0--
0----0-------------0--
---0--0--0--00-0-0----
0---0--0--------0-----
-----------------0--00
0--------------0------
---------00------0----
--0-------------0--0--
------------0---0--0--

Generation = 5, Population = 193.
*.*0.1**---00--0-.--*-
.*1-00*-1*-*101---0--*
--.-*-..--*----*--**-1
*1-0--*010-0*---.1-0-0
1*10-1-------.11-*---.
1---000--*--000.0-0-10
*.1**------*0---0-1-0-
--*-*------..1.**--100
*.***---*---.-----11*1
.0--0*-*--000.-.--0111
1-*0--0*-0-00-0011.1-1
--100--1-0*-.*1-*0-111
-1----1*--*1*001*01.--
-00--*-1--00.10---.-*.
---01*01-00---000---00
0-0--1-0..11-*-*1*-111
-0-0-01*--00*----01---
--0-0-0-*-*-10-0*-1.01

Generation = 10, Population = 171.
.....-**.0-*00.--.*..1
*..*.*.-***..-..-*1.1.
.-.*.0**-1.-*.-.0*...-
..*.*-.*-*0..-.-*.*...
*.--.*1*0.1*.*-.*.*0-*
-0*.-1-.1..*001.-*-1*-
..*..-*-**..0--100*.-1
*-*-*1**-01......**.-0
.*.*.-1**1-..1*.1*-1*.
*--*1...-1*--.-..1-**.
*-.-1-.*-1-0.-.0.1..-.
..--*1**1**...*-**0-.-
..*1-**.-**..10..*..**
---10**1*-*0.*.00*....
0-1*.*-.*.**-*0.-.*-*-
-.*-0-....*1..1....**-
---100....1-.*-1---1-1
1---.**-*-*-1*1..-..-.

Generation = 15, Population = 149.
..*..-*****.0..--***.-
.*.**..*.***..**1.-.*.
.*...0..-..***1...*..1
.*.*.1..*.-**-.0.*.***
**-*..-*.*1...-*...0-*
**..-**.....-.**..1..*
*....-*-.*...-*.--..*.
.-*..*..1-...........-
.**...*..*-.*.*...1*..
.1-.1*..-..-*..*.10*..
...**-**.**1...0.-.*-.
...1*.**.......-.**-*1
***--.**-....-1*.*....
---*-**.**.1..*1-..*..
*.*..*-.*...0*-***.**-
1...1**.*..-....*.*..*
.-0.-0.**.-1...---...*
10-1***..-.-.....-***.

*** Life<Cell> 12x77 ***

Generation = 0, Population = 23.
---------------------0------------------------------------------0------------
-------------------------------------------------------------------0---------
----0------------------------------------0-----------------------------------
----------------------------------------------------------------------0--0---
-----------------------------0------0------------------0------------------0--
-----------------------------------0--0--------------------------------------
---------0-------------------------------------------------------------------
-----------0--------------------------------------------0-----------0--------
------------------------------------------0----------------------------------
----------------0----------------0-------------------------------------------
--------------------------------0--------------------------0--------0--------
-----------------------------------------------------------------------------

Generation = 9, Population = 294.
--------1.0-0-0-0-----------0-0--0-0-.1--0-0-----------0-1-0--------*0-0-0-0-
--0------0--00-0-0---------------*---010---------0-----00-0*0------1-*1-0-.-0
-0-0---.--.1-0--0-----------0-00**0--110-0.1----0-0---0-0-0.1-0--0*000.0--.01
--0-0----.-00--------0------00--01--0-.0--.0---0-0-----0---0-0---0-*.*-*.--0-
---0.1---00*0-------0-0------01-.----0.---.*----0---------------0---*0---0.-1
-0--0---0-0*-0---0--------0--1-10-1--*-**1*-*--------------0---0.0.-*1-------
0-1.--.10-1.*.0.0-000-0----0--10---0.00*11*-0-0-0---------0-----.-001---1---0
-00-0.0.1.1-11--.10-0--------.-------**000*0---0-00----------0-0100-.--1.*01-
---0---00*0*0------00-0-00--.-----.-*-.*1110----00-0----0---0--1----*0-01---0
----0--1*1-*1--------0-0-10-------0-1.1.01--------00---0-0--0--0*1-..-1-.---0
---0-0---*01-----------01----------0-0--*-0-------0-0---0--0-0--110-.000-0-0-
----0----1--------------0---------0-01.000---------0--------0-----01*1100-0-0

Generation = 18, Population = 388.
0*00-***.***..-0010-0---00--.-*-**.*-....0-**.0---1-00.1**...-.1-1.-....0*.--
0111-*-*-0.1.-.--10-----111-1*..-*...*1-.1*.-000--0-111*--..*-*--*-....-.*.1.
-.*-00**...*...-*-1-----.----1-*.....-*--**.**-*--*----*-**....*.*.**1*.-.*--
0.110-1--.1.1*1-*1-1.1--*-0-1*.....*-.*..*.*.0-0-----0-0-.*---..1...**..*0.1.
-..0.1--..*.**..1.0*.1.0--..-1...-*.***--....*1..-0**1-*.--...-*1.**..***-...
.-..-1--**.*1-1...--11****..-.1*.-*..*.*..*....---**11*1..11.1-..1*...*-*1.*.
.*..*.*.-1....-*..-0-*.0-0-1**...--...***-...-.*1.**--1-*0--.-.*.--*--*....--
..*1*.*.**-....*.*-.0.-.**0-1**.*-*..**-*0.--*1-*.*0.--1**11*-.1.*.*.-*...1.*
1.*-*0..-**....--***-.1--*-*.1..10.**0...*.-*-1..-*.*0-1-0--*0*....*...***-**
1.-0......*.-.1-..1.*...*1*..**-.--.**.*-*10-.*.*110*--0***-.-****-**-.......
....-.*...--11*-*-**.*...-.0...1--.-..*1..*-*1.-*1.*--01-1-.*-.*-...*-.11---*
--*0.1*-..11.*-0*--*-.--...****0..1**-*-.**-*.--10----0-*101*0**10**.**-..*0.

Generation = 27, Population = 296.
-**-**.......***...--*-*..*-*..-...........*...**0*-1*.-..........*-....-.*-.
-.*.*.**.....**.*-...*-*..*****.-..*.........*..-.-*.**..-....**.........*...
*.*.-....*....*-.....*-0...11.*...*..-.......****-...*1.*...***.**.*.****..-*
-..*-..-.*............**.1-....**...**......*-..1-.-**1**..*.**.*..*..*****.*
...**.**.................**....*.*..*****........*-***-..1*...-.-**..**..1...
*-..*.*......1...*-***..**..*...**......*.......1*.*.*.**..**1-**............
...**..**-........*.**..*1.......***.....1...-.....**.***-...*.***1..1.....*-
.......***1......**...1.**...*...........0*.-*--.**-.****..-.0.....****.....*
...............-.*.*1..**.*.....1..**.....*-*0...1.....*--...-.**..*.**...***
..**........-...***...*.***..*..........1..*..**.**-.-***....****..*.***.***.
..**......-*..**.-.....****..*...1.....1...*...**..*..01*1...**.*.*..1..*.*..
..........**..**.**...-*...**...............**-**-.0.-.0.....-**.......****-.

Generation = 36, Population = 227.
-..-...............*.*1....-*.*-.................-.........................-.
........***....*..**....**....*.................*.1......-............***....
.......*..*......**...-.*..**.*.........**.....***.**.*.*.........**..*....-.
-.....*-.........*.**......*...*.***...********...**...***....**.*...*.*****.
.........*..........*..........*....*.**.*.******.1**...*.........**.*....*..
.-..**.***...1...........*.......*.*...*.**......**....*.....*...*.*****....*
.....*.*.*...*...........*.....*.**.....***......*.*...*.....*..*...*..*.*...
.***....**..*....*........................*.-..-...1....*..-.*..*..****.....*
.......**....*....*...***.......-.......**.......**....***....*.*.***..****..
.......*...*......*.....................*...**..*...**.*..*.....***....****..
..*...*...*...**.*...............-.....-.****...*.*..**.*.*......*...**......
...***....*...**......-...................*.****.1***-..**...-...............

*** Life<Cell> 63x35 ***

Generation = 0, Population = 18.
--------0--------------------------
-----------------------------------
-----------------------------0-----
--------0--------------------------
-----------------------------------
-------0--------------0------------
-----------------------------------
-----------------------------------
-----------------------------------
-----------------------------------
-----------------------------------
-----------------------------------
------------------0----------------
-----------------------------------
-----------------------------------
------------------------0----------
-----------------------------------
-----------------------------------
-----------------------------------
-----------------------------------
-----------------------------------
-----------------------------------
-----------------------------------
-----------------------------------
-----------------------------------
------------0----------------------
-----------------------------------
---------------0-------------------
-----------------------------------
-----------------------------------
-----------------------------------
--------------0--------------------
-----------------------------------
-----------------------------------
-----------------------------------
-----------------------------------
---------------------------------0-
-----------------------------------
-----------------------------------
-----------------------------------
--------0--------------------------
-----------------------------------
---------------------------0-------
-----------------------------------
-----------------------------------
----------------------0------------
--------------------0--------------
-----------------------------------
-----------------------------------
-----------------------------------
-----------------------------------
-----------------------------------
-------------0---------------------
-----------------------------------
-----------------------------------
----0------------------------------
-----------------------------------
-----------------------------------
-----------------------------------
-----------------------------------
-----------------------------------
-----------------------------------
---------------------------0-------

Generation = 1, Population = 70.
-------0-0-------------------------
--------0--------------------0-----
--------0-------------------0-0----
-------0-0-------------------0-----
-------00-------------0------------
------0-0------------0-0-----------
-------0--------------0------------
-----------------------------------
-----------------------------------
-----------------------------------
-----------------------------------
------------------0----------------
-----------------0-0---------------
------------------0----------------
------------------------0----------
-----------------------0-0---------
------------------------0----------
-----------------------------------
-----------------------------------
-----------------------------------
-----------------------------------
-----------------------------------
-----------------------------------
-----------------------------------
------------0----------------------
-----------0-0---------------------
------------0--0-------------------
--------------0-0------------------
---------------0-------------------
-----------------------------------
--------------0--------------------
-------------0-0-------------------
--------------0--------------------
-----------------------------------
-----------------------------------
---------------------------------0-
--------------------------------0-0
---------------------------------0-
-----------------------------------
--------0--------------------------
-------0-0-------------------------
--------0------------------0-------
--------------------------0-0------
---------------------------0-------
----------------------0------------
--------------------00-0-----------
-------------------0-00------------
--------------------0--------------
-----------------------------------
-----------------------------------
-----------------------------------
-------------0---------------------
------------0-0--------------------
-------------0---------------------
----0------------------------------
---0-0-----------------------------
----0------------------------------
-----------------------------------
-----------------------------------
-----------------------------------
-----------------------------------
---------------------------0-------
--------------------------0-0------

Generation = 2, Population = 71.
------0-0-0------------------0-----
--------1--------------------------
--------1------------------0---0---
------01--0-----------0------------
-----------------------------0-----
-----0--10----------0---0----------
-----------------------------------
-------0--------------0------------
-----------------------------------
-----------------------------------
------------------0----------------
-----------------------------------
----------------0---0--------------
------------------------0----------
------------------0----------------
----------------------0---0--------
-----------------------------------
------------------------0----------
-----------------------------------
-----------------------------------
-----------------------------------
-----------------------------------
-----------------------------------
------------0----------------------
-----------------------------------
----------0---00-------------------
-----------------------------------
------------00---0-----------------
-----------------------------------
--------------00-------------------
-----------------------------------
------------0---0------------------
-----------------------------------
--------------0--------------------
---------------------------------0-
-----------------------------------
-------------------------------0---
-----------------------------------
--------0------------------------0-
-----------------------------------
------0---0----------------0-------
-----------------------------------
--------0----------------0---0-----
----------------------0------------
--------------------0------0-------
--------------------1---0----------
------------------0---1------------
----------------------0------------
--------------------0--------------
-----------------------------------
-------------0---------------------
-----------------------------------
-----------0---0-------------------
----0------------------------------
-------------0---------------------
--0---0----------------------------
-----------------------------------
----0------------------------------
-----------------------------------
-----------------------------------
---------------------------0-------
-----------------------------------
-------------------------0-0-0-----

Generation = 3, Population = 261.
-----0--1--0----------------0-0----
------00-00----------------0-0-0---
------0-*00-----------0---0-0-0-0--
-----01*-0-0---------0-0---0-0-0---
-----000000---------0-0-0---0-0----
----0-00*10--------0-0-0-0---0-----
-----0-000----------0-0-0----------
------0-0------------0-0-----------
-------0--------------0------------
------------------0----------------
-----------------0-0---------------
----------------0-0-0--------------
---------------0-0-0-0--0----------
----------------0-0-0--0-0---------
-----------------0-0--0-0-0--------
------------------0--0-0-0-0-------
----------------------0-0-0--------
-----------------------0-0---------
------------------------0----------
-----------------------------------
-----------------------------------
-----------------------------------
------------0----------------------
-----------0-0---------------------
----------0-0-00-------------------
---------0-0-0110------------------
----------0-0000-0-----------------
-----------0110-0-0----------------
------------0000-0-----------------
-------------0110------------------
------------0-000------------------
-----------0-0-0-0-----------------
------------0-0-0------------------
-------------0-0-----------------0-
--------------0-----------------0-0
-------------------------------0-0-
------------------------------0-0--
--------0----------------------0-0-
-------0-0----------------------0-0
------0-0-0----------------0-----0-
-----0-0-0-0--------------0-0------
------0-0-0--------------0-0-0-----
-------0-0------------0-0-0-0-0----
--------0-----------00-0-0-0-0-----
-------------------0100-0-0-0------
------------------00*000-0-0-------
-----------------0-000*00----------
------------------0-0010-----------
-------------------0-00------------
-------------0------0--------------
------------0-0--------------------
-----------0-0-0-------------------
----0-----0-0-0-0------------------
---0-0-----0-0-0-------------------
--0-0-0-----0-0--------------------
-0-0-0-0-----0---------------------
--0-0-0----------------------------
---0-0-----------------------------
----0------------------------------
---------------------------0-------
--------------------------0-0------
-------------------------0---0-----
------------------------0-----0----

Generation = 4, Population = 70.
----0-------0----------------0-----
-------1--------------0------------
--------.----------------0-------0-
----0--.----0----------------------
--------1--------------------------
---0----.--0------0-------0--------
-----------------------------0-----
--------1--------------------------
------------------0----------------
-------0--------------0------------
-----------------------------------
------------------------0----------
--------------0-------0------------
-----------------------------------
-----------------------------------
--------------------0-------0------
------------------0----------------
-----------------------------------
-----------------------------------
------------------------0----------
-----------------------------------
------------0----------------------
-----------------------------------
---------------0-------------------
-----------------------------------
--------0-------1------------------
-----------------------------------
-----------1--1----0---------------
-----------------------------------
------------0----------------------
-----------------------------------
----------0----1--0----------------
---------------------------------0-
-----------------------------------
-----------------------------------
--------------0--------------------
--------0--------------------0---0-
-----------------------------------
---------------------------0-------
-----------------------------------
----0-------0--------------------0-
----------------------0------------
--------------------0--0-------0---
-----------------------------------
--------0--------------------------
------------------1-.-----0--------
----------------0-----.-1--0-------
-----------------------------------
-------------0---------------------
----------------------0------------
--------------------0--------------
----0------------------------------
---------0-------0-----------------
-----------------------------------
-----------------------------------
0-------0--------------------------
-------------0---------------------
-----------------------------------
---------------------------0-------
----0------------------------------
---------------------------0-------
-----------------------------------
-----------------------0-------0---

Generation = 5, Population = 263.
---0-0-0---0-0--------0-----0-0----
----0-0-1---0--------0-0-0---0---0-
----0--0.---0---------0-0-0-----0-0
---0-0-.0--0-0-----------0-------0-
---00--0-0-00-----0-------0--------
--0-0---.-0-0----0-0-----0-0-0-----
---0----0--0------0-------0-0-0----
-------0-0--------0----------0-----
-------00--------0-0--0------------
------0-0---------0--0-0-----------
-------0--------------0-0----------
--------------0-------00-0---------
-------------0-0-----0-00----------
--------------0-------0------------
--------------------0-------0------
------------------00-0-----0-0-----
-----------------0-00-------0------
------------------0----------------
------------------------0----------
-----------------------0-0---------
------------0-----------0----------
-----------0-0---------------------
------------0--0-------------------
--------------0-0------------------
--------0------00------------------
-------0-0-----1-0-----------------
--------0--0--0-0--0---------------
----------0-11-0--0-0--------------
-----------00-0----0---------------
-----------0-0---------------------
----------0-0--0--0----------------
---------0-0--0-00-0-------------0-
----------0----0--0-------------0-0
---------------------------------0-
--------------0--------------------
--------0----0-0-------------0---0-
-------0-0----0-------------0-0-0-0
--------0------------------0-0---0-
--------------------------0-0------
----0-------0--------------0-----0-
---0-0-----0-0--------0---------0-0
----0-------0-------00---------0-0-
-------------------0-0--0-----0-0--
--------0-----------0--0-------0---
-------0-0--------0-------0--------
--------0-------00-0.---00---------
---------------0-00---.0-0--0------
-------------0--0-------0--0-------
------------0-0-------0------------
-------------0------00-0-----------
----0--------------0-00------------
---0-0---0-------0--0--------------
----0---0-0-----0-0----------------
---------0-------0-----------------
0-------0--------------------------
-0-----0-0---0---------------------
0-------0---0-0--------------------
-------------0-------------0-------
----0---------------------0-0------
---0-0-----------------------------
----0---------------------0-0------
-----------------------0---0---0---
----------------------0-0-----0-0--

Generation = 6, Population = 242.
--0-0-0---0-0-0----------0-0-0-0-0-
----10---0--1-------0---0----------
----1---*---1----------0---0-0-0---
--01--1*--01--0---0---0---0--------
------0-1-0--------------0---0---0-
-0--10-0*---10--0---0---0---0------
------------------1--------0---0---
---0--01--00------1---0---0--------
----------------0---0--------0-----
-----0--10----------0--------------
--------------0---0---1------------
-------0------------------0--------
------------0---0---0---1----------
--------------------0---0---0------
--------------0---0---0------------
------------------1---0---0---0----
----------------0---1--------------
--------------------0---0---0------
------------------0----------------
------------0---------0---0--------
-----------------------------------
----------0---00--------0----------
-----------------------------------
--------0---00--10-----------------
-----------------------------------
------0---00---*--00---------------
-----------------------------------
--------00---*---0---0-------------
-----------------------------------
-----------1---1--00---------------
---------------------------------0-
--------0----0--11--0--------------
-------------------------------0---
----------0---00--0----------------
--------0--------------------0-----
------------0---0------------------
------0---0------------------------
--------------0--------------------
----0---0---0------------0---------
----------------------0------------
--0---0---0---0-----0--0---0-------
--------------------1---0----------
----0---0---0-----0--10--0---0-----
------------------0---0---0--------
------0---0-----0---1--00--0---0---
----------------1---.---1---0------
--------0----00---1---.--10--0-----
------------------0---1---0--------
-----------0---00---0---0--0-------
----0---------------1---0----------
---------0---0---00---1------------
--0---0---------------0------------
-------0---0---0---00--------------
0---0---0--------------------------
---------0---0---0-----------------
0-0---0---0------------------------
-----------0---0-----------0-------
0---0---0--------------------------
-------------0-----------0-0-0-----
--0---0----------------------------
-----------------------0-0-0-0-0---
----0------------------------------
---------------------0-0-0-0-0-0-0-

Generation = 7, Population = 710.
-0--10-0----1--0----0-------------0
--00*1-----0-00----0-0-----------0-
--0-*-0-*-0-*00---0-0-----------0--
-01*-0-.00-*-0-0-0-0-0---------0-0-
-0000-1-*-1-000-0-0-0-0-------0-0-0
0-00*101*100*100-000-0-0-------0-0-
-0-0000-0-0000--00*00-0-0-----0-0--
--0-001*10110---00*000-0-0---0-0---
---0-0000000---0-000100---0-0-0----
----0-00*10---0-0-00100------0-----
-----0-000---0-0-0-000-0--0--------
------0-0---0-0-0-0-0-0-00-0-------
-------0---0-0-0-0-010-0*00-0------
------------0-0-0-00100010-0-0-----
-------------0-0-01000100-0-0-0----
--------------0-00*00010-0-0-0-0---
---------------0-000*00-0-0-0-0----
----------------0-0010-0-0-0-0-----
------------0----0-00-0-0-0-0------
-----------0-0----0--0-0-0-0-------
----------0-0-00------0-0-0--------
---------0-0-0110------0-0---------
--------0-0-000000------0----------
-------0-0-01100*10----------------
------0-0-0000-00000---------------
-----0-0-0110-1.10110--------------
------0-0000-0-0-000-0-------------
-------0110-1.1-0-0-0-0------------
--------00-0-0-0-000-0-------------
----------0-0-1-00110------------0-
--------0--0-0-000000-----------0-0
-------0-0--0-01**00-0---------0-0-
--------0-0--000000-0---------0-0--
--------00-0-01100-0---------0-0---
-------0-00-0-000-0---------0-0----
------0-0-00-0-0-0-----------0-----
-----0-0-0-00-0-0------------------
----0-0-0-0-00-0---------0---------
---0-0-0-0-0-00-------0-0-0--------
--0-0-0-0-0-0-0-----00---0-0-------
-0-0-0-0-0-0-0-0---010----0-0------
--0-0-0-0-0-0-0---00*-0----0-0-----
---0-0-0-0-0-0---010-*-0----0-0----
----0-0-0-0-0---00100-1-0----0-0---
-----0-0-0-0---01000-0-1-0----0-0--
------0-0-0--000*01-.---*-0----0---
-------0-0--011000*0--.--*-0--0----
--------0--0-000001000-00-1--0-----
----0-----0-0-011000100010--0------
---0-0---0-0-0-00000*00010-0-------
--0-0-0-0-0-0-0-011000*00----------
-0-0-0---0-0-0-0-0000010-----------
0-0-0-----0-0-0-0-01100------------
-0-0-0-----0-0-0-0-00--------------
--0-0-0-----0-0-0-0----------------
---0-0-0-----0-0-0---------0-------
--0-0-0-0---0-0-0---------0-0------
-0-0-0-0-0-0-0-0---------0---0-----
0-0-0-0-0---0-0---------0-----0----
-0-0-0-0-----0---------0-------0---
--0-0-0---------------0---------0--
---0-0---------------0-----------0-
----0---------------0-------------0

Generation = 8, Population = 94.
0-------1-------0------------------
----.--11-------------0------------
----.---*0--.--------0-----------0-
0--.--1.11-.----0------------------
------*0.-*-------1----------0-----
----.*--.--1.-11--------------0----
------1---1-------.----------------
-------.-1--------.-----0----------
-----------------------------------
--------.--------------------------
-----------------------------0-----
--------1--------------------------
----------0-------------.-1--------
-------0--------------1------------
-----------------------------------
----------------1-.-------------0--
--------------------.--------------
------------0----------------------
-----------------------------------
---------------0-------------------
------------------0----------------
-----------------------------------
-----------------------------------
--------------1-.-------0----------
-----------------------------------
----0----------.----1--------------
-----------------------------------
-------1-----.---------0-----------
---------------------------------0-
-----------------------------------
-----------------------------------
------0---------..----0------------
--------1--------------------------
------------0----------------------
---------------------------0-------
---------------1-------------------
-------------------------0---0-----
----------------------0------------
--------------------0--------------
--------------1--------------------
0---------------0------------------
--------------------.--------------
-------------------1-.-------------
--------------------1--------------
-------------0------1-0----------0-
--------------1-.-*0*0--*-----0----
------------1-----.--0.01.--0------
----0---------------1-1------------
--------0-------------1------------
--------------------.--------------
----------------------.----0-------
-----------------------------------
-----0---------------1-------------
----------------------0------------
--------------------0------0-------
--0---------0----------------------
---------------------------0-------
-----------------------------------
-----------------------------------
-----------------------------------
-------------0---------------------
-----------------------------------
-------------------0---------------

Generation = 9, Population = 274.
-0------*0-----0-0----0------------
0---.-0**-------0------0---------0-
0---.-0-.-0-.---0---0-----------0-0
-0-.-0*.---.---0-00--0-------0---0-
0-----*1*-*---0000-0--------0------
----.*01.-0-.1**0-0------------0---
-------0------00--.-----0-----0----
------1.1---------.----0-0---------
---------0--------------0----------
--------.--------------------0-----
--------0-------------------0-0----
-------0-00---------------0--0-----
-------000-0----------0-.0-0-------
------0-0-0----------0-0--0--------
-------0--------0-----1---------0--
---------------0-0.------------0-0-
------------0---0---.-----------0--
-----------0-0---------------------
------------0--0-------------------
--------------0-0-0----------------
---------------0-0-0---------------
------------------0----------------
--------------0---------0----------
-------------1-0.------0-0---------
----0---------0-----0---0----------
---0-0---------.---1-0-------------
----0--0------------0--0-----------
------0-1----.--------0-0--------0-
-------0---------------0--------0-0
---------------------------------0-
------0---------------0------------
-----0-00-------..---0-0-----------
------00-0--0---------0------------
--------0--0-0-------------0-------
------------0--0----------0-0------
--------------0-0--------0-0-0-----
---------------0------0-0-0-0-0----
--------------------00-0-0---0-----
--------------0----0-00------------
0------------0-00---0--------------
-0------------00-0-----------------
0---------------0--0.--------------
------------------1--.-------------
-------------0------*01----------0-
------------0-----0--0-10-----0-0-0
------------0--0.0.-.---*0--00-0-0-
----0------0-11---.001.1-.-0-00----
---0-0--0---0------0-0*-0---0------
----0--0-0----------10*0-----------
--------0-----------.-0----0-------
----------------------.---0-0------
-----0---------------0-----0-------
----0-0-------------1--------------
-----0--------------0--0---0-------
--0---------0------0-00---0-0------
-0-0-------0-0------0--------------
--0---------0-------------0-0------
---------------------------0-------
-----------------------------------
-------------0---------------------
------------0-0--------------------
-------------0-----0---------------
------------------0-0--------------

Generation = 10, Population = 289.
--0---0-*10---0-0-0--0-----------0-
1---.1-.*-0-----1---0---0----------
1---.---.0-0.---1-00---0-----0-0---
0-1.01..1--.---1--1---0-------0----
-----0.**-.0----1---00-----0---0-0-
0---.*1*.111.*..-0------0---0---0--
-----011--1-------.----------0-----
-----0-*------00--.---0---0---0----
------0---0------------------0-----
--------.1--------------0----------
----------0---------------00---0---
------01--1-----------0------------
--------1---0-----------.---00-----
-----0--10------0---1---1-------0--
----------0---------------0--------
-------0----0-0---.---1-------0---0
--------------------.--------------
----------0---000---------------0--
------------------0----------------
------------00---0-----------------
----------------0---0--------------
--------------11--------0----------
------------------0----------------
----0-------1---.---0-0---0--------
-----------------------------------
--0---00------1.--1---000----------
---------------------------------0-
----00---1---.------00---0---------
-------------------------------0---
------00--------------00-----------
--------0------------------------0-
----0---1---0---..--0---0----------
------1---0----------------0-------
------0---0---11------0------------
--------0--------------------------
------------00---0----0------------
--------------------0--0---0---0---
--------------00----1---0----------
0---------------0-0---1--0---0-----
------------0---1-----0------------
0-0-----------1---001--------------
--------------0-----.--------------
0------------0--00--0*0----------0-
--------------0----0*1*-0-----0----
-----------01--0---0-10*----0--0---
----0-------1---.-*0.--0.10-1---0--
--------0-0--**--0*---.-1*0---1--0-
--0---0-------0---11-1.--0----0----
------0---0-0-------*1.1---00------
----0---------------.-1------------
-----0--0------------0.--0---0-----
----------------------1------------
---0---0-----------1*--0-----------
--0---------0-------1---0----------
-----0------------0--11--0-0-0-----
0---0-----0---0-------0------------
--------------------0----0-0-0-----
--0---------0----------------------
-------------0-------------0-------
-----------------------------------
-----------0---0---0---------------
-----------------------------------
-------------0---0-0-0-------------

Generation = 11, Population = 696.
00-0----*--0-0--1--0--0-0-------0-0
*00-.--**-1---00-0-------0---0-0-0-
-00-*---*-0-.---*--1--------0-0-0--
1--.1-***--.--0-00*-0------0---0-0-
--0---...-.100----1011--0-0-----0-0
-0--*.*..**-*...--0-00-0-0---------
0---01**0-*--000-0.---0-0-0-----0--
----01-*1----0110-.--0-0-0-0-0-0---
-----------0--00------0-0-0-0------
------0-.-0------------0-000-0-0---
------00--10----------1-00110-0-0--
-----01*-0*00--------0-0--0000-0---
-----00-*-00-0--0---1-0-.--0110-0--
----0-00-1--0--0-0-0-0-0-00-00-0-0-
-----0-00--00-0-0---0-1-00-0--0-0-0
------0-0-00---0--.--0-0--0--0-0-0-
-------0--0-0--00---.-0-------0-0-0
---------0-0-01-100------------0-0-
----------0-00000--0------------0--
-----------0110-----0--------------
------------000----0-0--0----------
-------------0**--0-0--0-0---------
----0-------0-00-0-00-0-0-0--------
---0-0-----0-1--.-00---0-0-0-------
--0-0-00----0-0---0-0--00-0--------
-0-0-0110----0-.-0-1-01-10-------0-
--0-0000-0----0---0-000000------0-0
---0110-1-0--.-----0110-0-0----0-0-
----0000-0----------0000-0----0-0--
-----011-------------0110------0-0-
----0-0-10--0-------0-000-------0-0
---0-000*000-0--..-0-0-0-0-0-----0-
----00*010100-00----0-0-0-0-0------
-----0100010-0**0----0-0---0-------
------00-00-0000-0-----------------
--------0--0110-0-0-00-----0---0---
------------0000-0-010----0-0-0-0--
0------------011--00*00----0-0-0---
-0----------0-0-1--000*0--0-0-0----
--0--------0-010*0-00010-0---0-----
---0--------00*0001-*00------------
--0-----------100000.00----------0-
-0----------0-00111--.-00-----0-0-0
0----------00---001-.-.0-0--00---0-
----0-----01-0--1---1-1.-00010-----
---0-0--0-0-*-10.-.-*0-1.---*00----
--0-0-00---0-**001.0-1.-*.-000*0--0
-0-0-0100---0-10---*1**0-1-00010-0-
--0-0010-0---00---0-*-.-1001100----
---0--0-0-0-0-------*0---0-000-----
------00-0----------0-*-0-0-0-0----
---0-0-00----------00----0---0-----
----0-0-0---0-----0**1-------------
-0---0-0---0-0----0-*-0----0-0-----
0-0---0---0-0-0--0-0-*-0------0----
-0-0-----0-0-0-0--0-0-10-----------
0-0-0-----0-0-0----0-00-0-----0----
-0-0-------0--------0----0---0-----
--0-----------0-----------0-0------
-----------0-0-0---0-------0-------
----------0-0-0-0-0-0--------------
-----------0-0-0-0---0-------------
------------0-0-0-----0------------

Generation = 12, Population = 353.
--0-1---*1--------0-00-------0---0-
.---.-0**-*---11--0---0---0---0----
1---.000.-10.---.0-------0---0---0-
---.*-.**10*0-----.-1---0----------
0--0--*.*0**11--1-*---0--0-------0-
---0*.*.***1....--10--0---0-------0
---01*..-0*0--1-0-.-00-------0---0-
0--0--1.-1110---1-.-0-------0------
----00000---0-------------1--0-----
-----01-.110--00------0-------0----
------1-0-*-------------11-------0-
----0--.11.-1---0---------------0--
------1-.-----0--------0*01---1----
---0-------01-----------1-1--------
------------------------1----0-----
--------1---0--11-.---------0-----0
----------1-------0-.-----0--------
-------00-------*-1---0------------
-----------------------------------
-----------1--1-0--0----0-------0--
--------------1-------0------------
----0-------0-..0---1--------------
-----------------------------------
-------0--0---10.---0--1----0------
---------------0--1--------------0-
0-------1-----1.1-------*----------
---------------0-------------------
---1--1----1-.1----1--1-1--0-------
--------0--------------------0---0-
----0-------0-------0--------------
---------------------------0-------
--0----1.-1----1..0----1--0--------
----1-.-----1------------0---0---0-
--------1-----..1-----0------------
--------------------0--0-------0---
------0----1--1----0--0------------
0-------0-------0----1---0---0---0-
------------0-----1-.-----0--------
----------------*--1--.-0--0-------
----------0----1.-0----------------
--0-0-------11.-----.-1--0---0---0-
--------------*----1.---0-----0----
------------1--1--*--.--1---0------
----0---------0-11-0.-*101---------
0-------00------*-00*1-*0----1---0-
----------1-.---.0.-.-0-*100.-----0
--------0----..--**1--.1*.0---.-0--
0-------1-----*--0-.*.*1-*11-------
----11------01---0-0.1.-*--------0-
--------------0---00*1--11----0----
------------0--------0.----01--0---
--0-0-------0-------1-1------------
-0------10-------0-..*---0-0-------
------------------1-.-----0--------
----------------0----.-10--0---0---
0-----0-0-------0------------------
-----0-------0-------1-0-------0---
----------------------0------------
-------------------00------0-------
--0---------0----------------------
---------0-------0-0-------0-------
-----------------------------------
-------------0-0-------0-----------

Generation = 13, Population = 781.
-0---00-**----00-01-11----0-0---0-0
.-0-.--..0*--0**1-100--0---0-0-0---
-0--.111.-*-*-00.---0-0-----0---0-0
---.*-...*-.----00.0-000-0---0-----
-00100*..-..**00--*-1110--------0--
0-01..*....*.*.*-0-1--10---0-0---0-
0-01*.**-1.1-0--10.--1----0---0-0--
-00101*.--**-011*0.01-----00-0---0-
0---11--10-010000---1-0--0-0-------
------*-.**1-0110----0-0000----0-0-
----0-*-1-.-0-000-----10**1---0---0
---0-0-.-*.0-000-0-----0--0---00---
---000-0.0-0-0-00-----01*--0-1-00--
--0-0-0---01*00----------0*0-00----
---0----0--0---00------0*00---0---0
-------0-000-00**0.-----0-00-----0-
-------0-0-00--0-010.-0--0-00-----0
------01100----0.-*0-0-0--0--------
-------00--0--0---00--0-0-------0--
----------0-11*--00-0-00-0-----0-0-
----0------000*0---000-00-------0--
---0-0-----0-0..-0-0-00------------
----0--0--0-0-000------0----0------
------0-00-0-1*-.-00-00-0--0-0---0-
0------00-0---01-0-00--00---0---0-0
-0-----1-0---0-.-01----0.0-------0-
0--0--0-0--0--0----0--0----0-------
--0-11-11-0-1.----0-11---00-00---0-
---00-00-0-00-0----00-0-0--00-0-0-0
---0-0--0--1-0-----1-0-----0-0---0-
--0-0--0--0-0--0--0-0--0----0------
-0-00-0-.0-00-0-..-0--0-0----0---0-
--00-0.01-10-0-00-0---000---0-0-0-0
----0--0-0--0-..-0--00---0---0-0-0-
------0-0--0--0-0----00-0-----0-0--
0----0-00-0-11-10-0------0---0-0-0-
-0----00-0-00-00-0001---0---0-0-0-0
0-------0--0-0---0--.0--0----0---0-
----------0-0---.00-0-.0-0--0------
--0-0----0-0001-.0----1-00-0-0---0-
-0---0----00***0--10.0-0--0-0---0-0
--0-0---------*-----.-001---0--0-0-
----0------0-00---*1-.0----0-00----
0--0-0--00--00-0-*-1.-**-*0-00---0-
-0--0--011----00*-11**-.10001-0-0--
0----------0.---*1.-.---.-11.0--0--
0------0100--..-0*.*--.-..-0--.0-00
-0--00-0*0--0-.00--.***--.**0---00-
0--0**1-0--01*0-1101.*.-.001--0-0-0
----00---------0--11.*10-*0000---0-
--0-0------0100---1001*-0001*0--0--
-----0--00-010---0-0---0-0--0--0---
0---0--0*10-0---0--..*--0-0-0------
-0------00------0--0.0-00--0---0---
0-----0-0------0100--.1*10--0-0-0--
-0-------0---0-010---0--0--0-------
0---0---0---0-0-0---0-0-0-----0-0--
-----0-------0-----00------0---0---
--0---------0-----01100---0-0------
-0-0-----0-0-0---0--0--------------
--0-----0-0-0---0---0-----0-0------
---------0---0-0-0-0---0---0-------
------------0---0-----0-0----------

*** Life<Cell> 64x35 ***

Generation = 0, Population = 62.
-------------------0---------------
-----------------------------------
-----------0-----------------0-----
-----------------------------------
----------0-------0------------0---
-----------------------------------
------------------------0----------
-----------------------------------
---------------------------0-------
-----------------------------------
-----------------------------------
-----0---------------0-------------
--------------0--------------------
-------------0---------------------
-----------------------------------
-----------------------------------
----0-----------------------0------
-----------0--0--------------------
-----------------------0-----------
-----------------0-----------------
-----0-----------------------------
---0-------0----0-----------------0
-----------------------------------
-----------------------------------
-----------------------------------
--------------------------------0--
-----------------------------------
------0----------------------------
--0--------------------------------
------00------------0--------------
---0------0---------0-----------0--
---------------0-------------------
-0---------------------------------
-----------------------------------
-----0------0----------------------
---------------------------------0-
------0----------------------------
---00------------------------------
-----------------------------------
---------------0-------------------
-----------------------------------
--0--------------------------------
---------------------------------0-
----------------------------0-0----
-----------------------------------
-----------------------------------
-----------------------------------
-----------------0-----------------
-----------------------------------
-----------------------------------
---------------0-------------------
-----------------------------------
--0------0----------------0--------
-----0-----------------------------
-0---------------------------------
---0-------------------------------
-----------------------------------
-----------------------------------
-----------------------------------
-----00---0-------0----------------
--------------------------0--------
---------------------0-------------
-----------------------------------
--0-----------------------0--------

Generation = 149, Population = 116.
..............*...**..............-
.............*.*..**.............--
..............**...................
...................................
.....**....................*.......
.....**...................*.*......
..........................*..*.....
...........................**......
...................................
...................................
...................................
...................................
.............*.....................
.............*.....................
.............*.....................
...................................
...............***...............**
.................................**
...................................
...................................
.............................-.....
..............................-....
...***.............................
...................................
.*.................................
.*............*....................
.*...........*.*...................
............*..*...................
...***.......**....................
...................................
...................................
...................................
...................................
................................**.
...................**...........**.
...................**..............
......-............................
...................................
..-................................
...................................
...............................*...
..............................*.*..
.-...........................*..*..
..............................**...
....*..........*...................
....*........*..*.........*........
....*........*...*.......*.*.......
............**...*......**.**......
.................**....**..*.......
...............*........*.*........
................*.*........*.......
...............*..**....**....**...
..............**.**......*.........
...............*.*.......*.........
................*.........*......*.
.........**................*...**..
.........**........................
...................................
...................................
...................................
...................................
...................................
-...........-......................
1.........................-.-......

Generation = 298, Population = 72.
..............*...**..............-
.............*.*..**.............--
..............**...................
...................................
.....**....................*.......
.....**...................*.*......
..........................*..*.....
...........................**......
...................................
...................................
...................................
...................................
...................................
............***....................
...................................
................*..................
................*................**
................*................**
...................................
...................................
.............................-.....
....*.........................-....
....*..............................
....*..............................
...................................
***...........*....................
.............*.*...................
....*.......*..*...................
....*........**....................
....*..............................
...................................
...................................
...................................
................................**.
...................**...........**.
...................**..............
......-............................
...................................
..-................................
...................................
.............................*.....
.............................*.....
.-...........................*.....
...................................
...................................
...***....**.......................
..........**............**.........
........................**.........
...................................
...................................
...................................
...................................
...................................
...................................
...................................
................................*..
................................*..
................................*..
...................................
...................................
...................................
...................................
1...........-......................
-.........................-.-......

Generation = 447, Population = 72.
..............*...**..............-
.............*.*..**.............--
..............**...................
...................................
.....**....................*.......
.....**...................*.*......
..........................*..*.....
...........................**......
...................................
...................................
...................................
...................................
.............*.....................
.............*.....................
.............*.....................
...................................
...............***...............**
.................................**
...................................
...................................
.............................-.....
..............................-....
...***.............................
...................................
.*.................................
.*............*....................
.*...........*.*...................
............*..*...................
...***.......**....................
...................................
...................................
...................................
...................................
................................**.
...................**...........**.
...................**..............
......-............................
...................................
..-................................
...................................
...................................
............................***....
.-.................................
...................................
....*..............................
....*.....**.......................
....*.....**............**.........
........................**.........
...................................
...................................
...................................
...................................
...................................
...................................
...................................
...................................
...............................***.
...................................
...................................
...................................
...................................
...................................
-...........-......................
1.........................-.-......

Generation = 596, Population = 72.
..............*...**..............-
.............*.*..**.............--
..............**...................
...................................
.....**....................*.......
.....**...................*.*......
..........................*..*.....
...........................**......
...................................
...................................
...................................
...................................
...................................
............***....................
...................................
................*..................
................*................**
................*................**
...................................
...................................
.............................-.....
....*.........................-....
....*..............................
....*..............................
...................................
***...........*....................
.............*.*...................
....*.......*..*...................
....*........**....................
....*..............................
...................................
...................................
...................................
................................**.
...................**...........**.
...................**..............
......-............................
...................................
..-................................
...................................
.............................*.....
.............................*.....
.-...........................*.....
...................................
...................................
...***....**.......................
..........**............**.........
........................**.........
...................................
...................................
...................................
...................................
...................................
...................................
...................................
................................*..
................................*..
................................*..
...................................
...................................
...................................
...................................
1...........-......................
-.........................-.-......

*** Life<Cell> 50x50 ***

Generation = 0, Population = 99.
--------------------------0-----------------------
-------------------0-------0----------------------
----------0--------------0------------------------
-------------------------------------0-----------0
0-------------------------------------------0-----
-----------0----------------------0---------------
-------------0----0--------0----------------------
------------------------------------------------0-
------------------0-------------------0-----------
-----0-------00-----------------------------------
------------------0------------------0-----0------
-----------------------0-----------0--------------
0-------------------------------------------------
---------0----------0-----------------------------
----------------------------0-----------0------0--
00------------0--0---------------------------0----
---------------------------------------0----------
-------------------------------------0------------
---------------------------------0--------------0-
------------------0--0--0-----0-------------------
-----------0-----------------------0--------------
----------------------------------0---------------
--------------0-------------0---------------------
--------------------------------------------------
------------0-----0--------------------0----------
-----------------0--------------------------------
-------00----0---------------------------0--------
---------------------------------------------0----
---------------------------------0----------------
---------0----------------------------------------
--------------------------------------------------
------------------0-------------------------------
------------------0-------------------------------
----0------------------------00--------------0----
---------0-----------------------0----------------
---------0-------------0--------------------------
--------------------------------------------------
-----0----------------------------0---------------
--0----0-------------------------0----------------
--------------------------0-----------------------
------------0-----------------------------------0-
0-------------------------0-----------------------
-------0---0-------0---------------------0----0---
--------------------------------------------------
-----0--------------------------------------------
--------------------0--0----------0-------------0-
------0----------------------------------0--------
----00--------------------------------------------
----------0-------------------0-------------------
--------------0--------------------------00-------

Generation = 2, Population = 357.
----------0-------------010-0---------------------
-----------------0---0---1---0-------0-----------0
0-------0---0----------0--11----------------0-----
-----------0-------0-------0------00---0-------0-0
0-0-------0--0----0------0-0--------------0---0---
---------0---1------------------0---00----------00
0----------1---00-0-0----0---0--------0-----0-----
-----0-----0-10-------------------0-----------0---
-------------1--0---0------0--------01--0--0------
---0---0---01--10------0-----------0------------0-
0---------------0-0-0--------------1--10-0---0----
-----0---0---00-----00---0-------0---1------------
0-0---------------0---------0--------0--0--0---0--
10-----0---0--0--00---00-----------0---------0----
1-------------------------0---0-------01--0--1---0
*-10-----0--0--11--00----------------0-----0---1--
----------------------------0----0---1--10-----00-
00------------0--00--0--0-----0----0---1-----0----
-----------0-------------------0-------0------0---
----------------0--11-11--0-0---0-0--0------------
---------0---00-------------0--------0----------0-
------------------0--0--0-----0-0---0-------------
-----------0----0-0-------0---0----0---0----------
-----------------0----------------0---------------
-------00-0--1--0---0-------0--------0------------
---------------0---0-------------------------0----
-----01--1001--0--0--------------0---------0------
---------0-------0-------------------------0---0--
-------00----0-----------------0---0-----0--------
-------0---0------0--------------------------0----
------------------1--------------0----------------
----0----0------0---0--------00--------------0----
---------0------0---0------------0----------------
--0---0--1--------1----0---01--10----------0---0--
-------0---0------0------------0---0--------------
----00-0---0---------0---0---00---0----------0----
--0----0-1----------------------------------------
---0---1-0-------------0--0-----0---0-------------
0---01---0--0------------------0---0------------0-
0----0------------------0-0-0-----0---------------
--0-------01--0----0-------------0-------0--------
0-0---------------------0-0-0---------------------
------------10---0---0-----------------0---00-----
0-------------------0--0--0-------0-------------0-
---0--1----0-------0--------------------------0---
----01------------0--11--0------0---0---------0---
----10--0-0-------------------0--------0---0------
--01--00------0-----0--0----------0------10-----0-
------0-0---0---------------0---0--------1--------
----00------0-0-0----------------------01**10-----

Generation = 4, Population = 344.
0---------0-----------0--.----0-------------0-----
-----------0---0---0-----.-1---0--0---------------
------0------10---0--1----.1-1--------------------
---------------------------------1-------0---0-00-
--0-0-------------0-------0-----------0-0-------1-
-----0-0-----.11---0-------1--0-------0-----------
---------11.--0--00---00-0-----0-----0-----1------
-----------------------0-----------1-1------1---00
-------------*0-------0-----------1--.----1-1-----
-0-------01*.--.-11-0-------------1---------------
-------------11---0---0----00----1-.--.*00--------
00------------*--0-1-------0---0-----.-1-----1--0-
--0-0-------------*-------------------11----------
*-------------0-1-------1------------1------------
1-----------------1-----0-------00--00-.----1.--10
.-.-10----1--1-..------00-----1----0-----1-----.-1
-----------0-------------------------.--.--1------
---------0----------1------------11----.-1--------
--------------1--------------0-------1--1---0--10-
00-----------------..-..-10-*-----0----------0----
-------0----1--1--1------------0-------0----------
-----------------1------------*------00-----------
-------00-1--0----*-----1-------10-------0------0-
------------------0--0--0-----1--------------0----
--------*--1--1-0-----0----------0---------0------
---------1---1-------0------------0---------------
---01-.--1-0.-1--0----------0--------0-------1----
------------------0----------------------1-------0
------------1----------------0-------0-0----------
----00-------1---1-----------00--------------0----
-------101---0----.--------------0-------0--------
---------*----0-------00---------------------0----
--------------0-------0----------0----------------
0----1--1.--------.------01-.----0-------0-------0
--1--1-*-----0---------------1---0---0------------
-----*-------0----10------10----------------------
---------.--0-----0-----------------------------0-
10--0--.-0----------------0--0--------0------0----
*--0--11-*---------0---------0---0---0---0----0---
---------1------------01------0-------------------
-----1--0--.----0---------------------------0---0-
--*-00--------------0-01------0-----------------0-
--10--0----1.----------1---------0---0---01--1----
----00--------------------0-----------------------
-0-------01-1-----------------0-----------------1-
0-------------0-0--0-..-1-10--1-------0--00-0---0-
--1----0--01-------0-----------------0---1---01---
01-.----10----0--------------------------1*-------
-----0*---0---0-----------0---0---1-------1-------
----**----0-------0-0--0----------0--01--**1-10-0-

Generation = 6, Population = 897.
--0---0-0-0-000---0-010-1.-1010-0---------0-0-0---
---------0-----------1---.1.----1---0----0---0-00-
0-0-----0-011.-0--001-10--..-111------0-0---0---1-
-----0-0---0--1-----------1---0---*1--10-----00*-1
0-0-0----00-----01--000001-100-0----01*-0-00--0-.-
---0-0-0-1-0-*1.1----0-1-1--11--00-011--10--00-0-1
--0-0--11..*0-*1--*0-1*00011-0---001--00001-00--1-
-0---0-0-11--*10-11000---1-0--0--001-*10--1-*--1-*
---------11--.*111--1--000-00--001*--.00-110.-0---
10-0---01*1..-1.*.1-0-00---1---00-**0-0-----10---0
--0-0-------1*11--*---0-001--101--0.--.*0*-00-----
-*00-----0000-*1---111--00-------10--.01-1-0--11--
1-0-0-0------00-10.00-0-1--10---0-----*1----0---10
*-1-10----0-01--1*-0--1*.-00--00-----*---0------11
*---1------0----1-1-0-0---0---11-------*--011.01.0
.1.*.-1001-01-1*.---101-010-0---1-1----0-1-1-0-.-*
---------1---10---0-----1----0--01--0.--.1---0-0-1
11--00-0--11-0----1---00000-0-001..-0--.-1-1-0---0
-------0---0---10-0--------0-------0--1----1-0-.-1
*-10-----0-------0-*.-..1.*0.---010-0*0--0-0---1--
-----0-010------101-0---0-------1-------1---0--0--
00-------------1--*0-0--100---.-1-001--00---------
-----01*-01---1---.-0---.-0---1-.*10----------0---
---------0---1--11-11001--0-0-1-1-0--00----1---0--
---00-0**--11---01--0-------0--010-0-0----------0-
-------0-.--1--1---0-0-00-----0-0---0----0---1---0
-01-.*.1*.-0*-1*---0--0---0--10--0-0-0---------0--
----10---*--1---00--00-------10---0----1---1-1-0-0
---01--01-01-0---1---------01--0-0-0---0-----1----
--01--1*-1-0-*1---*0--00---01--10--------1-0-0-0-0
-----11.-11-1-00--.---1------1-0-0-0-0-----0------
0---0--10.-000--10--11--1-0--11--0-------1-0-0-0-0
--0--1--1---0---1---1---0----0-0---0-0---1--------
0-10-.101.---11---.0--1-1-.-.--1---0---0---0-0-0-0
1--11--*---11-10--*---0----1-----*-----0--------0-
-0-0-.110--1---001--10--0-.-1----1----0--0---0---0
1-00--000*---00-0--00--------------------0--------
1--0-1-.1*-0-0----11--000-0-1-10----0---0--0---0--
*01-1*..0.100---001--0-----0---------------0----0-
*00--*-1-*-0---------1*.100-000-0-----0------0--1-
0-*0-.1--01.--0---00---0-----0---------------10---
0-.1-000-0--0-----0-00-1100-0-0-0-------------0---
0---------11*---0----0-.-0----10--------1-.----0--
0--0**00----1-0-0--00-01--010---------0--11-0-----
------1-1-.01-1----1---0----0---00--------1-----.-
-01-01--01--1---011--..-10.--1.-0---0--1-0-00-----
00--1-1-00-.-00--0---0----1-------00--------0-.1--
-*1.1*11*--10-*---010--00-10--1---1--1-011*1-11---
--0000.---*1----0--0----0---------.-01--0*1-011---
0001**-0-1*-1-1-0----110-0------0-*1-*.--**.-*-0--

Generation = 8, Population = 607.
-------------0----0--.--1.1*-1----0---0-----------
-----0-------11----1-.-1-.1*----.-01--------------
0-0--------...1--1--.-.*10..1...-01--1-----10---.-
-----------*011--------0101-11---*..-0.--0-1-*-.-1
0-----0-1-*10----.-------11.------1-0*.---------.-
---0-----.1-1*1.*0--0------*-.------.---.-1-0-----
-----1-.....--.1--.0-*.---1-1-----**0*0-*---*--1--
10--------1-0.1---*------------------*1*0-1-*00--.
---------**-0..**-------------0-**.1-.*0-..*.0----
.*---01--*-*.--.*.*--00----.----01*.----1---------
-1---------0-.--1-*0-----**--.-----*10*.0.--00--01
-.--------000-.101--*.-----*--11-.0--.0*1*-*-*..-1
*10---0-0----001-0.*-1-1.-----------0-.-------1---
*1*0.------1*---..1-1-...-0-0------0-*00---1-1--1.
.-1-*--------11-.111*--0---01---1---11-.-1*...*..-
.-...-.-0---.-1*.---1---01------*-1--1--0.-.--0*-.
1---1----*--0------------------0-.--*.01.11-1-0--1
*.1--*----*--*0-1*-11--0----01---*.-*--.1*-*------
-------*1----1-.--*0---1----0----1----.----10-1.*.
.1.-------1--0---*0..-*....0.---0-*1*.-1-----1-.--
---1------------.------1-0-11-0--0---*--*--0------
-------0---------1.----1--0--0.1.1--.-----0-------
-------.1-.-0---11.1--1-.---1-.-..1-0---1------0--
00-----0----0-0--1-.1-0.------.-.0-----------0----
----*-***01*11------*-----1----*-------0-------0--
---------.0-1-0*---------1---0*------1-------1----
1-.*..*1*.1-.0..0----1-----------0--------------10
----1---1.--.010--1--*-00-----0------1-.-----*-*--
------00.---**---*-------0---------0-----1--------
-1---1-.-.-*1.-0-1.------------.------------------
--1--.1.0-*-.-0---.---.-----0.---*----------------
-----1-.0.---*----*--.--.-0-1..----------.--------
----------00----*-1-*-----1------------1-.------0-
*-10-..--*-1-.--10.-01.-.-.-.-*.-1----1--------0--
*0-*.--.--1-.*----.------0------1.1------1----0---
-0101.-1011.---0-*--------*-1--0-.-----------0----
*--*-00--.--1--------------------1----------------
11---.0.*.1--*------0-----0---.---0-------1-----0-
.*--....*.*-*--1---------1------------------------
***-0.---.0*0--------1...0--------0-------------.-
0-.--..11*..1-----0-0---------1---------0---1-----
01.*-**-0-10*-----*----1-----1*---0------0---0----
--1110----.1.*-----1---.---1----------1--1.1--0--0
--1*..*--0--1--------1*1-----------------*--------
-1--01.-.1.-*-*----*-0--------------------.-----.-
-0.00.--*-1-.--1-..1-.*0.-.-01.---1-----0-*-0-1---
*-*1--.1*--.--0------0----*---1---------11--*1*1-0
-.-.*.*1*10-*1.----.*01*--1-------.--.0**...0-1-0-
--*-0**01-*-*-----0---1----------0*0-.1-0..-*-1-0-
*0-*..0--**1---------*1---1-------.*1.*--.*.1**--0

Generation = 10, Population = 999.
0-0--------0-*10010-1.10-.-.0--011---10-0--00-----
---0---0---01-1101---*-.-*-.-1--.--.1----0-1-0---0
0-0-0-0-0--...111-*1.1*.*0..*..*1-10-.*0-11--00-.-
---0-0---00.*-11---00010*0--1.*--*.*00*--00.1.-.-1
----010---..*--01.00-1---11**---00-0***----*---0*-
1----1--1*.-1..*.*-0---10--*-*---001.---.--0*----1
1--1--1*....--.-1*.--..-01-*1----*.*0.-**---.00--0
.*1--10-0-*1-.--1*.--1-----0-----*1-0.-*--1-.-*11.
1----1-0-..--....----1---0----0-..*1-*.0-*.*.*--00
*.1-1-.-*.-..--*...0*--101-.-----...---0*-----0--1
-.*0--1-0-0--.--11.------.*01.1-1*-*--.*-.---0---1
-.11-01-1-*---.1*1-*.*--1-0.--..-.-0-.0***0.-...0*
..-01-0-0-1-1-0-**..0-11*01**---0010--.-110--1----
*..*.1--10-..*-1...1*0*..101*--010-00.0-11---1---.
.-.1.---10-*0*1-...-.1-0--0--1-*.--0.*-*0***....*-
.1...1.--1--*11*.1-1.----.-1-01-.01--.---*0.-*-.-.
*1-11-0--.-101--11--0------0-1--1*--..-..-.-1-*0--
..-11*---0.*0**0..*1*---*-1--.*-*..-.11...1.1-00-1
111001-..-0111-.*1.00-0.1001-----*01-1.-*1---*1.**
*-.--0--1-111*1--.0..1....**.-1101.-**1-0-0----.-0
011--0-*----1*--*1*0-0-.0011*100-*0--.10.10011010-
1----0-0-00-1001-..*00-**0--10*1..01**-10---0-----
---00--*11.1*1-1...--1*-.0-11-*-.*1--1-11-10-1-0-0
*-10-0-*1*------1.-*.--*-0*---*1.--0-0----01-0-0--
1-0*.0*..0*.-.*1-*01.--00----1-**-0-0*--10---0-01-
100-1000-.0-.--*0-0--10-*---1-*011-0-1-1---0------
1-..*..-*..*.-.*01111.-1-10------------0-0----0-.*
-0----0-..--.*-----1-.-*--0-0*0-0--1-1-.---1-.-.-1
0-00*0--.011..--1*00---1---01----0---1-1---0----00
----*1*.1.0.-.---**--0-10-0-*01.-----0-------1-0--
0----*1.*1.0*1----.00-.--0--**-1-.-----0-0------0-
001--10.*.-*1.---*.1-.--.-*-...--*----0--.-----0--
10*1--0--0--*1--.-.-.---01.--1-10*0--0---.--------
*-*0-..1*.-.-.---*.--*.-**.1.-*.---10---0--------0
*-1**1-*-*.1..-11-*-1-10---1--111*1-0------00-----
----.*-.-1-*---01*-1-1--0-.-1*---*1---0---00----0-
*11.1*-1-.--1-11---------------11-00-----1----0---
1-1-0**....-1.1--01--11-100---.10-0-0---0---000---
.*-0...*..*1.-1--01-1-001*-0--0--0------0---0-----
.**-0*---.0.--0---1001...**0-1*-0---0----00--1--.-
-1.-1.....**-1000-*10---01-00-.-0--------0-1-----0
-*.**..*-*.-.-0-0-*-*0*----11..---0-0--0-*-----0--
---11---11...*-0-0011--.01---1------0--1--.1-1-110
-0-..**-----*0*0--00*-..10--0-0--------0-.*1001---
1*---*.-...-*-.-00-.0-110--0--1-------0-1-.-10-0.-
--.0-*-0*-1-.0---.**-..*.1*--.*01---0--*-1.-*-*---
.**-*0.1.01*--0-0--*-*10-1.1----0011-0-0.*--.1..--
-.1.**.1.--1.*.----..-.*-1.--0----.10.0.....-*--*0
1-.-0*.-10.-.---1--*-1--1-0---001-.01.1-**.1.--0*0
.**.*.--0.**-------0-*------0----1.**.*--***-**1--

*** Life<Cell> 27x27 ***

Generation = 0, Population = 187.
---------------------------
-00000000000000000000------
-00000000000000000000------
-00000000000000000000------
-00000000000000000000------
-0000000000000-------------
---000000000000000000------
---------------------------
---------------------------
---------------------------
---------------------------
-000-----------000000------
-00000000000000000000------
-00000000000000000000------
-00-------------00000------
-0000000000000000----------
-----------------0000------
---------------------------
---------------------------
---------------------------
---------------------------
---------------------------
---------------------------
---------------------------
---------------------------
---------------------------
---------------------------

Generation = 2, Population = 258.
-11111111111111111111------
1--****************--10----
1--0000000000000000--10----
1*0-----------00000--10----
1------------------*010----
1--000000000----00000------
-----*********00000--10----
-0011111111111-------------
---000000000000000000------
-000-----------000000------
-11100000000000111111------
1-*---1111111----**--10----
1---------------000--10----
1*0-***********--00--10----
1**--000000000---*-*010----
1--000000000000----00------
-11------------1-----10----
-0000000000000000----------
-----------------0000------
---------------------------
---------------------------
---------------------------
---------------------------
---------------------------
---------------------------
---------------------------
---------------------------

Generation = 4, Population = 233.
-.-.**************.-.------
.--*...........**..1-1010--
--00-*********000-*--.*10--
.**01------------*001.*10--
--111------------1*.*.010--
*1----****--0*----**0------
1---*.****....-0*----.*10--
---..-111111-*1------------
---------------------------
--------------1*0000*------
-11.00*******00..11.-------
.-*01--.....----*.*-01010--
-100**1111111*---0*--.*10--
..-1...........--*001.*10--
*.*----00000--10*.-**.010--
*---0--------**------------
-111000000000--.-1011.*10--
-0*000000000000**0111------
-11-------------0*00*------
-0000000000000000----------
-----------------0000------
---------------------------
---------------------------
---------------------------
---------------------------
---------------------------
---------------------------

*** Life<Cell> 34x34 ***

Generation = 0, Population = 153.
----------------------------------
-00000000000000000000-------------
-00000000000000000000-------------
-00000000000000000000-------------
-00000000000000000000-------------
-00000000000000-------------------
-----------0000000000-------------
----------------------------------
----------------------------------
----------------------------------
----------------------------------
-00000----------------------------
----------------------------------
----------0000000-----------------
-000000000000000------------------
-0000000000000--------------------
------00000000------0-------------
----------------------------------
----------------------------------
----------------------------------
----------------------------------
----------------------------------
----------------------------------
----------------------------------
----------------------------------
----------------------------------
----------------------------------
----------------------------------
----------------------------------
----------------------------------
----------------------------------
----------------------------------
----------------------------------
----------------------------------

Generation = 1, Population = 168.
-00000000000000000000-------------
0-111111111111111111-0------------
01------------------10------------
01------------------10------------
01-------------11111-0------------
0-111111111---10------------------
-000000000--111-----10------------
-----------0000000000-------------
----------------------------------
----------------------------------
-00000----------------------------
01---10---------------------------
-00000----0000000-----------------
-00000000--1111110----------------
0-11111111----1-------------------
0-1111-------1-0----0-------------
-0000--111111-0----0-0------------
------00000000------0-------------
----------------------------------
----------------------------------
----------------------------------
----------------------------------
----------------------------------
----------------------------------
----------------------------------
----------------------------------
----------------------------------
----------------------------------
----------------------------------
----------------------------------
----------------------------------
----------------------------------
----------------------------------
----------------------------------

Generation = 2, Population = 230.
-11111111111111111111-------------
1--****************--10-----------
1--0000000000000000--10-----------
1*0------------0000--10-----------
1--00000000--------*010-----------
1--********00----0000-------------
-11111111----**0000--10-----------
-00000000001111-------------------
-----------0000000000-------------
-00000----------------------------
----------------------------------
1*0-0*10--0000000-----------------
-111110000111111------------------
------11----**-**10---------------
10*---****0000*000--0-------------
10*-------00----0-----------------
-111----****------0---0-----------
-0000011111111--------------------
------00000000------0-------------
----------------------------------
----------------------------------
----------------------------------
----------------------------------
----------------------------------
----------------------------------
----------------------------------
----------------------------------
----------------------------------
----------------------------------
----------------------------------
----------------------------------
----------------------------------
----------------------------------
----------------------------------
